<?xml version="1.0" encoding="UTF-8" standalone="no"?>
<!DOCTYPE svg PUBLIC "-//W3C//DTD SVG 1.1//EN"
 "http://www.w3.org/Graphics/SVG/1.1/DTD/svg11.dtd">
<!-- Generated by graphviz version 2.40.1 (20161225.0304)
 -->
<!-- Title: gambol::RobotModel Pages: 1 -->
<svg width="159pt" height="413pt"
 viewBox="0.00 0.00 159.00 413.00" xmlns="http://www.w3.org/2000/svg" xmlns:xlink="http://www.w3.org/1999/xlink">
<g id="graph0" class="graph" transform="scale(1 1) rotate(0) translate(4 409)">
<title>gambol::RobotModel</title>
<!-- Node0 -->
<g id="node1" class="node">
<title>Node0</title>
<polygon fill="#bfbfbf" stroke="#000000" points="22,-226.5 22,-404.5 129,-404.5 129,-226.5 22,-226.5"/>
<text text-anchor="middle" x="75.5" y="-392.5" font-family="Helvetica,sans-Serif" font-size="10.00" fill="#000000">gambol::RobotModel</text>
<polyline fill="none" stroke="#000000" points="22,-385.5 129,-385.5 "/>
<text text-anchor="start" x="30" y="-373.5" font-family="Helvetica,sans-Serif" font-size="10.00" fill="#000000"># size_q_</text>
<text text-anchor="start" x="30" y="-362.5" font-family="Helvetica,sans-Serif" font-size="10.00" fill="#000000"># size_dq_</text>
<text text-anchor="start" x="30" y="-351.5" font-family="Helvetica,sans-Serif" font-size="10.00" fill="#000000"># size_u_</text>
<text text-anchor="start" x="30" y="-340.5" font-family="Helvetica,sans-Serif" font-size="10.00" fill="#000000"># ee_count_</text>
<text text-anchor="start" x="30" y="-329.5" font-family="Helvetica,sans-Serif" font-size="10.00" fill="#000000"># q_</text>
<text text-anchor="start" x="30" y="-318.5" font-family="Helvetica,sans-Serif" font-size="10.00" fill="#000000">and 3 more...</text>
<polyline fill="none" stroke="#000000" points="22,-311.5 129,-311.5 "/>
<text text-anchor="start" x="30" y="-299.5" font-family="Helvetica,sans-Serif" font-size="10.00" fill="#000000">+ RobotModel()</text>
<text text-anchor="start" x="30" y="-288.5" font-family="Helvetica,sans-Serif" font-size="10.00" fill="#000000">+ ~RobotModel()</text>
<text text-anchor="start" x="30" y="-277.5" font-family="Helvetica,sans-Serif" font-size="10.00" fill="#000000">+ clone()</text>
<text text-anchor="start" x="30" y="-266.5" font-family="Helvetica,sans-Serif" font-size="10.00" fill="#000000">+ HasIK()</text>
<text text-anchor="start" x="30" y="-255.5" font-family="Helvetica,sans-Serif" font-size="10.00" fill="#000000">+ SetCurrent()</text>
<text text-anchor="start" x="30" y="-244.5" font-family="Helvetica,sans-Serif" font-size="10.00" fill="#000000">and 21 more...</text>
<text text-anchor="start" x="30" y="-233.5" font-family="Helvetica,sans-Serif" font-size="10.00" fill="#000000">+ DenseToSparse()</text>
</g>
<!-- Node1 -->
<g id="node2" class="node">
<title>Node1</title>
<g id="a_node2"><a xlink:href="classgambol_1_1MuJoCoRobotModel.html" target="_top" xlink:title="{gambol::MuJoCoRobotModel\n|# model_\l# ee_body_id_\l# base_body_id_\l|+ MuJoCoRobotModel()\l+ MuJoCoRobotModel()\l+ clone()\l+ ~MuJoCoRobotModel()\l+ GetQuatIndices()\land 20 more...\l# Update()\l# QuaternionDerivative()\l# QuaternionMatrix()\l# QuaternionMatrixTranspose()\l# AngularVelocityMatrix()\l}">
<polygon fill="none" stroke="#000000" points="0,-.5 0,-189.5 151,-189.5 151,-.5 0,-.5"/>
<text text-anchor="middle" x="75.5" y="-177.5" font-family="Helvetica,sans-Serif" font-size="10.00" fill="#000000">gambol::MuJoCoRobotModel</text>
<polyline fill="none" stroke="#000000" points="0,-170.5 151,-170.5 "/>
<text text-anchor="start" x="8" y="-158.5" font-family="Helvetica,sans-Serif" font-size="10.00" fill="#000000"># model_</text>
<text text-anchor="start" x="8" y="-147.5" font-family="Helvetica,sans-Serif" font-size="10.00" fill="#000000"># ee_body_id_</text>
<text text-anchor="start" x="8" y="-136.5" font-family="Helvetica,sans-Serif" font-size="10.00" fill="#000000"># base_body_id_</text>
<polyline fill="none" stroke="#000000" points="0,-129.5 151,-129.5 "/>
<text text-anchor="start" x="8" y="-117.5" font-family="Helvetica,sans-Serif" font-size="10.00" fill="#000000">+ MuJoCoRobotModel()</text>
<text text-anchor="start" x="8" y="-106.5" font-family="Helvetica,sans-Serif" font-size="10.00" fill="#000000">+ MuJoCoRobotModel()</text>
<text text-anchor="start" x="8" y="-95.5" font-family="Helvetica,sans-Serif" font-size="10.00" fill="#000000">+ clone()</text>
<text text-anchor="start" x="8" y="-84.5" font-family="Helvetica,sans-Serif" font-size="10.00" fill="#000000">+ ~MuJoCoRobotModel()</text>
<text text-anchor="start" x="8" y="-73.5" font-family="Helvetica,sans-Serif" font-size="10.00" fill="#000000">+ GetQuatIndices()</text>
<text text-anchor="start" x="8" y="-62.5" font-family="Helvetica,sans-Serif" font-size="10.00" fill="#000000">and 20 more...</text>
<text text-anchor="start" x="8" y="-51.5" font-family="Helvetica,sans-Serif" font-size="10.00" fill="#000000"># Update()</text>
<text text-anchor="start" x="8" y="-40.5" font-family="Helvetica,sans-Serif" font-size="10.00" fill="#000000"># QuaternionDerivative()</text>
<text text-anchor="start" x="8" y="-29.5" font-family="Helvetica,sans-Serif" font-size="10.00" fill="#000000"># QuaternionMatrix()</text>
<text text-anchor="start" x="8" y="-18.5" font-family="Helvetica,sans-Serif" font-size="10.00" fill="#000000"># QuaternionMatrixTranspose()</text>
<text text-anchor="start" x="8" y="-7.5" font-family="Helvetica,sans-Serif" font-size="10.00" fill="#000000"># AngularVelocityMatrix()</text>
</a>
</g>
</g>
<!-- Node0&#45;&gt;Node1 -->
<g id="edge1" class="edge">
<title>Node0&#45;&gt;Node1</title>
<path fill="none" stroke="#191970" d="M75.5,-216.1939C75.5,-207.4093 75.5,-198.531 75.5,-189.7853"/>
<polygon fill="none" stroke="#191970" points="72.0001,-216.4498 75.5,-226.4498 79.0001,-216.4498 72.0001,-216.4498"/>
</g>
</g>
</svg>
