<?xml version="1.0" encoding="UTF-8" standalone="no"?>
<!DOCTYPE svg PUBLIC "-//W3C//DTD SVG 1.1//EN"
 "http://www.w3.org/Graphics/SVG/1.1/DTD/svg11.dtd">
<!-- Generated by graphviz version 2.40.1 (20161225.0304)
 -->
<!-- Title: gambol::GaitGeneratorBiped Pages: 1 -->
<svg width="172pt" height="551pt"
 viewBox="0.00 0.00 172.00 551.00" xmlns="http://www.w3.org/2000/svg" xmlns:xlink="http://www.w3.org/1999/xlink">
<g id="graph0" class="graph" transform="scale(1 1) rotate(0) translate(4 547)">
<title>gambol::GaitGeneratorBiped</title>
<!-- Node0 -->
<g id="node1" class="node">
<title>Node0</title>
<polygon fill="#bfbfbf" stroke="#000000" points="12,-160.5 12,-327.5 152,-327.5 152,-160.5 12,-160.5"/>
<text text-anchor="middle" x="82" y="-315.5" font-family="Helvetica,sans-Serif" font-size="10.00" fill="#000000">gambol::GaitGeneratorBiped</text>
<polyline fill="none" stroke="#000000" points="12,-308.5 152,-308.5 "/>
<text text-anchor="start" x="20" y="-296.5" font-family="Helvetica,sans-Serif" font-size="10.00" fill="#000000"># I_</text>
<text text-anchor="start" x="20" y="-285.5" font-family="Helvetica,sans-Serif" font-size="10.00" fill="#000000"># b_</text>
<text text-anchor="start" x="20" y="-274.5" font-family="Helvetica,sans-Serif" font-size="10.00" fill="#000000"># P_</text>
<text text-anchor="start" x="20" y="-263.5" font-family="Helvetica,sans-Serif" font-size="10.00" fill="#000000"># B_</text>
<polyline fill="none" stroke="#000000" points="12,-256.5 152,-256.5 "/>
<text text-anchor="start" x="20" y="-244.5" font-family="Helvetica,sans-Serif" font-size="10.00" fill="#000000">+ GaitGeneratorBiped()</text>
<text text-anchor="start" x="20" y="-233.5" font-family="Helvetica,sans-Serif" font-size="10.00" fill="#000000">+ ~GaitGeneratorBiped()</text>
<text text-anchor="start" x="20" y="-222.5" font-family="Helvetica,sans-Serif" font-size="10.00" fill="#000000"># GetGait()</text>
<text text-anchor="start" x="20" y="-211.5" font-family="Helvetica,sans-Serif" font-size="10.00" fill="#000000"># GetStrideStand()</text>
<text text-anchor="start" x="20" y="-200.5" font-family="Helvetica,sans-Serif" font-size="10.00" fill="#000000"># GetStrideFlight()</text>
<text text-anchor="start" x="20" y="-189.5" font-family="Helvetica,sans-Serif" font-size="10.00" fill="#000000"># GetStrideWalk()</text>
<text text-anchor="start" x="20" y="-178.5" font-family="Helvetica,sans-Serif" font-size="10.00" fill="#000000"># GetStrideWalkBegin()</text>
<text text-anchor="start" x="20" y="-167.5" font-family="Helvetica,sans-Serif" font-size="10.00" fill="#000000">and 7 more...</text>
</g>
<!-- Node2 -->
<g id="node3" class="node">
<title>Node2</title>
<g id="a_node3"><a xlink:href="classgambol_1_1GaitGeneratorBipedArms.html" target="_top" xlink:title="Gait generator for a pinfoot biped with arms. ">
<polygon fill="none" stroke="#000000" points=".5,-.5 .5,-123.5 163.5,-123.5 163.5,-.5 .5,-.5"/>
<text text-anchor="middle" x="82" y="-111.5" font-family="Helvetica,sans-Serif" font-size="10.00" fill="#000000">gambol::GaitGeneratorBipedArms</text>
<polyline fill="none" stroke="#000000" points=".5,-104.5 163.5,-104.5 "/>
<text text-anchor="start" x="8.5" y="-92.5" font-family="Helvetica,sans-Serif" font-size="10.00" fill="#000000"># I_B_</text>
<text text-anchor="start" x="8.5" y="-81.5" font-family="Helvetica,sans-Serif" font-size="10.00" fill="#000000"># P_B_</text>
<text text-anchor="start" x="8.5" y="-70.5" font-family="Helvetica,sans-Serif" font-size="10.00" fill="#000000"># b_B_</text>
<text text-anchor="start" x="8.5" y="-59.5" font-family="Helvetica,sans-Serif" font-size="10.00" fill="#000000"># B_B_</text>
<polyline fill="none" stroke="#000000" points=".5,-52.5 163.5,-52.5 "/>
<text text-anchor="start" x="8.5" y="-40.5" font-family="Helvetica,sans-Serif" font-size="10.00" fill="#000000">+ GaitGeneratorBipedArms()</text>
<text text-anchor="start" x="8.5" y="-29.5" font-family="Helvetica,sans-Serif" font-size="10.00" fill="#000000">+ ~GaitGeneratorBipedArms()</text>
<text text-anchor="start" x="8.5" y="-18.5" font-family="Helvetica,sans-Serif" font-size="10.00" fill="#000000"># GetGait()</text>
<text text-anchor="start" x="8.5" y="-7.5" font-family="Helvetica,sans-Serif" font-size="10.00" fill="#000000"># GetStrideHandstand()</text>
</a>
</g>
</g>
<!-- Node0&#45;&gt;Node2 -->
<g id="edge2" class="edge">
<title>Node0&#45;&gt;Node2</title>
<path fill="none" stroke="#191970" d="M82,-150.2394C82,-141.186 82,-132.1691 82,-123.5475"/>
<polygon fill="none" stroke="#191970" points="78.5001,-150.4574 82,-160.4574 85.5001,-150.4574 78.5001,-150.4574"/>
</g>
<!-- Node1 -->
<g id="node2" class="node">
<title>Node1</title>
<g id="a_node2"><a xlink:href="classgambol_1_1GaitGenerator.html" target="_top" xlink:title="Generates endeffector phase durations for predefined gait styles. ">
<polygon fill="none" stroke="#000000" points="0,-364.5 0,-542.5 164,-542.5 164,-364.5 0,-364.5"/>
<text text-anchor="middle" x="82" y="-530.5" font-family="Helvetica,sans-Serif" font-size="10.00" fill="#000000">gambol::GaitGenerator</text>
<polyline fill="none" stroke="#000000" points="0,-523.5 164,-523.5 "/>
<text text-anchor="start" x="8" y="-511.5" font-family="Helvetica,sans-Serif" font-size="10.00" fill="#000000"># times_</text>
<text text-anchor="start" x="8" y="-500.5" font-family="Helvetica,sans-Serif" font-size="10.00" fill="#000000"># contacts_</text>
<polyline fill="none" stroke="#000000" points="0,-493.5 164,-493.5 "/>
<text text-anchor="start" x="8" y="-481.5" font-family="Helvetica,sans-Serif" font-size="10.00" fill="#000000">+ GaitGenerator()</text>
<text text-anchor="start" x="8" y="-470.5" font-family="Helvetica,sans-Serif" font-size="10.00" fill="#000000">+ ~GaitGenerator()</text>
<text text-anchor="start" x="8" y="-459.5" font-family="Helvetica,sans-Serif" font-size="10.00" fill="#000000">+ GetPhaseDurations()</text>
<text text-anchor="start" x="8" y="-448.5" font-family="Helvetica,sans-Serif" font-size="10.00" fill="#000000">+ GetPhaseDurations()</text>
<text text-anchor="start" x="8" y="-437.5" font-family="Helvetica,sans-Serif" font-size="10.00" fill="#000000">+ IsInContactAtStart()</text>
<text text-anchor="start" x="8" y="-426.5" font-family="Helvetica,sans-Serif" font-size="10.00" fill="#000000">and 4 more...</text>
<text text-anchor="start" x="8" y="-415.5" font-family="Helvetica,sans-Serif" font-size="10.00" fill="#000000">+ MakeGaitGenerator()</text>
<text text-anchor="start" x="8" y="-404.5" font-family="Helvetica,sans-Serif" font-size="10.00" fill="#000000"># RemoveTransition()</text>
<text text-anchor="start" x="8" y="-393.5" font-family="Helvetica,sans-Serif" font-size="10.00" fill="#000000">&#45; GetPhaseDurations()</text>
<text text-anchor="start" x="8" y="-382.5" font-family="Helvetica,sans-Serif" font-size="10.00" fill="#000000">&#45; GetGait()</text>
<text text-anchor="start" x="8" y="-371.5" font-family="Helvetica,sans-Serif" font-size="10.00" fill="#000000">&#45; GetNormalizedPhaseDurations()</text>
</a>
</g>
</g>
<!-- Node1&#45;&gt;Node0 -->
<g id="edge1" class="edge">
<title>Node1&#45;&gt;Node0</title>
<path fill="none" stroke="#191970" d="M82,-354.3411C82,-345.4441 82,-336.4932 82,-327.7461"/>
<polygon fill="none" stroke="#191970" points="78.5001,-354.3493 82,-364.3494 85.5001,-354.3494 78.5001,-354.3493"/>
</g>
</g>
</svg>
