<?xml version="1.0" encoding="UTF-8" standalone="no"?>
<!DOCTYPE svg PUBLIC "-//W3C//DTD SVG 1.1//EN"
 "http://www.w3.org/Graphics/SVG/1.1/DTD/svg11.dtd">
<!-- Generated by graphviz version 2.40.1 (20161225.0304)
 -->
<!-- Title: gambol::NodesConstraint Pages: 1 -->
<svg width="1121pt" height="452pt"
 viewBox="0.00 0.00 1120.50 452.00" xmlns="http://www.w3.org/2000/svg" xmlns:xlink="http://www.w3.org/1999/xlink">
<g id="graph0" class="graph" transform="scale(1 1) rotate(0) translate(4 448)">
<title>gambol::NodesConstraint</title>
<!-- Node0 -->
<g id="node1" class="node">
<title>Node0</title>
<polygon fill="#bfbfbf" stroke="#000000" points="482.5,-204.5 482.5,-349.5 620.5,-349.5 620.5,-204.5 482.5,-204.5"/>
<text text-anchor="middle" x="551.5" y="-337.5" font-family="Helvetica,sans-Serif" font-size="10.00" fill="#000000">gambol::NodesConstraint</text>
<polyline fill="none" stroke="#000000" points="482.5,-330.5 620.5,-330.5 "/>
<text text-anchor="start" x="490.5" y="-318.5" font-family="Helvetica,sans-Serif" font-size="10.00" fill="#000000"># nodes_holder_</text>
<polyline fill="none" stroke="#000000" points="482.5,-311.5 620.5,-311.5 "/>
<text text-anchor="start" x="490.5" y="-299.5" font-family="Helvetica,sans-Serif" font-size="10.00" fill="#000000">+ GetValues()</text>
<text text-anchor="start" x="490.5" y="-288.5" font-family="Helvetica,sans-Serif" font-size="10.00" fill="#000000">+ GetBounds()</text>
<text text-anchor="start" x="490.5" y="-277.5" font-family="Helvetica,sans-Serif" font-size="10.00" fill="#000000">+ FillJacobianBlock()</text>
<text text-anchor="start" x="490.5" y="-266.5" font-family="Helvetica,sans-Serif" font-size="10.00" fill="#000000"># NodesConstraint()</text>
<text text-anchor="start" x="490.5" y="-255.5" font-family="Helvetica,sans-Serif" font-size="10.00" fill="#000000"># ~NodesConstraint()</text>
<text text-anchor="start" x="490.5" y="-244.5" font-family="Helvetica,sans-Serif" font-size="10.00" fill="#000000"># GetNumberOfNodes()</text>
<text text-anchor="start" x="490.5" y="-233.5" font-family="Helvetica,sans-Serif" font-size="10.00" fill="#000000">&#45; UpdateConstraintAtNode()</text>
<text text-anchor="start" x="490.5" y="-222.5" font-family="Helvetica,sans-Serif" font-size="10.00" fill="#000000">&#45; UpdateBoundsAtNode()</text>
<text text-anchor="start" x="490.5" y="-211.5" font-family="Helvetica,sans-Serif" font-size="10.00" fill="#000000">&#45; UpdateJacobianAtNode()</text>
</g>
<!-- Node2 -->
<g id="node3" class="node">
<title>Node2</title>
<g id="a_node3"><a xlink:href="classgambol_1_1DynamicsConstraint.html" target="_top" xlink:title="{gambol::DynamicsConstraint\n|&#45; model_k_\l&#45; model_kp1_\l&#45; size_q_\l&#45; size_dq_\l&#45; dt_k_\l|+ DynamicsConstraint()\l+ ~DynamicsConstraint()\l&#45; GetRow()\l&#45; Update()\l&#45; UpdateConstraintAtNode()\l&#45; UpdateBoundsAtNode()\l&#45; UpdateJacobianAtNode()\l}">
<polygon fill="none" stroke="#000000" points="0,-.5 0,-167.5 143,-167.5 143,-.5 0,-.5"/>
<text text-anchor="middle" x="71.5" y="-155.5" font-family="Helvetica,sans-Serif" font-size="10.00" fill="#000000">gambol::DynamicsConstraint</text>
<polyline fill="none" stroke="#000000" points="0,-148.5 143,-148.5 "/>
<text text-anchor="start" x="8" y="-136.5" font-family="Helvetica,sans-Serif" font-size="10.00" fill="#000000">&#45; model_k_</text>
<text text-anchor="start" x="8" y="-125.5" font-family="Helvetica,sans-Serif" font-size="10.00" fill="#000000">&#45; model_kp1_</text>
<text text-anchor="start" x="8" y="-114.5" font-family="Helvetica,sans-Serif" font-size="10.00" fill="#000000">&#45; size_q_</text>
<text text-anchor="start" x="8" y="-103.5" font-family="Helvetica,sans-Serif" font-size="10.00" fill="#000000">&#45; size_dq_</text>
<text text-anchor="start" x="8" y="-92.5" font-family="Helvetica,sans-Serif" font-size="10.00" fill="#000000">&#45; dt_k_</text>
<polyline fill="none" stroke="#000000" points="0,-85.5 143,-85.5 "/>
<text text-anchor="start" x="8" y="-73.5" font-family="Helvetica,sans-Serif" font-size="10.00" fill="#000000">+ DynamicsConstraint()</text>
<text text-anchor="start" x="8" y="-62.5" font-family="Helvetica,sans-Serif" font-size="10.00" fill="#000000">+ ~DynamicsConstraint()</text>
<text text-anchor="start" x="8" y="-51.5" font-family="Helvetica,sans-Serif" font-size="10.00" fill="#000000">&#45; GetRow()</text>
<text text-anchor="start" x="8" y="-40.5" font-family="Helvetica,sans-Serif" font-size="10.00" fill="#000000">&#45; Update()</text>
<text text-anchor="start" x="8" y="-29.5" font-family="Helvetica,sans-Serif" font-size="10.00" fill="#000000">&#45; UpdateConstraintAtNode()</text>
<text text-anchor="start" x="8" y="-18.5" font-family="Helvetica,sans-Serif" font-size="10.00" fill="#000000">&#45; UpdateBoundsAtNode()</text>
<text text-anchor="start" x="8" y="-7.5" font-family="Helvetica,sans-Serif" font-size="10.00" fill="#000000">&#45; UpdateJacobianAtNode()</text>
</a>
</g>
</g>
<!-- Node0&#45;&gt;Node2 -->
<g id="edge2" class="edge">
<title>Node0&#45;&gt;Node2</title>
<path fill="none" stroke="#191970" d="M472.3078,-268.2292C387.859,-256.0666 252.6244,-228.3303 151.5,-168 148.6463,-166.2975 145.8282,-164.4656 143.0529,-162.5279"/>
<polygon fill="none" stroke="#191970" points="471.9599,-271.7146 482.349,-269.6364 472.9315,-264.7823 471.9599,-271.7146"/>
</g>
<!-- Node3 -->
<g id="node4" class="node">
<title>Node3</title>
<g id="a_node4"><a xlink:href="classgambol_1_1ForceConstraint.html" target="_top" xlink:title="{gambol::ForceConstraint\n|&#45; terrain_\l&#45; model_\l&#45; ee_id_\l&#45; max_normal_force_\l&#45; mu_\l|+ ForceConstraint()\l+ ~ForceConstraint()\l+ UpdateConstraintAtNode()\l+ UpdateBoundsAtNode()\l+ UpdateJacobianAtNode()\l&#45; GetRow()\l&#45; Update()\l}">
<polygon fill="none" stroke="#000000" points="161,-.5 161,-167.5 302,-167.5 302,-.5 161,-.5"/>
<text text-anchor="middle" x="231.5" y="-155.5" font-family="Helvetica,sans-Serif" font-size="10.00" fill="#000000">gambol::ForceConstraint</text>
<polyline fill="none" stroke="#000000" points="161,-148.5 302,-148.5 "/>
<text text-anchor="start" x="169" y="-136.5" font-family="Helvetica,sans-Serif" font-size="10.00" fill="#000000">&#45; terrain_</text>
<text text-anchor="start" x="169" y="-125.5" font-family="Helvetica,sans-Serif" font-size="10.00" fill="#000000">&#45; model_</text>
<text text-anchor="start" x="169" y="-114.5" font-family="Helvetica,sans-Serif" font-size="10.00" fill="#000000">&#45; ee_id_</text>
<text text-anchor="start" x="169" y="-103.5" font-family="Helvetica,sans-Serif" font-size="10.00" fill="#000000">&#45; max_normal_force_</text>
<text text-anchor="start" x="169" y="-92.5" font-family="Helvetica,sans-Serif" font-size="10.00" fill="#000000">&#45; mu_</text>
<polyline fill="none" stroke="#000000" points="161,-85.5 302,-85.5 "/>
<text text-anchor="start" x="169" y="-73.5" font-family="Helvetica,sans-Serif" font-size="10.00" fill="#000000">+ ForceConstraint()</text>
<text text-anchor="start" x="169" y="-62.5" font-family="Helvetica,sans-Serif" font-size="10.00" fill="#000000">+ ~ForceConstraint()</text>
<text text-anchor="start" x="169" y="-51.5" font-family="Helvetica,sans-Serif" font-size="10.00" fill="#000000">+ UpdateConstraintAtNode()</text>
<text text-anchor="start" x="169" y="-40.5" font-family="Helvetica,sans-Serif" font-size="10.00" fill="#000000">+ UpdateBoundsAtNode()</text>
<text text-anchor="start" x="169" y="-29.5" font-family="Helvetica,sans-Serif" font-size="10.00" fill="#000000">+ UpdateJacobianAtNode()</text>
<text text-anchor="start" x="169" y="-18.5" font-family="Helvetica,sans-Serif" font-size="10.00" fill="#000000">&#45; GetRow()</text>
<text text-anchor="start" x="169" y="-7.5" font-family="Helvetica,sans-Serif" font-size="10.00" fill="#000000">&#45; Update()</text>
</a>
</g>
</g>
<!-- Node0&#45;&gt;Node3 -->
<g id="edge3" class="edge">
<title>Node0&#45;&gt;Node3</title>
<path fill="none" stroke="#191970" d="M472.6104,-250.3347C423.4193,-231.5929 360.2395,-203.54 310.5,-168 307.7309,-166.0214 304.9812,-163.9352 302.2606,-161.7644"/>
<polygon fill="none" stroke="#191970" points="471.6618,-253.7172 482.2539,-253.9584 474.1241,-247.1645 471.6618,-253.7172"/>
</g>
<!-- Node4 -->
<g id="node5" class="node">
<title>Node4</title>
<g id="a_node5"><a xlink:href="classgambol_1_1ForceFlatConstraint.html" target="_top" xlink:title="{gambol::ForceFlatConstraint\n|&#45; ee_id_\l&#45; max_normal_force_\l&#45; mu_\l|+ ForceFlatConstraint()\l+ ~ForceFlatConstraint()\l+ UpdateConstraintAtNode()\l+ UpdateBoundsAtNode()\l+ UpdateJacobianAtNode()\l&#45; GetRow()\l}">
<polygon fill="none" stroke="#000000" points="320,-17 320,-151 461,-151 461,-17 320,-17"/>
<text text-anchor="middle" x="390.5" y="-139" font-family="Helvetica,sans-Serif" font-size="10.00" fill="#000000">gambol::ForceFlatConstraint</text>
<polyline fill="none" stroke="#000000" points="320,-132 461,-132 "/>
<text text-anchor="start" x="328" y="-120" font-family="Helvetica,sans-Serif" font-size="10.00" fill="#000000">&#45; ee_id_</text>
<text text-anchor="start" x="328" y="-109" font-family="Helvetica,sans-Serif" font-size="10.00" fill="#000000">&#45; max_normal_force_</text>
<text text-anchor="start" x="328" y="-98" font-family="Helvetica,sans-Serif" font-size="10.00" fill="#000000">&#45; mu_</text>
<polyline fill="none" stroke="#000000" points="320,-91 461,-91 "/>
<text text-anchor="start" x="328" y="-79" font-family="Helvetica,sans-Serif" font-size="10.00" fill="#000000">+ ForceFlatConstraint()</text>
<text text-anchor="start" x="328" y="-68" font-family="Helvetica,sans-Serif" font-size="10.00" fill="#000000">+ ~ForceFlatConstraint()</text>
<text text-anchor="start" x="328" y="-57" font-family="Helvetica,sans-Serif" font-size="10.00" fill="#000000">+ UpdateConstraintAtNode()</text>
<text text-anchor="start" x="328" y="-46" font-family="Helvetica,sans-Serif" font-size="10.00" fill="#000000">+ UpdateBoundsAtNode()</text>
<text text-anchor="start" x="328" y="-35" font-family="Helvetica,sans-Serif" font-size="10.00" fill="#000000">+ UpdateJacobianAtNode()</text>
<text text-anchor="start" x="328" y="-24" font-family="Helvetica,sans-Serif" font-size="10.00" fill="#000000">&#45; GetRow()</text>
</a>
</g>
</g>
<!-- Node0&#45;&gt;Node4 -->
<g id="edge4" class="edge">
<title>Node0&#45;&gt;Node4</title>
<path fill="none" stroke="#191970" d="M484.3379,-196.4889C471.771,-181.4243 458.758,-165.8248 446.5703,-151.2147"/>
<polygon fill="none" stroke="#191970" points="481.7688,-198.873 490.8622,-204.31 487.1441,-194.389 481.7688,-198.873"/>
</g>
<!-- Node5 -->
<g id="node6" class="node">
<title>Node5</title>
<g id="a_node6"><a xlink:href="classgambol_1_1IntegrationConstraint.html" target="_top" xlink:title="{gambol::IntegrationConstraint\n|&#45; size_q_\l&#45; size_dq_\l&#45; dt_k_\l&#45; model_k_\l&#45; model_kp1_\l|+ IntegrationConstraint()\l+ ~IntegrationConstraint()\l&#45; GetRow()\l&#45; Update()\l&#45; UpdateConstraintAtNode()\l&#45; UpdateBoundsAtNode()\l&#45; UpdateJacobianAtNode()\l}">
<polygon fill="none" stroke="#000000" points="479,-.5 479,-167.5 624,-167.5 624,-.5 479,-.5"/>
<text text-anchor="middle" x="551.5" y="-155.5" font-family="Helvetica,sans-Serif" font-size="10.00" fill="#000000">gambol::IntegrationConstraint</text>
<polyline fill="none" stroke="#000000" points="479,-148.5 624,-148.5 "/>
<text text-anchor="start" x="487" y="-136.5" font-family="Helvetica,sans-Serif" font-size="10.00" fill="#000000">&#45; size_q_</text>
<text text-anchor="start" x="487" y="-125.5" font-family="Helvetica,sans-Serif" font-size="10.00" fill="#000000">&#45; size_dq_</text>
<text text-anchor="start" x="487" y="-114.5" font-family="Helvetica,sans-Serif" font-size="10.00" fill="#000000">&#45; dt_k_</text>
<text text-anchor="start" x="487" y="-103.5" font-family="Helvetica,sans-Serif" font-size="10.00" fill="#000000">&#45; model_k_</text>
<text text-anchor="start" x="487" y="-92.5" font-family="Helvetica,sans-Serif" font-size="10.00" fill="#000000">&#45; model_kp1_</text>
<polyline fill="none" stroke="#000000" points="479,-85.5 624,-85.5 "/>
<text text-anchor="start" x="487" y="-73.5" font-family="Helvetica,sans-Serif" font-size="10.00" fill="#000000">+ IntegrationConstraint()</text>
<text text-anchor="start" x="487" y="-62.5" font-family="Helvetica,sans-Serif" font-size="10.00" fill="#000000">+ ~IntegrationConstraint()</text>
<text text-anchor="start" x="487" y="-51.5" font-family="Helvetica,sans-Serif" font-size="10.00" fill="#000000">&#45; GetRow()</text>
<text text-anchor="start" x="487" y="-40.5" font-family="Helvetica,sans-Serif" font-size="10.00" fill="#000000">&#45; Update()</text>
<text text-anchor="start" x="487" y="-29.5" font-family="Helvetica,sans-Serif" font-size="10.00" fill="#000000">&#45; UpdateConstraintAtNode()</text>
<text text-anchor="start" x="487" y="-18.5" font-family="Helvetica,sans-Serif" font-size="10.00" fill="#000000">&#45; UpdateBoundsAtNode()</text>
<text text-anchor="start" x="487" y="-7.5" font-family="Helvetica,sans-Serif" font-size="10.00" fill="#000000">&#45; UpdateJacobianAtNode()</text>
</a>
</g>
</g>
<!-- Node0&#45;&gt;Node5 -->
<g id="edge5" class="edge">
<title>Node0&#45;&gt;Node5</title>
<path fill="none" stroke="#191970" d="M551.5,-194.1064C551.5,-185.3394 551.5,-176.4195 551.5,-167.644"/>
<polygon fill="none" stroke="#191970" points="548.0001,-194.31 551.5,-204.31 555.0001,-194.31 548.0001,-194.31"/>
</g>
<!-- Node6 -->
<g id="node7" class="node">
<title>Node6</title>
<g id="a_node7"><a xlink:href="classgambol_1_1QuaternionConstraint.html" target="_top" xlink:title="{gambol::QuaternionConstraint\n|&#45; model_\l&#45; joint_pos_\l&#45; quat_ids_\l&#45; num_quats_\l|+ QuaternionConstraint()\l+ ~QuaternionConstraint()\l&#45; GetRow()\l&#45; Update()\l&#45; UpdateConstraintAtNode()\l&#45; UpdateBoundsAtNode()\l&#45; UpdateJacobianAtNode()\l}">
<polygon fill="none" stroke="#000000" points="642.5,-6 642.5,-162 788.5,-162 788.5,-6 642.5,-6"/>
<text text-anchor="middle" x="715.5" y="-150" font-family="Helvetica,sans-Serif" font-size="10.00" fill="#000000">gambol::QuaternionConstraint</text>
<polyline fill="none" stroke="#000000" points="642.5,-143 788.5,-143 "/>
<text text-anchor="start" x="650.5" y="-131" font-family="Helvetica,sans-Serif" font-size="10.00" fill="#000000">&#45; model_</text>
<text text-anchor="start" x="650.5" y="-120" font-family="Helvetica,sans-Serif" font-size="10.00" fill="#000000">&#45; joint_pos_</text>
<text text-anchor="start" x="650.5" y="-109" font-family="Helvetica,sans-Serif" font-size="10.00" fill="#000000">&#45; quat_ids_</text>
<text text-anchor="start" x="650.5" y="-98" font-family="Helvetica,sans-Serif" font-size="10.00" fill="#000000">&#45; num_quats_</text>
<polyline fill="none" stroke="#000000" points="642.5,-91 788.5,-91 "/>
<text text-anchor="start" x="650.5" y="-79" font-family="Helvetica,sans-Serif" font-size="10.00" fill="#000000">+ QuaternionConstraint()</text>
<text text-anchor="start" x="650.5" y="-68" font-family="Helvetica,sans-Serif" font-size="10.00" fill="#000000">+ ~QuaternionConstraint()</text>
<text text-anchor="start" x="650.5" y="-57" font-family="Helvetica,sans-Serif" font-size="10.00" fill="#000000">&#45; GetRow()</text>
<text text-anchor="start" x="650.5" y="-46" font-family="Helvetica,sans-Serif" font-size="10.00" fill="#000000">&#45; Update()</text>
<text text-anchor="start" x="650.5" y="-35" font-family="Helvetica,sans-Serif" font-size="10.00" fill="#000000">&#45; UpdateConstraintAtNode()</text>
<text text-anchor="start" x="650.5" y="-24" font-family="Helvetica,sans-Serif" font-size="10.00" fill="#000000">&#45; UpdateBoundsAtNode()</text>
<text text-anchor="start" x="650.5" y="-13" font-family="Helvetica,sans-Serif" font-size="10.00" fill="#000000">&#45; UpdateJacobianAtNode()</text>
</a>
</g>
</g>
<!-- Node0&#45;&gt;Node6 -->
<g id="edge6" class="edge">
<title>Node0&#45;&gt;Node6</title>
<path fill="none" stroke="#191970" d="M619.9114,-196.4915C629.5775,-185.1161 639.5028,-173.4357 649.1297,-162.1066"/>
<polygon fill="none" stroke="#191970" points="617.0759,-194.4232 613.2677,-204.31 622.4102,-198.956 617.0759,-194.4232"/>
</g>
<!-- Node7 -->
<g id="node8" class="node">
<title>Node7</title>
<g id="a_node8"><a xlink:href="classgambol_1_1TerrainConstraint.html" target="_top" xlink:title="{gambol::TerrainConstraint\n|&#45; ee_id_\l&#45; skip_initial_\l&#45; terrain_\l&#45; model_\l&#45; model_km1_\l|+ TerrainConstraint()\l+ ~TerrainConstraint()\l+ Update()\l+ UpdateConstraintAtNode()\l+ UpdateBoundsAtNode()\l+ UpdateJacobianAtNode()\l&#45; GetRow()\l}">
<polygon fill="none" stroke="#000000" points="807,-.5 807,-167.5 948,-167.5 948,-.5 807,-.5"/>
<text text-anchor="middle" x="877.5" y="-155.5" font-family="Helvetica,sans-Serif" font-size="10.00" fill="#000000">gambol::TerrainConstraint</text>
<polyline fill="none" stroke="#000000" points="807,-148.5 948,-148.5 "/>
<text text-anchor="start" x="815" y="-136.5" font-family="Helvetica,sans-Serif" font-size="10.00" fill="#000000">&#45; ee_id_</text>
<text text-anchor="start" x="815" y="-125.5" font-family="Helvetica,sans-Serif" font-size="10.00" fill="#000000">&#45; skip_initial_</text>
<text text-anchor="start" x="815" y="-114.5" font-family="Helvetica,sans-Serif" font-size="10.00" fill="#000000">&#45; terrain_</text>
<text text-anchor="start" x="815" y="-103.5" font-family="Helvetica,sans-Serif" font-size="10.00" fill="#000000">&#45; model_</text>
<text text-anchor="start" x="815" y="-92.5" font-family="Helvetica,sans-Serif" font-size="10.00" fill="#000000">&#45; model_km1_</text>
<polyline fill="none" stroke="#000000" points="807,-85.5 948,-85.5 "/>
<text text-anchor="start" x="815" y="-73.5" font-family="Helvetica,sans-Serif" font-size="10.00" fill="#000000">+ TerrainConstraint()</text>
<text text-anchor="start" x="815" y="-62.5" font-family="Helvetica,sans-Serif" font-size="10.00" fill="#000000">+ ~TerrainConstraint()</text>
<text text-anchor="start" x="815" y="-51.5" font-family="Helvetica,sans-Serif" font-size="10.00" fill="#000000">+ Update()</text>
<text text-anchor="start" x="815" y="-40.5" font-family="Helvetica,sans-Serif" font-size="10.00" fill="#000000">+ UpdateConstraintAtNode()</text>
<text text-anchor="start" x="815" y="-29.5" font-family="Helvetica,sans-Serif" font-size="10.00" fill="#000000">+ UpdateBoundsAtNode()</text>
<text text-anchor="start" x="815" y="-18.5" font-family="Helvetica,sans-Serif" font-size="10.00" fill="#000000">+ UpdateJacobianAtNode()</text>
<text text-anchor="start" x="815" y="-7.5" font-family="Helvetica,sans-Serif" font-size="10.00" fill="#000000">&#45; GetRow()</text>
</a>
</g>
</g>
<!-- Node0&#45;&gt;Node7 -->
<g id="edge7" class="edge">
<title>Node0&#45;&gt;Node7</title>
<path fill="none" stroke="#191970" d="M630.0725,-251.2194C680.528,-232.5515 746.0074,-204.2533 797.5,-168 800.6287,-165.7972 803.7337,-163.4587 806.8013,-161.0167"/>
<polygon fill="none" stroke="#191970" points="628.7062,-247.9921 620.5121,-254.7083 631.106,-254.5679 628.7062,-247.9921"/>
</g>
<!-- Node8 -->
<g id="node9" class="node">
<title>Node8</title>
<g id="a_node9"><a xlink:href="classgambol_1_1TerrainFlatConstraint.html" target="_top" xlink:title="{gambol::TerrainFlatConstraint\n|&#45; ee_id_\l&#45; model_\l&#45; model_km1_\l|+ TerrainFlatConstraint()\l+ ~TerrainFlatConstraint()\l+ Update()\l+ UpdateConstraintAtNode()\l+ UpdateBoundsAtNode()\l+ UpdateJacobianAtNode()\l&#45; GetRow()\l}">
<polygon fill="none" stroke="#000000" points="966.5,-11.5 966.5,-156.5 1112.5,-156.5 1112.5,-11.5 966.5,-11.5"/>
<text text-anchor="middle" x="1039.5" y="-144.5" font-family="Helvetica,sans-Serif" font-size="10.00" fill="#000000">gambol::TerrainFlatConstraint</text>
<polyline fill="none" stroke="#000000" points="966.5,-137.5 1112.5,-137.5 "/>
<text text-anchor="start" x="974.5" y="-125.5" font-family="Helvetica,sans-Serif" font-size="10.00" fill="#000000">&#45; ee_id_</text>
<text text-anchor="start" x="974.5" y="-114.5" font-family="Helvetica,sans-Serif" font-size="10.00" fill="#000000">&#45; model_</text>
<text text-anchor="start" x="974.5" y="-103.5" font-family="Helvetica,sans-Serif" font-size="10.00" fill="#000000">&#45; model_km1_</text>
<polyline fill="none" stroke="#000000" points="966.5,-96.5 1112.5,-96.5 "/>
<text text-anchor="start" x="974.5" y="-84.5" font-family="Helvetica,sans-Serif" font-size="10.00" fill="#000000">+ TerrainFlatConstraint()</text>
<text text-anchor="start" x="974.5" y="-73.5" font-family="Helvetica,sans-Serif" font-size="10.00" fill="#000000">+ ~TerrainFlatConstraint()</text>
<text text-anchor="start" x="974.5" y="-62.5" font-family="Helvetica,sans-Serif" font-size="10.00" fill="#000000">+ Update()</text>
<text text-anchor="start" x="974.5" y="-51.5" font-family="Helvetica,sans-Serif" font-size="10.00" fill="#000000">+ UpdateConstraintAtNode()</text>
<text text-anchor="start" x="974.5" y="-40.5" font-family="Helvetica,sans-Serif" font-size="10.00" fill="#000000">+ UpdateBoundsAtNode()</text>
<text text-anchor="start" x="974.5" y="-29.5" font-family="Helvetica,sans-Serif" font-size="10.00" fill="#000000">+ UpdateJacobianAtNode()</text>
<text text-anchor="start" x="974.5" y="-18.5" font-family="Helvetica,sans-Serif" font-size="10.00" fill="#000000">&#45; GetRow()</text>
</a>
</g>
</g>
<!-- Node0&#45;&gt;Node8 -->
<g id="edge8" class="edge">
<title>Node0&#45;&gt;Node8</title>
<path fill="none" stroke="#191970" d="M630.977,-268.3421C716.512,-256.2407 854.1715,-228.5234 957.5,-168 963.1273,-164.7039 968.629,-160.9193 973.9486,-156.8198"/>
<polygon fill="none" stroke="#191970" points="630.2394,-264.9106 620.8101,-269.7416 631.194,-271.8452 630.2394,-264.9106"/>
</g>
<!-- Node1 -->
<g id="node2" class="node">
<title>Node1</title>
<polygon fill="none" stroke="#bfbfbf" points="513,-386.5 513,-443.5 590,-443.5 590,-386.5 513,-386.5"/>
<text text-anchor="middle" x="551.5" y="-431.5" font-family="Helvetica,sans-Serif" font-size="10.00" fill="#000000">ConstraintSet</text>
<polyline fill="none" stroke="#bfbfbf" points="513,-424.5 590,-424.5 "/>
<text text-anchor="middle" x="551.5" y="-412.5" font-family="Helvetica,sans-Serif" font-size="10.00" fill="#000000"> </text>
<polyline fill="none" stroke="#bfbfbf" points="513,-405.5 590,-405.5 "/>
<text text-anchor="middle" x="551.5" y="-393.5" font-family="Helvetica,sans-Serif" font-size="10.00" fill="#000000"> </text>
</g>
<!-- Node1&#45;&gt;Node0 -->
<g id="edge1" class="edge">
<title>Node1&#45;&gt;Node0</title>
<path fill="none" stroke="#191970" d="M551.5,-376.2817C551.5,-367.9388 551.5,-358.8592 551.5,-349.6924"/>
<polygon fill="none" stroke="#191970" points="548.0001,-376.4063 551.5,-386.4063 555.0001,-376.4063 548.0001,-376.4063"/>
</g>
</g>
</svg>
