<?xml version="1.0" encoding="UTF-8" standalone="no"?>
<!DOCTYPE svg PUBLIC "-//W3C//DTD SVG 1.1//EN"
 "http://www.w3.org/Graphics/SVG/1.1/DTD/svg11.dtd">
<!-- Generated by graphviz version 2.40.1 (20161225.0304)
 -->
<!-- Title: gambol::DynamicsConstraint Pages: 1 -->
<!--zoomable 601 -->
<svg id="main" version="1.1" xmlns="http://www.w3.org/2000/svg" xmlns:xlink="http://www.w3.org/1999/xlink" xml:space="preserve" onload="init(evt)">
<style type="text/css"><![CDATA[
.edge:hover path { stroke: red; }
.edge:hover polygon { stroke: red; fill: red; }
]]></style>
<script type="text/javascript"><![CDATA[
var edges = document.getElementsByTagName('g');
if (edges && edges.length) {
  for (var i=0;i<edges.length;i++) {
    if (edges[i].id.substr(0,4)=='edge') {
      edges[i].setAttribute('class','edge');
    }
  }
}
]]></script>
        <defs>
                <circle id="rim" cx="0" cy="0" r="7"/>
                <circle id="rim2" cx="0" cy="0" r="3.5"/>
                <g id="zoomPlus">
                        <use xlink:href="#rim" fill="#404040">
                                <set attributeName="fill" to="#808080" begin="zoomplus.mouseover" end="zoomplus.mouseout"/>
                        </use>
                        <path d="M-4,0h8M0,-4v8" fill="none" stroke="white" stroke-width="1.5" pointer-events="none"/>
                </g>
                <g id="zoomMin">
                        <use xlink:href="#rim" fill="#404040">
                                <set attributeName="fill" to="#808080" begin="zoomminus.mouseover" end="zoomminus.mouseout"/>
                        </use>
                        <path d="M-4,0h8" fill="none" stroke="white" stroke-width="1.5" pointer-events="none"/>
                </g>
                <g id="dirArrow">
                        <path fill="none" stroke="white" stroke-width="1.5" d="M0,-3.0v7 M-2.5,-0.5L0,-3.0L2.5,-0.5"/>
                </g>
               <g id="resetDef">
                       <use xlink:href="#rim2" fill="#404040">
                               <set attributeName="fill" to="#808080" begin="reset.mouseover" end="reset.mouseout"/>
                       </use>
               </g>
        </defs>

<script type="text/javascript">
var viewWidth = 587;
var viewHeight = 601;
var sectionId = 'dynsection-1';
</script>
<script xlink:href="svgpan.js"/>
<svg id="graph" class="graph">
<g id="viewport">
<title>gambol::DynamicsConstraint</title>
<!-- Node3 -->
<g id="node1" class="node">
<title>Node3</title>
<polygon fill="#bfbfbf" stroke="#000000" points="270,-.5 270,-123.5 413,-123.5 413,-.5 270,-.5"/>
<text text-anchor="middle" x="341.5" y="-111.5" font-family="Helvetica,sans-Serif" font-size="10.00" fill="#000000">gambol::DynamicsConstraint</text>
<polyline fill="none" stroke="#000000" points="270,-104.5 413,-104.5 "/>
<text text-anchor="middle" x="341.5" y="-92.5" font-family="Helvetica,sans-Serif" font-size="10.00" fill="#000000"> </text>
<polyline fill="none" stroke="#000000" points="270,-85.5 413,-85.5 "/>
<text text-anchor="start" x="278" y="-73.5" font-family="Helvetica,sans-Serif" font-size="10.00" fill="#000000">+ DynamicsConstraint()</text>
<text text-anchor="start" x="278" y="-62.5" font-family="Helvetica,sans-Serif" font-size="10.00" fill="#000000">+ ~DynamicsConstraint()</text>
<text text-anchor="start" x="278" y="-51.5" font-family="Helvetica,sans-Serif" font-size="10.00" fill="#000000">&#45; GetRow()</text>
<text text-anchor="start" x="278" y="-40.5" font-family="Helvetica,sans-Serif" font-size="10.00" fill="#000000">&#45; Update()</text>
<text text-anchor="start" x="278" y="-29.5" font-family="Helvetica,sans-Serif" font-size="10.00" fill="#000000">&#45; UpdateConstraintAtNode()</text>
<text text-anchor="start" x="278" y="-18.5" font-family="Helvetica,sans-Serif" font-size="10.00" fill="#000000">&#45; UpdateBoundsAtNode()</text>
<text text-anchor="start" x="278" y="-7.5" font-family="Helvetica,sans-Serif" font-size="10.00" fill="#000000">&#45; UpdateJacobianAtNode()</text>
</g>
<!-- Node4 -->
<g id="node2" class="node">
<title>Node4</title>
<g id="a_node2"><a xlink:href="classgambol_1_1NodesConstraint.html" target="_top" xlink:title="{gambol::NodesConstraint\n||+ GetValues()\l+ GetBounds()\l+ FillJacobianBlock()\l# NodesConstraint()\l# ~NodesConstraint()\l# GetNumberOfNodes()\l&#45; UpdateConstraintAtNode()\l&#45; UpdateBoundsAtNode()\l&#45; UpdateJacobianAtNode()\l}">
<polygon fill="none" stroke="#000000" points="135.5,-182.5 135.5,-327.5 273.5,-327.5 273.5,-182.5 135.5,-182.5"/>
<text text-anchor="middle" x="204.5" y="-315.5" font-family="Helvetica,sans-Serif" font-size="10.00" fill="#000000">gambol::NodesConstraint</text>
<polyline fill="none" stroke="#000000" points="135.5,-308.5 273.5,-308.5 "/>
<text text-anchor="middle" x="204.5" y="-296.5" font-family="Helvetica,sans-Serif" font-size="10.00" fill="#000000"> </text>
<polyline fill="none" stroke="#000000" points="135.5,-289.5 273.5,-289.5 "/>
<text text-anchor="start" x="143.5" y="-277.5" font-family="Helvetica,sans-Serif" font-size="10.00" fill="#000000">+ GetValues()</text>
<text text-anchor="start" x="143.5" y="-266.5" font-family="Helvetica,sans-Serif" font-size="10.00" fill="#000000">+ GetBounds()</text>
<text text-anchor="start" x="143.5" y="-255.5" font-family="Helvetica,sans-Serif" font-size="10.00" fill="#000000">+ FillJacobianBlock()</text>
<text text-anchor="start" x="143.5" y="-244.5" font-family="Helvetica,sans-Serif" font-size="10.00" fill="#000000"># NodesConstraint()</text>
<text text-anchor="start" x="143.5" y="-233.5" font-family="Helvetica,sans-Serif" font-size="10.00" fill="#000000"># ~NodesConstraint()</text>
<text text-anchor="start" x="143.5" y="-222.5" font-family="Helvetica,sans-Serif" font-size="10.00" fill="#000000"># GetNumberOfNodes()</text>
<text text-anchor="start" x="143.5" y="-211.5" font-family="Helvetica,sans-Serif" font-size="10.00" fill="#000000">&#45; UpdateConstraintAtNode()</text>
<text text-anchor="start" x="143.5" y="-200.5" font-family="Helvetica,sans-Serif" font-size="10.00" fill="#000000">&#45; UpdateBoundsAtNode()</text>
<text text-anchor="start" x="143.5" y="-189.5" font-family="Helvetica,sans-Serif" font-size="10.00" fill="#000000">&#45; UpdateJacobianAtNode()</text>
</a>
</g>
</g>
<!-- Node4&#45;&gt;Node3 -->
<g id="edge1" class="edge">
<title>Node4&#45;&gt;Node3</title>
<path fill="none" stroke="#191970" d="M261.9411,-174.0793C273.9322,-157.1868 286.3876,-139.6402 297.7849,-123.5841"/>
<polygon fill="none" stroke="#191970" points="259.033,-172.1296 256.0986,-182.31 264.7411,-176.1815 259.033,-172.1296"/>
</g>
<!-- Node5 -->
<g id="node3" class="node">
<title>Node5</title>
<polygon fill="none" stroke="#bfbfbf" points="150,-386.5 150,-443.5 227,-443.5 227,-386.5 150,-386.5"/>
<text text-anchor="middle" x="188.5" y="-431.5" font-family="Helvetica,sans-Serif" font-size="10.00" fill="#000000">ConstraintSet</text>
<polyline fill="none" stroke="#bfbfbf" points="150,-424.5 227,-424.5 "/>
<text text-anchor="middle" x="188.5" y="-412.5" font-family="Helvetica,sans-Serif" font-size="10.00" fill="#000000"> </text>
<polyline fill="none" stroke="#bfbfbf" points="150,-405.5 227,-405.5 "/>
<text text-anchor="middle" x="188.5" y="-393.5" font-family="Helvetica,sans-Serif" font-size="10.00" fill="#000000"> </text>
</g>
<!-- Node5&#45;&gt;Node4 -->
<g id="edge2" class="edge">
<title>Node5&#45;&gt;Node4</title>
<path fill="none" stroke="#191970" d="M192.3776,-376.2241C193.8418,-361.5823 195.5594,-344.4055 197.2339,-327.6612"/>
<polygon fill="none" stroke="#191970" points="188.873,-376.0965 191.3605,-386.3952 195.8382,-376.7931 188.873,-376.0965"/>
</g>
<!-- Node6 -->
<g id="node4" class="node">
<title>Node6</title>
<g id="a_node4"><a xlink:href="structgambol_1_1NodesHolder.html" target="_top" xlink:title="{gambol::NodesHolder\n||+ NodesHolder()\l+ NodesHolder()\l+ ~NodesHolder()\l}">
<polygon fill="none" stroke="#000000" points="245,-375.5 245,-454.5 356,-454.5 356,-375.5 245,-375.5"/>
<text text-anchor="middle" x="300.5" y="-442.5" font-family="Helvetica,sans-Serif" font-size="10.00" fill="#000000">gambol::NodesHolder</text>
<polyline fill="none" stroke="#000000" points="245,-435.5 356,-435.5 "/>
<text text-anchor="middle" x="300.5" y="-423.5" font-family="Helvetica,sans-Serif" font-size="10.00" fill="#000000"> </text>
<polyline fill="none" stroke="#000000" points="245,-416.5 356,-416.5 "/>
<text text-anchor="start" x="253" y="-404.5" font-family="Helvetica,sans-Serif" font-size="10.00" fill="#000000">+ NodesHolder()</text>
<text text-anchor="start" x="253" y="-393.5" font-family="Helvetica,sans-Serif" font-size="10.00" fill="#000000">+ NodesHolder()</text>
<text text-anchor="start" x="253" y="-382.5" font-family="Helvetica,sans-Serif" font-size="10.00" fill="#000000">+ ~NodesHolder()</text>
</a>
</g>
</g>
<!-- Node6&#45;&gt;Node4 -->
<g id="edge3" class="edge">
<title>Node6&#45;&gt;Node4</title>
<path fill="none" stroke="#404040" d="M276.7697,-375.4494C269.935,-364.0583 262.2094,-351.1824 254.4164,-338.194"/>
<polygon fill="none" stroke="#404040" points="254.3418,-338.0697 247.8249,-334.9827 248.1678,-327.7797 254.6848,-330.8667 254.3418,-338.0697"/>
<text text-anchor="middle" x="300.5" y="-349" font-family="Helvetica,sans-Serif" font-size="10.00" fill="#000000"> #nodes_holder_</text>
</g>
<!-- Node7 -->
<g id="node5" class="node">
<title>Node7</title>
<polygon fill="none" stroke="#bfbfbf" points="0,-530 0,-587 131,-587 131,-530 0,-530"/>
<text text-anchor="middle" x="65.5" y="-575" font-family="Helvetica,sans-Serif" font-size="10.00" fill="#000000">shared_ptr&lt; NodeTimes &gt;</text>
<polyline fill="none" stroke="#bfbfbf" points="0,-568 131,-568 "/>
<text text-anchor="middle" x="65.5" y="-556" font-family="Helvetica,sans-Serif" font-size="10.00" fill="#000000"> </text>
<polyline fill="none" stroke="#bfbfbf" points="0,-549 131,-549 "/>
<text text-anchor="middle" x="65.5" y="-537" font-family="Helvetica,sans-Serif" font-size="10.00" fill="#000000"> </text>
</g>
<!-- Node7&#45;&gt;Node6 -->
<g id="edge4" class="edge">
<title>Node7&#45;&gt;Node6</title>
<path fill="none" stroke="#404040" d="M99.7202,-529.9059C122.6282,-511.8019 154.0562,-488.8943 184.5,-473 203.0611,-463.3095 211.525,-464.7023 233.9519,-455.2376"/>
<polygon fill="none" stroke="#404040" points="233.9822,-455.2238 237.7854,-449.0971 244.9035,-450.2514 241.1004,-456.378 233.9822,-455.2238"/>
<text text-anchor="middle" x="217" y="-487" font-family="Helvetica,sans-Serif" font-size="10.00" fill="#000000"> +node_times_</text>
</g>
<!-- Node8 -->
<g id="node6" class="node">
<title>Node8</title>
<polygon fill="none" stroke="#bfbfbf" points="149,-530 149,-587 298,-587 298,-530 149,-530"/>
<text text-anchor="middle" x="223.5" y="-575" font-family="Helvetica,sans-Serif" font-size="10.00" fill="#000000">shared_ptr&lt; NodesVariables &gt;</text>
<polyline fill="none" stroke="#bfbfbf" points="149,-568 298,-568 "/>
<text text-anchor="middle" x="223.5" y="-556" font-family="Helvetica,sans-Serif" font-size="10.00" fill="#000000"> </text>
<polyline fill="none" stroke="#bfbfbf" points="149,-549 298,-549 "/>
<text text-anchor="middle" x="223.5" y="-537" font-family="Helvetica,sans-Serif" font-size="10.00" fill="#000000"> </text>
</g>
<!-- Node8&#45;&gt;Node6 -->
<g id="edge5" class="edge">
<title>Node8&#45;&gt;Node6</title>
<path fill="none" stroke="#404040" d="M238.897,-529.8055C248.8088,-511.3336 261.9625,-486.8199 273.5695,-465.1886"/>
<polygon fill="none" stroke="#404040" points="273.6232,-465.0886 272.9355,-457.9103 279.297,-454.5146 279.9847,-461.6929 273.6232,-465.0886"/>
<text text-anchor="middle" x="295" y="-498" font-family="Helvetica,sans-Serif" font-size="10.00" fill="#000000"> +torques_</text>
<text text-anchor="middle" x="295" y="-487" font-family="Helvetica,sans-Serif" font-size="10.00" fill="#000000">+joint_vel_</text>
<text text-anchor="middle" x="295" y="-476" font-family="Helvetica,sans-Serif" font-size="10.00" fill="#000000">+joint_pos_</text>
</g>
<!-- Node9 -->
<g id="node7" class="node">
<title>Node9</title>
<polygon fill="none" stroke="#bfbfbf" points="316.5,-524.5 316.5,-592.5 438.5,-592.5 438.5,-524.5 316.5,-524.5"/>
<text text-anchor="start" x="324.5" y="-580.5" font-family="Helvetica,sans-Serif" font-size="10.00" fill="#000000">vector&lt; NodesVariables</text>
<text text-anchor="middle" x="377.5" y="-569.5" font-family="Helvetica,sans-Serif" font-size="10.00" fill="#000000">::Ptr &gt;</text>
<polyline fill="none" stroke="#bfbfbf" points="316.5,-562.5 438.5,-562.5 "/>
<text text-anchor="middle" x="377.5" y="-550.5" font-family="Helvetica,sans-Serif" font-size="10.00" fill="#000000"> </text>
<polyline fill="none" stroke="#bfbfbf" points="316.5,-543.5 438.5,-543.5 "/>
<text text-anchor="middle" x="377.5" y="-531.5" font-family="Helvetica,sans-Serif" font-size="10.00" fill="#000000"> </text>
</g>
<!-- Node9&#45;&gt;Node6 -->
<g id="edge6" class="edge">
<title>Node9&#45;&gt;Node6</title>
<path fill="none" stroke="#404040" d="M359.2521,-524.4925C349.7586,-506.8001 337.9684,-484.8274 327.4469,-465.2192"/>
<polygon fill="none" stroke="#404040" points="327.4286,-465.1851 321.0671,-461.7894 321.7548,-454.6112 328.1164,-458.0069 327.4286,-465.1851"/>
<text text-anchor="middle" x="376.5" y="-487" font-family="Helvetica,sans-Serif" font-size="10.00" fill="#000000"> +ee_forces_</text>
</g>
<!-- Node10 -->
<g id="node8" class="node">
<title>Node10</title>
<polygon fill="none" stroke="#bfbfbf" points="456.5,-524.5 456.5,-592.5 578.5,-592.5 578.5,-524.5 456.5,-524.5"/>
<text text-anchor="start" x="464.5" y="-580.5" font-family="Helvetica,sans-Serif" font-size="10.00" fill="#000000">vector&lt; PhaseDurations</text>
<text text-anchor="middle" x="517.5" y="-569.5" font-family="Helvetica,sans-Serif" font-size="10.00" fill="#000000">::Ptr &gt;</text>
<polyline fill="none" stroke="#bfbfbf" points="456.5,-562.5 578.5,-562.5 "/>
<text text-anchor="middle" x="517.5" y="-550.5" font-family="Helvetica,sans-Serif" font-size="10.00" fill="#000000"> </text>
<polyline fill="none" stroke="#bfbfbf" points="456.5,-543.5 578.5,-543.5 "/>
<text text-anchor="middle" x="517.5" y="-531.5" font-family="Helvetica,sans-Serif" font-size="10.00" fill="#000000"> </text>
</g>
<!-- Node10&#45;&gt;Node6 -->
<g id="edge7" class="edge">
<title>Node10&#45;&gt;Node6</title>
<path fill="none" stroke="#404040" d="M478.0234,-524.4263C458.1157,-507.9855 433.2147,-488.5141 409.5,-473 396.1346,-464.2564 381.3159,-455.6893 367.0221,-447.9366"/>
<polygon fill="none" stroke="#404040" points="366.8142,-447.8257 359.6376,-448.5308 356.2266,-442.1774 363.4031,-441.4724 366.8142,-447.8257"/>
<text text-anchor="middle" x="494.5" y="-487" font-family="Helvetica,sans-Serif" font-size="10.00" fill="#000000"> +phase_durations_</text>
</g>
<!-- Node11 -->
<g id="node9" class="node">
<title>Node11</title>
<polygon fill="none" stroke="#bfbfbf" points="292,-226.5 292,-283.5 337,-283.5 337,-226.5 292,-226.5"/>
<text text-anchor="middle" x="314.5" y="-271.5" font-family="Helvetica,sans-Serif" font-size="10.00" fill="#000000">double</text>
<polyline fill="none" stroke="#bfbfbf" points="292,-264.5 337,-264.5 "/>
<text text-anchor="middle" x="314.5" y="-252.5" font-family="Helvetica,sans-Serif" font-size="10.00" fill="#000000"> </text>
<polyline fill="none" stroke="#bfbfbf" points="292,-245.5 337,-245.5 "/>
<text text-anchor="middle" x="314.5" y="-233.5" font-family="Helvetica,sans-Serif" font-size="10.00" fill="#000000"> </text>
</g>
<!-- Node11&#45;&gt;Node3 -->
<g id="edge8" class="edge">
<title>Node11&#45;&gt;Node3</title>
<path fill="none" stroke="#404040" d="M312.7753,-226.4734C311.9204,-203.506 311.8965,-170.4733 316.5,-142 316.8505,-139.8318 317.2467,-137.6412 317.6818,-135.4384"/>
<polygon fill="none" stroke="#404040" points="317.7113,-135.3067 315.1244,-128.5756 320.3428,-123.5988 322.9297,-130.3299 317.7113,-135.3067"/>
<text text-anchor="middle" x="332" y="-150.5" font-family="Helvetica,sans-Serif" font-size="10.00" fill="#000000"> &#45;dt_k_</text>
</g>
<!-- Node12 -->
<g id="node10" class="node">
<title>Node12</title>
<polygon fill="none" stroke="#bfbfbf" points="355,-226.5 355,-283.5 384,-283.5 384,-226.5 355,-226.5"/>
<text text-anchor="middle" x="369.5" y="-271.5" font-family="Helvetica,sans-Serif" font-size="10.00" fill="#000000">int</text>
<polyline fill="none" stroke="#bfbfbf" points="355,-264.5 384,-264.5 "/>
<text text-anchor="middle" x="369.5" y="-252.5" font-family="Helvetica,sans-Serif" font-size="10.00" fill="#000000"> </text>
<polyline fill="none" stroke="#bfbfbf" points="355,-245.5 384,-245.5 "/>
<text text-anchor="middle" x="369.5" y="-233.5" font-family="Helvetica,sans-Serif" font-size="10.00" fill="#000000"> </text>
</g>
<!-- Node12&#45;&gt;Node3 -->
<g id="edge9" class="edge">
<title>Node12&#45;&gt;Node3</title>
<path fill="none" stroke="#404040" d="M365.3081,-226.1059C361.845,-202.2352 356.7728,-167.2732 352.199,-135.747"/>
<polygon fill="none" stroke="#404040" points="352.1979,-135.7384 347.3778,-130.3749 350.4749,-123.8628 355.295,-129.2263 352.1979,-135.7384"/>
<text text-anchor="middle" x="378.5" y="-156" font-family="Helvetica,sans-Serif" font-size="10.00" fill="#000000"> &#45;size_dq_</text>
<text text-anchor="middle" x="378.5" y="-145" font-family="Helvetica,sans-Serif" font-size="10.00" fill="#000000">&#45;size_q_</text>
</g>
<!-- Node13 -->
<g id="node11" class="node">
<title>Node13</title>
<polygon fill="none" stroke="#bfbfbf" points="402,-226.5 402,-283.5 535,-283.5 535,-226.5 402,-226.5"/>
<text text-anchor="middle" x="468.5" y="-271.5" font-family="Helvetica,sans-Serif" font-size="10.00" fill="#000000">shared_ptr&lt; RobotModel &gt;</text>
<polyline fill="none" stroke="#bfbfbf" points="402,-264.5 535,-264.5 "/>
<text text-anchor="middle" x="468.5" y="-252.5" font-family="Helvetica,sans-Serif" font-size="10.00" fill="#000000"> </text>
<polyline fill="none" stroke="#bfbfbf" points="402,-245.5 535,-245.5 "/>
<text text-anchor="middle" x="468.5" y="-233.5" font-family="Helvetica,sans-Serif" font-size="10.00" fill="#000000"> </text>
</g>
<!-- Node13&#45;&gt;Node3 -->
<g id="edge10" class="edge">
<title>Node13&#45;&gt;Node3</title>
<path fill="none" stroke="#404040" d="M454.2223,-226.3665C442.2002,-203.0481 424.0408,-169.5914 405.5,-142 403.5934,-139.1627 401.6124,-136.3006 399.5789,-133.4333"/>
<polygon fill="none" stroke="#404040" points="399.5531,-133.3979 392.789,-130.8986 392.4945,-123.6935 399.2586,-126.1928 399.5531,-133.3979"/>
<text text-anchor="middle" x="446.5" y="-156" font-family="Helvetica,sans-Serif" font-size="10.00" fill="#000000"> &#45;model_k_</text>
<text text-anchor="middle" x="446.5" y="-145" font-family="Helvetica,sans-Serif" font-size="10.00" fill="#000000">&#45;model_kp1_</text>
</g>
</g>
</svg>
        <g id="navigator" transform="translate(0 0)" fill="#404254">
                <rect fill="#f2f5e9" fill-opacity="0.5" stroke="#606060" stroke-width=".5" x="0" y="0" width="60" height="60"/>
                <use id="zoomplus" xlink:href="#zoomPlus" x="17" y="9" onmousedown="handleZoom(evt,'in')"/>
                <use id="zoomminus" xlink:href="#zoomMin" x="42" y="9" onmousedown="handleZoom(evt,'out')"/>
                <use id="reset" xlink:href="#resetDef" x="30" y="36" onmousedown="handleReset()"/>
                <g id="arrowUp" xlink:href="#dirArrow" transform="translate(30 24)" onmousedown="handlePan(0,-1)">
                  <use xlink:href="#rim" fill="#404040">
                        <set attributeName="fill" to="#808080" begin="arrowUp.mouseover" end="arrowUp.mouseout"/>
                  </use>
                  <path fill="none" stroke="white" stroke-width="1.5" d="M0,-3.0v7 M-2.5,-0.5L0,-3.0L2.5,-0.5"/>
                </g>
                <g id="arrowRight" xlink:href="#dirArrow" transform="rotate(90) translate(36 -43)" onmousedown="handlePan(1,0)">
                  <use xlink:href="#rim" fill="#404040">
                        <set attributeName="fill" to="#808080" begin="arrowRight.mouseover" end="arrowRight.mouseout"/>
                  </use>
                  <path fill="none" stroke="white" stroke-width="1.5" d="M0,-3.0v7 M-2.5,-0.5L0,-3.0L2.5,-0.5"/>
                </g>
                <g id="arrowDown" xlink:href="#dirArrow" transform="rotate(180) translate(-30 -48)" onmousedown="handlePan(0,1)">
                  <use xlink:href="#rim" fill="#404040">
                        <set attributeName="fill" to="#808080" begin="arrowDown.mouseover" end="arrowDown.mouseout"/>
                  </use>
                  <path fill="none" stroke="white" stroke-width="1.5" d="M0,-3.0v7 M-2.5,-0.5L0,-3.0L2.5,-0.5"/>
                </g>
                <g id="arrowLeft" xlink:href="#dirArrow" transform="rotate(270) translate(-36 17)" onmousedown="handlePan(-1,0)">
                  <use xlink:href="#rim" fill="#404040">
                        <set attributeName="fill" to="#808080" begin="arrowLeft.mouseover" end="arrowLeft.mouseout"/>
                  </use>
                  <path fill="none" stroke="white" stroke-width="1.5" d="M0,-3.0v7 M-2.5,-0.5L0,-3.0L2.5,-0.5"/>
                </g>
        </g>
        <svg viewBox="0 0 15 15" width="100%" height="30px" preserveAspectRatio="xMaxYMin meet">
         <g id="arrow_out" transform="scale(0.3 0.3)">
          <a xlink:href="classgambol_1_1DynamicsConstraint__coll__graph_org.svg" target="_base">
           <rect id="button" ry="5" rx="5" y="6" x="6" height="38" width="38"
                fill="#f2f5e9" fill-opacity="0.5" stroke="#606060" stroke-width="1.0"/>
           <path id="arrow"
             d="M 11.500037,31.436501 C 11.940474,20.09759 22.043105,11.32322 32.158766,21.979434 L 37.068811,17.246167 C 37.068811,17.246167 37.088388,32 37.088388,32 L 22.160133,31.978069 C 22.160133,31.978069 26.997745,27.140456 26.997745,27.140456 C 18.528582,18.264221 13.291696,25.230495 11.500037,31.436501 z"
             style="fill:#404040;"/>
          </a>
         </g>
        </svg>
</svg>
