<?xml version="1.0" encoding="UTF-8" standalone="no"?>
<!DOCTYPE svg PUBLIC "-//W3C//DTD SVG 1.1//EN"
 "http://www.w3.org/Graphics/SVG/1.1/DTD/svg11.dtd">
<!-- Generated by graphviz version 2.40.1 (20161225.0304)
 -->
<!-- Title: gambol::QuaternionConstraint Pages: 1 -->
<svg width="595pt" height="590pt"
 viewBox="0.00 0.00 595.00 590.00" xmlns="http://www.w3.org/2000/svg" xmlns:xlink="http://www.w3.org/1999/xlink">
<g id="graph0" class="graph" transform="scale(1 1) rotate(0) translate(4 586)">
<title>gambol::QuaternionConstraint</title>
<!-- Node3 -->
<g id="node1" class="node">
<title>Node3</title>
<polygon fill="#bfbfbf" stroke="#000000" points="276.5,-.5 276.5,-123.5 422.5,-123.5 422.5,-.5 276.5,-.5"/>
<text text-anchor="middle" x="349.5" y="-111.5" font-family="Helvetica,sans-Serif" font-size="10.00" fill="#000000">gambol::QuaternionConstraint</text>
<polyline fill="none" stroke="#000000" points="276.5,-104.5 422.5,-104.5 "/>
<text text-anchor="middle" x="349.5" y="-92.5" font-family="Helvetica,sans-Serif" font-size="10.00" fill="#000000"> </text>
<polyline fill="none" stroke="#000000" points="276.5,-85.5 422.5,-85.5 "/>
<text text-anchor="start" x="284.5" y="-73.5" font-family="Helvetica,sans-Serif" font-size="10.00" fill="#000000">+ QuaternionConstraint()</text>
<text text-anchor="start" x="284.5" y="-62.5" font-family="Helvetica,sans-Serif" font-size="10.00" fill="#000000">+ ~QuaternionConstraint()</text>
<text text-anchor="start" x="284.5" y="-51.5" font-family="Helvetica,sans-Serif" font-size="10.00" fill="#000000">&#45; GetRow()</text>
<text text-anchor="start" x="284.5" y="-40.5" font-family="Helvetica,sans-Serif" font-size="10.00" fill="#000000">&#45; Update()</text>
<text text-anchor="start" x="284.5" y="-29.5" font-family="Helvetica,sans-Serif" font-size="10.00" fill="#000000">&#45; UpdateConstraintAtNode()</text>
<text text-anchor="start" x="284.5" y="-18.5" font-family="Helvetica,sans-Serif" font-size="10.00" fill="#000000">&#45; UpdateBoundsAtNode()</text>
<text text-anchor="start" x="284.5" y="-7.5" font-family="Helvetica,sans-Serif" font-size="10.00" fill="#000000">&#45; UpdateJacobianAtNode()</text>
</g>
<!-- Node4 -->
<g id="node2" class="node">
<title>Node4</title>
<g id="a_node2"><a xlink:href="classgambol_1_1NodesConstraint.html" target="_top" xlink:title="{gambol::NodesConstraint\n||+ GetValues()\l+ GetBounds()\l+ FillJacobianBlock()\l# NodesConstraint()\l# ~NodesConstraint()\l# GetNumberOfNodes()\l&#45; UpdateConstraintAtNode()\l&#45; UpdateBoundsAtNode()\l&#45; UpdateJacobianAtNode()\l}">
<polygon fill="none" stroke="#000000" points="159.5,-171.5 159.5,-316.5 297.5,-316.5 297.5,-171.5 159.5,-171.5"/>
<text text-anchor="middle" x="228.5" y="-304.5" font-family="Helvetica,sans-Serif" font-size="10.00" fill="#000000">gambol::NodesConstraint</text>
<polyline fill="none" stroke="#000000" points="159.5,-297.5 297.5,-297.5 "/>
<text text-anchor="middle" x="228.5" y="-285.5" font-family="Helvetica,sans-Serif" font-size="10.00" fill="#000000"> </text>
<polyline fill="none" stroke="#000000" points="159.5,-278.5 297.5,-278.5 "/>
<text text-anchor="start" x="167.5" y="-266.5" font-family="Helvetica,sans-Serif" font-size="10.00" fill="#000000">+ GetValues()</text>
<text text-anchor="start" x="167.5" y="-255.5" font-family="Helvetica,sans-Serif" font-size="10.00" fill="#000000">+ GetBounds()</text>
<text text-anchor="start" x="167.5" y="-244.5" font-family="Helvetica,sans-Serif" font-size="10.00" fill="#000000">+ FillJacobianBlock()</text>
<text text-anchor="start" x="167.5" y="-233.5" font-family="Helvetica,sans-Serif" font-size="10.00" fill="#000000"># NodesConstraint()</text>
<text text-anchor="start" x="167.5" y="-222.5" font-family="Helvetica,sans-Serif" font-size="10.00" fill="#000000"># ~NodesConstraint()</text>
<text text-anchor="start" x="167.5" y="-211.5" font-family="Helvetica,sans-Serif" font-size="10.00" fill="#000000"># GetNumberOfNodes()</text>
<text text-anchor="start" x="167.5" y="-200.5" font-family="Helvetica,sans-Serif" font-size="10.00" fill="#000000">&#45; UpdateConstraintAtNode()</text>
<text text-anchor="start" x="167.5" y="-189.5" font-family="Helvetica,sans-Serif" font-size="10.00" fill="#000000">&#45; UpdateBoundsAtNode()</text>
<text text-anchor="start" x="167.5" y="-178.5" font-family="Helvetica,sans-Serif" font-size="10.00" fill="#000000">&#45; UpdateJacobianAtNode()</text>
</a>
</g>
</g>
<!-- Node4&#45;&gt;Node3 -->
<g id="edge1" class="edge">
<title>Node4&#45;&gt;Node3</title>
<path fill="none" stroke="#191970" d="M282.5275,-162.7355C291.2274,-149.6497 300.1079,-136.2922 308.4383,-123.7622"/>
<polygon fill="none" stroke="#191970" points="279.4659,-161.0188 276.8441,-171.2841 285.2952,-164.8944 279.4659,-161.0188"/>
</g>
<!-- Node5 -->
<g id="node3" class="node">
<title>Node5</title>
<polygon fill="none" stroke="#bfbfbf" points="302,-375.5 302,-432.5 379,-432.5 379,-375.5 302,-375.5"/>
<text text-anchor="middle" x="340.5" y="-420.5" font-family="Helvetica,sans-Serif" font-size="10.00" fill="#000000">ConstraintSet</text>
<polyline fill="none" stroke="#bfbfbf" points="302,-413.5 379,-413.5 "/>
<text text-anchor="middle" x="340.5" y="-401.5" font-family="Helvetica,sans-Serif" font-size="10.00" fill="#000000"> </text>
<polyline fill="none" stroke="#bfbfbf" points="302,-394.5 379,-394.5 "/>
<text text-anchor="middle" x="340.5" y="-382.5" font-family="Helvetica,sans-Serif" font-size="10.00" fill="#000000"> </text>
</g>
<!-- Node5&#45;&gt;Node4 -->
<g id="edge2" class="edge">
<title>Node5&#45;&gt;Node4</title>
<path fill="none" stroke="#191970" d="M322.7511,-366.4182C317.3287,-355.9815 311.0538,-344.8233 304.5,-335 300.4446,-328.9214 296.0524,-322.7788 291.4949,-316.7068"/>
<polygon fill="none" stroke="#191970" points="319.6376,-368.0171 327.2825,-375.3523 325.8805,-364.8507 319.6376,-368.0171"/>
</g>
<!-- Node6 -->
<g id="node4" class="node">
<title>Node6</title>
<g id="a_node4"><a xlink:href="structgambol_1_1NodesHolder.html" target="_top" xlink:title="{gambol::NodesHolder\n||+ NodesHolder()\l+ NodesHolder()\l+ ~NodesHolder()\l}">
<polygon fill="none" stroke="#000000" points="173,-364.5 173,-443.5 284,-443.5 284,-364.5 173,-364.5"/>
<text text-anchor="middle" x="228.5" y="-431.5" font-family="Helvetica,sans-Serif" font-size="10.00" fill="#000000">gambol::NodesHolder</text>
<polyline fill="none" stroke="#000000" points="173,-424.5 284,-424.5 "/>
<text text-anchor="middle" x="228.5" y="-412.5" font-family="Helvetica,sans-Serif" font-size="10.00" fill="#000000"> </text>
<polyline fill="none" stroke="#000000" points="173,-405.5 284,-405.5 "/>
<text text-anchor="start" x="181" y="-393.5" font-family="Helvetica,sans-Serif" font-size="10.00" fill="#000000">+ NodesHolder()</text>
<text text-anchor="start" x="181" y="-382.5" font-family="Helvetica,sans-Serif" font-size="10.00" fill="#000000">+ NodesHolder()</text>
<text text-anchor="start" x="181" y="-371.5" font-family="Helvetica,sans-Serif" font-size="10.00" fill="#000000">+ ~NodesHolder()</text>
</a>
</g>
</g>
<!-- Node6&#45;&gt;Node4 -->
<g id="edge3" class="edge">
<title>Node6&#45;&gt;Node4</title>
<path fill="none" stroke="#404040" d="M228.5,-364.4494C228.5,-353.6222 228.5,-341.4536 228.5,-329.122"/>
<polygon fill="none" stroke="#404040" points="228.5001,-328.7797 224.5,-322.7798 228.5,-316.7797 232.5,-322.7797 228.5001,-328.7797"/>
<text text-anchor="middle" x="264.5" y="-338" font-family="Helvetica,sans-Serif" font-size="10.00" fill="#000000"> #nodes_holder_</text>
</g>
<!-- Node7 -->
<g id="node5" class="node">
<title>Node7</title>
<polygon fill="none" stroke="#bfbfbf" points="448,-519 448,-576 579,-576 579,-519 448,-519"/>
<text text-anchor="middle" x="513.5" y="-564" font-family="Helvetica,sans-Serif" font-size="10.00" fill="#000000">shared_ptr&lt; NodeTimes &gt;</text>
<polyline fill="none" stroke="#bfbfbf" points="448,-557 579,-557 "/>
<text text-anchor="middle" x="513.5" y="-545" font-family="Helvetica,sans-Serif" font-size="10.00" fill="#000000"> </text>
<polyline fill="none" stroke="#bfbfbf" points="448,-538 579,-538 "/>
<text text-anchor="middle" x="513.5" y="-526" font-family="Helvetica,sans-Serif" font-size="10.00" fill="#000000"> </text>
</g>
<!-- Node7&#45;&gt;Node6 -->
<g id="edge4" class="edge">
<title>Node7&#45;&gt;Node6</title>
<path fill="none" stroke="#404040" d="M487.5031,-518.9545C468.2023,-499.6504 440.1804,-475.3293 410.5,-462 365.4134,-441.7519 345.0922,-459.6131 295.4444,-444.3979"/>
<polygon fill="none" stroke="#404040" points="295.3735,-444.3737 288.4013,-446.2143 284.0206,-440.4863 290.9929,-438.6457 295.3735,-444.3737"/>
<text text-anchor="middle" x="491" y="-476" font-family="Helvetica,sans-Serif" font-size="10.00" fill="#000000"> +node_times_</text>
</g>
<!-- Node8 -->
<g id="node6" class="node">
<title>Node8</title>
<polygon fill="none" stroke="#bfbfbf" points="0,-519 0,-576 149,-576 149,-519 0,-519"/>
<text text-anchor="middle" x="74.5" y="-564" font-family="Helvetica,sans-Serif" font-size="10.00" fill="#000000">shared_ptr&lt; NodesVariables &gt;</text>
<polyline fill="none" stroke="#bfbfbf" points="0,-557 149,-557 "/>
<text text-anchor="middle" x="74.5" y="-545" font-family="Helvetica,sans-Serif" font-size="10.00" fill="#000000"> </text>
<polyline fill="none" stroke="#bfbfbf" points="0,-538 149,-538 "/>
<text text-anchor="middle" x="74.5" y="-526" font-family="Helvetica,sans-Serif" font-size="10.00" fill="#000000"> </text>
</g>
<!-- Node8&#45;&gt;Node3 -->
<g id="edge9" class="edge">
<title>Node8&#45;&gt;Node3</title>
<path fill="none" stroke="#404040" d="M72.5609,-518.792C69.4985,-451.1846 70.6603,-279.4879 150.5,-171 178.6713,-132.7202 224.4928,-106.3111 265.0689,-89.0864"/>
<polygon fill="none" stroke="#404040" points="265.2487,-89.0129 269.2876,-83.039 276.3554,-84.4695 272.3165,-90.4434 265.2487,-89.0129"/>
<text text-anchor="middle" x="111" y="-338" font-family="Helvetica,sans-Serif" font-size="10.00" fill="#000000"> &#45;joint_pos_</text>
</g>
<!-- Node8&#45;&gt;Node6 -->
<g id="edge5" class="edge">
<title>Node8&#45;&gt;Node6</title>
<path fill="none" stroke="#404040" d="M105.2941,-518.8055C125.8418,-499.6588 153.3557,-474.0209 177.1702,-451.83"/>
<polygon fill="none" stroke="#404040" points="177.3147,-451.6954 178.9775,-444.6786 186.0941,-443.5146 184.4313,-450.5314 177.3147,-451.6954"/>
<text text-anchor="middle" x="191" y="-487" font-family="Helvetica,sans-Serif" font-size="10.00" fill="#000000"> +torques_</text>
<text text-anchor="middle" x="191" y="-476" font-family="Helvetica,sans-Serif" font-size="10.00" fill="#000000">+joint_vel_</text>
<text text-anchor="middle" x="191" y="-465" font-family="Helvetica,sans-Serif" font-size="10.00" fill="#000000">+joint_pos_</text>
</g>
<!-- Node9 -->
<g id="node7" class="node">
<title>Node9</title>
<polygon fill="none" stroke="#bfbfbf" points="167.5,-513.5 167.5,-581.5 289.5,-581.5 289.5,-513.5 167.5,-513.5"/>
<text text-anchor="start" x="175.5" y="-569.5" font-family="Helvetica,sans-Serif" font-size="10.00" fill="#000000">vector&lt; NodesVariables</text>
<text text-anchor="middle" x="228.5" y="-558.5" font-family="Helvetica,sans-Serif" font-size="10.00" fill="#000000">::Ptr &gt;</text>
<polyline fill="none" stroke="#bfbfbf" points="167.5,-551.5 289.5,-551.5 "/>
<text text-anchor="middle" x="228.5" y="-539.5" font-family="Helvetica,sans-Serif" font-size="10.00" fill="#000000"> </text>
<polyline fill="none" stroke="#bfbfbf" points="167.5,-532.5 289.5,-532.5 "/>
<text text-anchor="middle" x="228.5" y="-520.5" font-family="Helvetica,sans-Serif" font-size="10.00" fill="#000000"> </text>
</g>
<!-- Node9&#45;&gt;Node6 -->
<g id="edge6" class="edge">
<title>Node9&#45;&gt;Node6</title>
<path fill="none" stroke="#404040" d="M228.5,-513.4925C228.5,-496.2915 228.5,-475.0448 228.5,-455.8586"/>
<polygon fill="none" stroke="#404040" points="228.5001,-455.6112 224.5,-449.6112 228.5,-443.6112 232.5,-449.6112 228.5001,-455.6112"/>
<text text-anchor="middle" x="257.5" y="-476" font-family="Helvetica,sans-Serif" font-size="10.00" fill="#000000"> +ee_forces_</text>
</g>
<!-- Node10 -->
<g id="node8" class="node">
<title>Node10</title>
<polygon fill="none" stroke="#bfbfbf" points="307.5,-513.5 307.5,-581.5 429.5,-581.5 429.5,-513.5 307.5,-513.5"/>
<text text-anchor="start" x="315.5" y="-569.5" font-family="Helvetica,sans-Serif" font-size="10.00" fill="#000000">vector&lt; PhaseDurations</text>
<text text-anchor="middle" x="368.5" y="-558.5" font-family="Helvetica,sans-Serif" font-size="10.00" fill="#000000">::Ptr &gt;</text>
<polyline fill="none" stroke="#bfbfbf" points="307.5,-551.5 429.5,-551.5 "/>
<text text-anchor="middle" x="368.5" y="-539.5" font-family="Helvetica,sans-Serif" font-size="10.00" fill="#000000"> </text>
<polyline fill="none" stroke="#bfbfbf" points="307.5,-532.5 429.5,-532.5 "/>
<text text-anchor="middle" x="368.5" y="-520.5" font-family="Helvetica,sans-Serif" font-size="10.00" fill="#000000"> </text>
</g>
<!-- Node10&#45;&gt;Node6 -->
<g id="edge7" class="edge">
<title>Node10&#45;&gt;Node6</title>
<path fill="none" stroke="#404040" d="M338.3553,-513.2221C324.1254,-497.3642 306.7362,-478.4407 290.5,-462 287.2149,-458.6735 283.792,-455.2809 280.316,-451.8897"/>
<polygon fill="none" stroke="#404040" points="280.2537,-451.8296 273.1578,-450.5453 271.6142,-443.5013 278.71,-444.7857 280.2537,-451.8296"/>
<text text-anchor="middle" x="363.5" y="-476" font-family="Helvetica,sans-Serif" font-size="10.00" fill="#000000"> +phase_durations_</text>
</g>
<!-- Node11 -->
<g id="node9" class="node">
<title>Node11</title>
<polygon fill="none" stroke="#bfbfbf" points="315.5,-215.5 315.5,-272.5 387.5,-272.5 387.5,-215.5 315.5,-215.5"/>
<text text-anchor="middle" x="351.5" y="-260.5" font-family="Helvetica,sans-Serif" font-size="10.00" fill="#000000">vector&lt; int &gt;</text>
<polyline fill="none" stroke="#bfbfbf" points="315.5,-253.5 387.5,-253.5 "/>
<text text-anchor="middle" x="351.5" y="-241.5" font-family="Helvetica,sans-Serif" font-size="10.00" fill="#000000"> </text>
<polyline fill="none" stroke="#bfbfbf" points="315.5,-234.5 387.5,-234.5 "/>
<text text-anchor="middle" x="351.5" y="-222.5" font-family="Helvetica,sans-Serif" font-size="10.00" fill="#000000"> </text>
</g>
<!-- Node11&#45;&gt;Node3 -->
<g id="edge8" class="edge">
<title>Node11&#45;&gt;Node3</title>
<path fill="none" stroke="#404040" d="M351.1831,-215.1616C350.949,-193.8574 350.6192,-163.8465 350.3135,-136.029"/>
<polygon fill="none" stroke="#404040" points="350.3117,-135.8582 346.246,-129.9026 350.1798,-123.8589 354.2455,-129.8146 350.3117,-135.8582"/>
<text text-anchor="middle" x="375" y="-145" font-family="Helvetica,sans-Serif" font-size="10.00" fill="#000000"> &#45;quat_ids_</text>
</g>
<!-- Node12 -->
<g id="node10" class="node">
<title>Node12</title>
<polygon fill="none" stroke="#bfbfbf" points="407,-215.5 407,-272.5 436,-272.5 436,-215.5 407,-215.5"/>
<text text-anchor="middle" x="421.5" y="-260.5" font-family="Helvetica,sans-Serif" font-size="10.00" fill="#000000">int</text>
<polyline fill="none" stroke="#bfbfbf" points="407,-253.5 436,-253.5 "/>
<text text-anchor="middle" x="421.5" y="-241.5" font-family="Helvetica,sans-Serif" font-size="10.00" fill="#000000"> </text>
<polyline fill="none" stroke="#bfbfbf" points="407,-234.5 436,-234.5 "/>
<text text-anchor="middle" x="421.5" y="-222.5" font-family="Helvetica,sans-Serif" font-size="10.00" fill="#000000"> </text>
</g>
<!-- Node12&#45;&gt;Node3 -->
<g id="edge10" class="edge">
<title>Node12&#45;&gt;Node3</title>
<path fill="none" stroke="#404040" d="M417.9849,-215.0714C414.8035,-194.2071 409.1051,-165.6682 399.5,-142 398.4992,-139.5338 397.424,-137.0584 396.2878,-134.5849"/>
<polygon fill="none" stroke="#404040" points="396.2689,-134.5466 390.0265,-130.9366 390.9578,-123.7859 397.2003,-127.3959 396.2689,-134.5466"/>
<text text-anchor="middle" x="432.5" y="-145" font-family="Helvetica,sans-Serif" font-size="10.00" fill="#000000"> &#45;num_quats_</text>
</g>
<!-- Node13 -->
<g id="node11" class="node">
<title>Node13</title>
<polygon fill="none" stroke="#bfbfbf" points="454,-215.5 454,-272.5 587,-272.5 587,-215.5 454,-215.5"/>
<text text-anchor="middle" x="520.5" y="-260.5" font-family="Helvetica,sans-Serif" font-size="10.00" fill="#000000">shared_ptr&lt; RobotModel &gt;</text>
<polyline fill="none" stroke="#bfbfbf" points="454,-253.5 587,-253.5 "/>
<text text-anchor="middle" x="520.5" y="-241.5" font-family="Helvetica,sans-Serif" font-size="10.00" fill="#000000"> </text>
<polyline fill="none" stroke="#bfbfbf" points="454,-234.5 587,-234.5 "/>
<text text-anchor="middle" x="520.5" y="-222.5" font-family="Helvetica,sans-Serif" font-size="10.00" fill="#000000"> </text>
</g>
<!-- Node13&#45;&gt;Node3 -->
<g id="edge11" class="edge">
<title>Node13&#45;&gt;Node3</title>
<path fill="none" stroke="#404040" d="M509.7624,-215.3224C500.6065,-193.5149 485.8527,-163.6697 466.5,-142 456.5413,-130.849 444.7193,-120.4848 432.4795,-111.162"/>
<polygon fill="none" stroke="#404040" points="432.2761,-111.0128 425.0723,-110.6881 422.6014,-103.9135 429.8052,-104.2383 432.2761,-111.0128"/>
<text text-anchor="middle" x="492.5" y="-145" font-family="Helvetica,sans-Serif" font-size="10.00" fill="#000000"> &#45;model_</text>
</g>
</g>
</svg>
