<?xml version="1.0" encoding="UTF-8" standalone="no"?>
<!DOCTYPE svg PUBLIC "-//W3C//DTD SVG 1.1//EN"
 "http://www.w3.org/Graphics/SVG/1.1/DTD/svg11.dtd">
<!-- Generated by graphviz version 2.40.1 (20161225.0304)
 -->
<!-- Title: gambol::GaitGeneratorBipedArms Pages: 1 -->
<svg width="288pt" height="624pt"
 viewBox="0.00 0.00 288.00 624.00" xmlns="http://www.w3.org/2000/svg" xmlns:xlink="http://www.w3.org/1999/xlink">
<g id="graph0" class="graph" transform="scale(1 1) rotate(0) translate(4 620)">
<title>gambol::GaitGeneratorBipedArms</title>
<!-- Node3 -->
<g id="node1" class="node">
<title>Node3</title>
<polygon fill="#bfbfbf" stroke="#000000" points="108.5,-.5 108.5,-90.5 271.5,-90.5 271.5,-.5 108.5,-.5"/>
<text text-anchor="middle" x="190" y="-78.5" font-family="Helvetica,sans-Serif" font-size="10.00" fill="#000000">gambol::GaitGeneratorBipedArms</text>
<polyline fill="none" stroke="#000000" points="108.5,-71.5 271.5,-71.5 "/>
<text text-anchor="middle" x="190" y="-59.5" font-family="Helvetica,sans-Serif" font-size="10.00" fill="#000000"> </text>
<polyline fill="none" stroke="#000000" points="108.5,-52.5 271.5,-52.5 "/>
<text text-anchor="start" x="116.5" y="-40.5" font-family="Helvetica,sans-Serif" font-size="10.00" fill="#000000">+ GaitGeneratorBipedArms()</text>
<text text-anchor="start" x="116.5" y="-29.5" font-family="Helvetica,sans-Serif" font-size="10.00" fill="#000000">+ ~GaitGeneratorBipedArms()</text>
<text text-anchor="start" x="116.5" y="-18.5" font-family="Helvetica,sans-Serif" font-size="10.00" fill="#000000"># GetGait()</text>
<text text-anchor="start" x="116.5" y="-7.5" font-family="Helvetica,sans-Serif" font-size="10.00" fill="#000000"># GetStrideHandstand()</text>
</g>
<!-- Node4 -->
<g id="node2" class="node">
<title>Node4</title>
<g id="a_node2"><a xlink:href="classgambol_1_1GaitGeneratorBiped.html" target="_top" xlink:title="Produces the contact sequence for a variety of two&#45;legged gaits. ">
<polygon fill="none" stroke="#000000" points="67,-128.5 67,-262.5 207,-262.5 207,-128.5 67,-128.5"/>
<text text-anchor="middle" x="137" y="-250.5" font-family="Helvetica,sans-Serif" font-size="10.00" fill="#000000">gambol::GaitGeneratorBiped</text>
<polyline fill="none" stroke="#000000" points="67,-243.5 207,-243.5 "/>
<text text-anchor="middle" x="137" y="-231.5" font-family="Helvetica,sans-Serif" font-size="10.00" fill="#000000"> </text>
<polyline fill="none" stroke="#000000" points="67,-224.5 207,-224.5 "/>
<text text-anchor="start" x="75" y="-212.5" font-family="Helvetica,sans-Serif" font-size="10.00" fill="#000000">+ GaitGeneratorBiped()</text>
<text text-anchor="start" x="75" y="-201.5" font-family="Helvetica,sans-Serif" font-size="10.00" fill="#000000">+ ~GaitGeneratorBiped()</text>
<text text-anchor="start" x="75" y="-190.5" font-family="Helvetica,sans-Serif" font-size="10.00" fill="#000000"># GetGait()</text>
<text text-anchor="start" x="75" y="-179.5" font-family="Helvetica,sans-Serif" font-size="10.00" fill="#000000"># GetStrideStand()</text>
<text text-anchor="start" x="75" y="-168.5" font-family="Helvetica,sans-Serif" font-size="10.00" fill="#000000"># GetStrideFlight()</text>
<text text-anchor="start" x="75" y="-157.5" font-family="Helvetica,sans-Serif" font-size="10.00" fill="#000000"># GetStrideWalk()</text>
<text text-anchor="start" x="75" y="-146.5" font-family="Helvetica,sans-Serif" font-size="10.00" fill="#000000"># GetStrideWalkBegin()</text>
<text text-anchor="start" x="75" y="-135.5" font-family="Helvetica,sans-Serif" font-size="10.00" fill="#000000">and 7 more...</text>
</a>
</g>
</g>
<!-- Node4&#45;&gt;Node3 -->
<g id="edge1" class="edge">
<title>Node4&#45;&gt;Node3</title>
<path fill="none" stroke="#191970" d="M164.1119,-118.7681C167.5181,-109.1281 170.9107,-99.5264 174.0646,-90.6003"/>
<polygon fill="none" stroke="#191970" points="160.7412,-117.8023 160.7097,-128.3971 167.3413,-120.1344 160.7412,-117.8023"/>
</g>
<!-- Node5 -->
<g id="node3" class="node">
<title>Node5</title>
<g id="a_node3"><a xlink:href="classgambol_1_1GaitGenerator.html" target="_top" xlink:title="Generates endeffector phase durations for predefined gait styles. ">
<polygon fill="none" stroke="#000000" points="24,-343.5 24,-510.5 188,-510.5 188,-343.5 24,-343.5"/>
<text text-anchor="middle" x="106" y="-498.5" font-family="Helvetica,sans-Serif" font-size="10.00" fill="#000000">gambol::GaitGenerator</text>
<polyline fill="none" stroke="#000000" points="24,-491.5 188,-491.5 "/>
<text text-anchor="middle" x="106" y="-479.5" font-family="Helvetica,sans-Serif" font-size="10.00" fill="#000000"> </text>
<polyline fill="none" stroke="#000000" points="24,-472.5 188,-472.5 "/>
<text text-anchor="start" x="32" y="-460.5" font-family="Helvetica,sans-Serif" font-size="10.00" fill="#000000">+ GaitGenerator()</text>
<text text-anchor="start" x="32" y="-449.5" font-family="Helvetica,sans-Serif" font-size="10.00" fill="#000000">+ ~GaitGenerator()</text>
<text text-anchor="start" x="32" y="-438.5" font-family="Helvetica,sans-Serif" font-size="10.00" fill="#000000">+ GetPhaseDurations()</text>
<text text-anchor="start" x="32" y="-427.5" font-family="Helvetica,sans-Serif" font-size="10.00" fill="#000000">+ GetPhaseDurations()</text>
<text text-anchor="start" x="32" y="-416.5" font-family="Helvetica,sans-Serif" font-size="10.00" fill="#000000">+ IsInContactAtStart()</text>
<text text-anchor="start" x="32" y="-405.5" font-family="Helvetica,sans-Serif" font-size="10.00" fill="#000000">and 4 more...</text>
<text text-anchor="start" x="32" y="-394.5" font-family="Helvetica,sans-Serif" font-size="10.00" fill="#000000">+ MakeGaitGenerator()</text>
<text text-anchor="start" x="32" y="-383.5" font-family="Helvetica,sans-Serif" font-size="10.00" fill="#000000"># RemoveTransition()</text>
<text text-anchor="start" x="32" y="-372.5" font-family="Helvetica,sans-Serif" font-size="10.00" fill="#000000">&#45; GetPhaseDurations()</text>
<text text-anchor="start" x="32" y="-361.5" font-family="Helvetica,sans-Serif" font-size="10.00" fill="#000000">&#45; GetGait()</text>
<text text-anchor="start" x="32" y="-350.5" font-family="Helvetica,sans-Serif" font-size="10.00" fill="#000000">&#45; GetNormalizedPhaseDurations()</text>
</a>
</g>
</g>
<!-- Node5&#45;&gt;Node4 -->
<g id="edge2" class="edge">
<title>Node5&#45;&gt;Node4</title>
<path fill="none" stroke="#191970" d="M118.5387,-333.3641C121.7101,-309.6812 125.0532,-284.7154 128.0101,-262.6343"/>
<polygon fill="none" stroke="#191970" points="115.05,-333.0471 117.1917,-343.4232 121.9881,-333.9762 115.05,-333.0471"/>
</g>
<!-- Node6 -->
<g id="node4" class="node">
<title>Node6</title>
<polygon fill="none" stroke="#bfbfbf" points="0,-558.5 0,-615.5 90,-615.5 90,-558.5 0,-558.5"/>
<text text-anchor="middle" x="45" y="-603.5" font-family="Helvetica,sans-Serif" font-size="10.00" fill="#000000">vector&lt; double &gt;</text>
<polyline fill="none" stroke="#bfbfbf" points="0,-596.5 90,-596.5 "/>
<text text-anchor="middle" x="45" y="-584.5" font-family="Helvetica,sans-Serif" font-size="10.00" fill="#000000"> </text>
<polyline fill="none" stroke="#bfbfbf" points="0,-577.5 90,-577.5 "/>
<text text-anchor="middle" x="45" y="-565.5" font-family="Helvetica,sans-Serif" font-size="10.00" fill="#000000"> </text>
</g>
<!-- Node6&#45;&gt;Node5 -->
<g id="edge3" class="edge">
<title>Node6&#45;&gt;Node5</title>
<path fill="none" stroke="#404040" d="M55.9056,-558.3952C59.9483,-547.7915 64.7874,-535.0986 69.8414,-521.8423"/>
<polygon fill="none" stroke="#404040" points="69.8496,-521.8207 68.2494,-514.7893 74.1245,-510.6079 75.7246,-517.6393 69.8496,-521.8207"/>
<text text-anchor="middle" x="86" y="-532" font-family="Helvetica,sans-Serif" font-size="10.00" fill="#000000"> #times_</text>
</g>
<!-- Node7 -->
<g id="node5" class="node">
<title>Node7</title>
<polygon fill="none" stroke="#bfbfbf" points="108.5,-558.5 108.5,-615.5 227.5,-615.5 227.5,-558.5 108.5,-558.5"/>
<text text-anchor="middle" x="168" y="-603.5" font-family="Helvetica,sans-Serif" font-size="10.00" fill="#000000">vector&lt; ContactState &gt;</text>
<polyline fill="none" stroke="#bfbfbf" points="108.5,-596.5 227.5,-596.5 "/>
<text text-anchor="middle" x="168" y="-584.5" font-family="Helvetica,sans-Serif" font-size="10.00" fill="#000000"> </text>
<polyline fill="none" stroke="#bfbfbf" points="108.5,-577.5 227.5,-577.5 "/>
<text text-anchor="middle" x="168" y="-565.5" font-family="Helvetica,sans-Serif" font-size="10.00" fill="#000000"> </text>
</g>
<!-- Node7&#45;&gt;Node5 -->
<g id="edge4" class="edge">
<title>Node7&#45;&gt;Node5</title>
<path fill="none" stroke="#404040" d="M156.9156,-558.3952C152.8067,-547.7915 147.8882,-535.0986 142.7514,-521.8423"/>
<polygon fill="none" stroke="#404040" points="142.734,-521.7972 136.8363,-517.6479 138.3981,-510.6079 144.2958,-514.7573 142.734,-521.7972"/>
<text text-anchor="middle" x="176" y="-532" font-family="Helvetica,sans-Serif" font-size="10.00" fill="#000000"> #contacts_</text>
</g>
<!-- Node8 -->
<g id="node6" class="node">
<title>Node8</title>
<polygon fill="none" stroke="#bfbfbf" points="206,-398.5 206,-455.5 280,-455.5 280,-398.5 206,-398.5"/>
<text text-anchor="middle" x="243" y="-443.5" font-family="Helvetica,sans-Serif" font-size="10.00" fill="#000000">ContactState</text>
<polyline fill="none" stroke="#bfbfbf" points="206,-436.5 280,-436.5 "/>
<text text-anchor="middle" x="243" y="-424.5" font-family="Helvetica,sans-Serif" font-size="10.00" fill="#000000"> </text>
<polyline fill="none" stroke="#bfbfbf" points="206,-417.5 280,-417.5 "/>
<text text-anchor="middle" x="243" y="-405.5" font-family="Helvetica,sans-Serif" font-size="10.00" fill="#000000"> </text>
</g>
<!-- Node8&#45;&gt;Node3 -->
<g id="edge6" class="edge">
<title>Node8&#45;&gt;Node3</title>
<path fill="none" stroke="#404040" d="M242.4548,-398.2606C240.9862,-344.6289 235.6023,-225.8678 216,-128 214.3362,-119.6931 212.1431,-111.041 209.7347,-102.5992"/>
<polygon fill="none" stroke="#404040" points="209.6625,-102.358 204.1091,-97.758 206.2193,-90.8626 211.7727,-95.4625 209.6625,-102.358"/>
<text text-anchor="middle" x="249" y="-209.5" font-family="Helvetica,sans-Serif" font-size="10.00" fill="#000000"> #I_B_</text>
<text text-anchor="middle" x="249" y="-198.5" font-family="Helvetica,sans-Serif" font-size="10.00" fill="#000000">#B_B_</text>
<text text-anchor="middle" x="249" y="-187.5" font-family="Helvetica,sans-Serif" font-size="10.00" fill="#000000">#b_B_</text>
<text text-anchor="middle" x="249" y="-176.5" font-family="Helvetica,sans-Serif" font-size="10.00" fill="#000000">#P_B_</text>
</g>
<!-- Node8&#45;&gt;Node4 -->
<g id="edge5" class="edge">
<title>Node8&#45;&gt;Node4</title>
<path fill="none" stroke="#404040" d="M229.7894,-398.1484C215.5963,-367.1513 192.4319,-316.5611 172.7993,-273.6842"/>
<polygon fill="none" stroke="#404040" points="172.7567,-273.5911 166.6218,-269.801 167.7608,-262.6804 173.8956,-266.4705 172.7567,-273.5911"/>
<text text-anchor="middle" x="203" y="-317" font-family="Helvetica,sans-Serif" font-size="10.00" fill="#000000"> #I_</text>
<text text-anchor="middle" x="203" y="-306" font-family="Helvetica,sans-Serif" font-size="10.00" fill="#000000">#B_</text>
<text text-anchor="middle" x="203" y="-295" font-family="Helvetica,sans-Serif" font-size="10.00" fill="#000000">#b_</text>
<text text-anchor="middle" x="203" y="-284" font-family="Helvetica,sans-Serif" font-size="10.00" fill="#000000">#P_</text>
</g>
</g>
</svg>
