<?xml version="1.0" encoding="UTF-8" standalone="no"?>
<!DOCTYPE svg PUBLIC "-//W3C//DTD SVG 1.1//EN"
 "http://www.w3.org/Graphics/SVG/1.1/DTD/svg11.dtd">
<!-- Generated by graphviz version 2.40.1 (20161225.0304)
 -->
<!-- Title: gambol::NodesVariables Pages: 1 -->
<svg width="131pt" height="270pt"
 viewBox="0.00 0.00 131.00 270.00" xmlns="http://www.w3.org/2000/svg" xmlns:xlink="http://www.w3.org/1999/xlink">
<g id="graph0" class="graph" transform="scale(1 1) rotate(0) translate(4 266)">
<title>gambol::NodesVariables</title>
<!-- Node0 -->
<g id="node1" class="node">
<title>Node0</title>
<polygon fill="#bfbfbf" stroke="#000000" points="0,-.5 0,-167.5 123,-167.5 123,-.5 0,-.5"/>
<text text-anchor="middle" x="61.5" y="-155.5" font-family="Helvetica,sans-Serif" font-size="10.00" fill="#000000">gambol::NodesVariables</text>
<polyline fill="none" stroke="#000000" points="0,-148.5 123,-148.5 "/>
<text text-anchor="start" x="8" y="-136.5" font-family="Helvetica,sans-Serif" font-size="10.00" fill="#000000"># bounds_</text>
<text text-anchor="start" x="8" y="-125.5" font-family="Helvetica,sans-Serif" font-size="10.00" fill="#000000"># nodes_</text>
<text text-anchor="start" x="8" y="-114.5" font-family="Helvetica,sans-Serif" font-size="10.00" fill="#000000"># n_dim_</text>
<text text-anchor="start" x="8" y="-103.5" font-family="Helvetica,sans-Serif" font-size="10.00" fill="#000000"># node_times_</text>
<polyline fill="none" stroke="#000000" points="0,-96.5 123,-96.5 "/>
<text text-anchor="start" x="8" y="-84.5" font-family="Helvetica,sans-Serif" font-size="10.00" fill="#000000">+ NodesVariables()</text>
<text text-anchor="start" x="8" y="-73.5" font-family="Helvetica,sans-Serif" font-size="10.00" fill="#000000">+ ~NodesVariables()</text>
<text text-anchor="start" x="8" y="-62.5" font-family="Helvetica,sans-Serif" font-size="10.00" fill="#000000">+ GetNodeInfo()</text>
<text text-anchor="start" x="8" y="-51.5" font-family="Helvetica,sans-Serif" font-size="10.00" fill="#000000">+ GetOptIndex()</text>
<text text-anchor="start" x="8" y="-40.5" font-family="Helvetica,sans-Serif" font-size="10.00" fill="#000000">+ GetOptIndex()</text>
<text text-anchor="start" x="8" y="-29.5" font-family="Helvetica,sans-Serif" font-size="10.00" fill="#000000">and 16 more...</text>
<text text-anchor="start" x="8" y="-18.5" font-family="Helvetica,sans-Serif" font-size="10.00" fill="#000000">&#45; AddBounds()</text>
<text text-anchor="start" x="8" y="-7.5" font-family="Helvetica,sans-Serif" font-size="10.00" fill="#000000">&#45; AddBound()</text>
</g>
<!-- Node1 -->
<g id="node2" class="node">
<title>Node1</title>
<polygon fill="none" stroke="#bfbfbf" points="15.5,-204.5 15.5,-261.5 107.5,-261.5 107.5,-204.5 15.5,-204.5"/>
<text text-anchor="middle" x="61.5" y="-249.5" font-family="Helvetica,sans-Serif" font-size="10.00" fill="#000000">ifopt::VariableSet</text>
<polyline fill="none" stroke="#bfbfbf" points="15.5,-242.5 107.5,-242.5 "/>
<text text-anchor="middle" x="61.5" y="-230.5" font-family="Helvetica,sans-Serif" font-size="10.00" fill="#000000"> </text>
<polyline fill="none" stroke="#bfbfbf" points="15.5,-223.5 107.5,-223.5 "/>
<text text-anchor="middle" x="61.5" y="-211.5" font-family="Helvetica,sans-Serif" font-size="10.00" fill="#000000"> </text>
</g>
<!-- Node1&#45;&gt;Node0 -->
<g id="edge1" class="edge">
<title>Node1&#45;&gt;Node0</title>
<path fill="none" stroke="#191970" d="M61.5,-194.2025C61.5,-185.8906 61.5,-176.8023 61.5,-167.5245"/>
<polygon fill="none" stroke="#191970" points="58.0001,-194.2713 61.5,-204.2713 65.0001,-194.2713 58.0001,-194.2713"/>
</g>
</g>
</svg>
