<?xml version="1.0" encoding="UTF-8" standalone="no"?>
<!DOCTYPE svg PUBLIC "-//W3C//DTD SVG 1.1//EN"
 "http://www.w3.org/Graphics/SVG/1.1/DTD/svg11.dtd">
<!-- Generated by graphviz version 2.40.1 (20161225.0304)
 -->
<!-- Title: gambol::NodeDerivativeCost Pages: 1 -->
<svg width="405pt" height="354pt"
 viewBox="0.00 0.00 404.50 354.00" xmlns="http://www.w3.org/2000/svg" xmlns:xlink="http://www.w3.org/1999/xlink">
<g id="graph0" class="graph" transform="scale(1 1) rotate(0) translate(4 350)">
<title>gambol::NodeDerivativeCost</title>
<!-- Node3 -->
<g id="node1" class="node">
<title>Node3</title>
<polygon fill="#bfbfbf" stroke="#000000" points="144.5,-.5 144.5,-90.5 287.5,-90.5 287.5,-.5 144.5,-.5"/>
<text text-anchor="middle" x="216" y="-78.5" font-family="Helvetica,sans-Serif" font-size="10.00" fill="#000000">gambol::NodeDerivativeCost</text>
<polyline fill="none" stroke="#000000" points="144.5,-71.5 287.5,-71.5 "/>
<text text-anchor="middle" x="216" y="-59.5" font-family="Helvetica,sans-Serif" font-size="10.00" fill="#000000"> </text>
<polyline fill="none" stroke="#000000" points="144.5,-52.5 287.5,-52.5 "/>
<text text-anchor="start" x="152.5" y="-40.5" font-family="Helvetica,sans-Serif" font-size="10.00" fill="#000000">+ NodeDerivativeCost()</text>
<text text-anchor="start" x="152.5" y="-29.5" font-family="Helvetica,sans-Serif" font-size="10.00" fill="#000000">+ ~NodeDerivativeCost()</text>
<text text-anchor="start" x="152.5" y="-18.5" font-family="Helvetica,sans-Serif" font-size="10.00" fill="#000000">+ GetCost()</text>
<text text-anchor="start" x="152.5" y="-7.5" font-family="Helvetica,sans-Serif" font-size="10.00" fill="#000000">+ FillJacobianBlock()</text>
</g>
<!-- Node4 -->
<g id="node2" class="node">
<title>Node4</title>
<g id="a_node2"><a xlink:href="classgambol_1_1NodeCost.html" target="_top" xlink:title="{gambol::NodeCost\n||+ NodeCost()\l+ ~NodeCost()\l+ InitVariableDependedQuantities()\l+ GetCost()\l# FillJacobianBlock()\l}">
<polygon fill="none" stroke="#000000" points="131.5,-128.5 131.5,-229.5 300.5,-229.5 300.5,-128.5 131.5,-128.5"/>
<text text-anchor="middle" x="216" y="-217.5" font-family="Helvetica,sans-Serif" font-size="10.00" fill="#000000">gambol::NodeCost</text>
<polyline fill="none" stroke="#000000" points="131.5,-210.5 300.5,-210.5 "/>
<text text-anchor="middle" x="216" y="-198.5" font-family="Helvetica,sans-Serif" font-size="10.00" fill="#000000"> </text>
<polyline fill="none" stroke="#000000" points="131.5,-191.5 300.5,-191.5 "/>
<text text-anchor="start" x="139.5" y="-179.5" font-family="Helvetica,sans-Serif" font-size="10.00" fill="#000000">+ NodeCost()</text>
<text text-anchor="start" x="139.5" y="-168.5" font-family="Helvetica,sans-Serif" font-size="10.00" fill="#000000">+ ~NodeCost()</text>
<text text-anchor="start" x="139.5" y="-157.5" font-family="Helvetica,sans-Serif" font-size="10.00" fill="#000000">+ InitVariableDependedQuantities()</text>
<text text-anchor="start" x="139.5" y="-146.5" font-family="Helvetica,sans-Serif" font-size="10.00" fill="#000000">+ GetCost()</text>
<text text-anchor="start" x="139.5" y="-135.5" font-family="Helvetica,sans-Serif" font-size="10.00" fill="#000000"># FillJacobianBlock()</text>
</a>
</g>
</g>
<!-- Node4&#45;&gt;Node3 -->
<g id="edge1" class="edge">
<title>Node4&#45;&gt;Node3</title>
<path fill="none" stroke="#191970" d="M216,-117.8576C216,-108.6556 216,-99.3105 216,-90.5283"/>
<polygon fill="none" stroke="#191970" points="212.5001,-118.1485 216,-128.1485 219.5001,-118.1486 212.5001,-118.1485"/>
</g>
<!-- Node5 -->
<g id="node3" class="node">
<title>Node5</title>
<polygon fill="none" stroke="#bfbfbf" points="0,-288.5 0,-345.5 60,-345.5 60,-288.5 0,-288.5"/>
<text text-anchor="middle" x="30" y="-333.5" font-family="Helvetica,sans-Serif" font-size="10.00" fill="#000000">CostTerm</text>
<polyline fill="none" stroke="#bfbfbf" points="0,-326.5 60,-326.5 "/>
<text text-anchor="middle" x="30" y="-314.5" font-family="Helvetica,sans-Serif" font-size="10.00" fill="#000000"> </text>
<polyline fill="none" stroke="#bfbfbf" points="0,-307.5 60,-307.5 "/>
<text text-anchor="middle" x="30" y="-295.5" font-family="Helvetica,sans-Serif" font-size="10.00" fill="#000000"> </text>
</g>
<!-- Node5&#45;&gt;Node4 -->
<g id="edge2" class="edge">
<title>Node5&#45;&gt;Node4</title>
<path fill="none" stroke="#191970" d="M68.4652,-288.3971C68.6439,-288.2644 68.8222,-288.132 69,-288 94.6356,-268.9645 122.7985,-248.076 147.5536,-229.7231"/>
<polygon fill="none" stroke="#191970" points="66.1707,-285.7415 60.2307,-294.5145 70.3452,-291.3606 66.1707,-285.7415"/>
</g>
<!-- Node6 -->
<g id="node4" class="node">
<title>Node6</title>
<polygon fill="none" stroke="#bfbfbf" points="78.5,-288.5 78.5,-345.5 123.5,-345.5 123.5,-288.5 78.5,-288.5"/>
<text text-anchor="middle" x="101" y="-333.5" font-family="Helvetica,sans-Serif" font-size="10.00" fill="#000000">double</text>
<polyline fill="none" stroke="#bfbfbf" points="78.5,-326.5 123.5,-326.5 "/>
<text text-anchor="middle" x="101" y="-314.5" font-family="Helvetica,sans-Serif" font-size="10.00" fill="#000000"> </text>
<polyline fill="none" stroke="#bfbfbf" points="78.5,-307.5 123.5,-307.5 "/>
<text text-anchor="middle" x="101" y="-295.5" font-family="Helvetica,sans-Serif" font-size="10.00" fill="#000000"> </text>
</g>
<!-- Node6&#45;&gt;Node4 -->
<g id="edge3" class="edge">
<title>Node6&#45;&gt;Node4</title>
<path fill="none" stroke="#404040" d="M123.7203,-289.7356C135.7605,-275.2874 151.0596,-256.9285 165.7221,-239.3334"/>
<polygon fill="none" stroke="#404040" points="166.0955,-238.8854 166.8637,-231.7153 173.7778,-229.6667 173.0095,-236.8368 166.0955,-238.8854"/>
<text text-anchor="middle" x="179" y="-262" font-family="Helvetica,sans-Serif" font-size="10.00" fill="#000000"> #exp_</text>
<text text-anchor="middle" x="179" y="-251" font-family="Helvetica,sans-Serif" font-size="10.00" fill="#000000">#weight_</text>
</g>
<!-- Node7 -->
<g id="node5" class="node">
<title>Node7</title>
<polygon fill="none" stroke="#bfbfbf" points="141.5,-288.5 141.5,-345.5 290.5,-345.5 290.5,-288.5 141.5,-288.5"/>
<text text-anchor="middle" x="216" y="-333.5" font-family="Helvetica,sans-Serif" font-size="10.00" fill="#000000">shared_ptr&lt; NodesVariables &gt;</text>
<polyline fill="none" stroke="#bfbfbf" points="141.5,-326.5 290.5,-326.5 "/>
<text text-anchor="middle" x="216" y="-314.5" font-family="Helvetica,sans-Serif" font-size="10.00" fill="#000000"> </text>
<polyline fill="none" stroke="#bfbfbf" points="141.5,-307.5 290.5,-307.5 "/>
<text text-anchor="middle" x="216" y="-295.5" font-family="Helvetica,sans-Serif" font-size="10.00" fill="#000000"> </text>
</g>
<!-- Node7&#45;&gt;Node4 -->
<g id="edge4" class="edge">
<title>Node7&#45;&gt;Node4</title>
<path fill="none" stroke="#404040" d="M216,-288.4063C216,-274.8804 216,-258.1561 216,-241.8884"/>
<polygon fill="none" stroke="#404040" points="216.0001,-241.5979 212,-235.5979 216,-229.5979 220,-235.5979 216.0001,-241.5979"/>
<text text-anchor="middle" x="236" y="-256.5" font-family="Helvetica,sans-Serif" font-size="10.00" fill="#000000"> #nodes_</text>
</g>
<!-- Node8 -->
<g id="node6" class="node">
<title>Node8</title>
<polygon fill="none" stroke="#bfbfbf" points="308.5,-288.5 308.5,-345.5 337.5,-345.5 337.5,-288.5 308.5,-288.5"/>
<text text-anchor="middle" x="323" y="-333.5" font-family="Helvetica,sans-Serif" font-size="10.00" fill="#000000">int</text>
<polyline fill="none" stroke="#bfbfbf" points="308.5,-326.5 337.5,-326.5 "/>
<text text-anchor="middle" x="323" y="-314.5" font-family="Helvetica,sans-Serif" font-size="10.00" fill="#000000"> </text>
<polyline fill="none" stroke="#bfbfbf" points="308.5,-307.5 337.5,-307.5 "/>
<text text-anchor="middle" x="323" y="-295.5" font-family="Helvetica,sans-Serif" font-size="10.00" fill="#000000"> </text>
</g>
<!-- Node8&#45;&gt;Node4 -->
<g id="edge5" class="edge">
<title>Node8&#45;&gt;Node4</title>
<path fill="none" stroke="#404040" d="M308.3465,-298.101C296.5336,-282.8657 279.2386,-260.56 262.8007,-239.3598"/>
<polygon fill="none" stroke="#404040" points="262.6843,-239.2097 255.8467,-236.919 255.3313,-229.7263 262.1689,-232.017 262.6843,-239.2097"/>
<text text-anchor="middle" x="300" y="-256.5" font-family="Helvetica,sans-Serif" font-size="10.00" fill="#000000"> #dim_</text>
</g>
<!-- Node9 -->
<g id="node7" class="node">
<title>Node9</title>
<polygon fill="none" stroke="#bfbfbf" points="355.5,-288.5 355.5,-345.5 396.5,-345.5 396.5,-288.5 355.5,-288.5"/>
<text text-anchor="middle" x="376" y="-333.5" font-family="Helvetica,sans-Serif" font-size="10.00" fill="#000000">string</text>
<polyline fill="none" stroke="#bfbfbf" points="355.5,-326.5 396.5,-326.5 "/>
<text text-anchor="middle" x="376" y="-314.5" font-family="Helvetica,sans-Serif" font-size="10.00" fill="#000000"> </text>
<polyline fill="none" stroke="#bfbfbf" points="355.5,-307.5 396.5,-307.5 "/>
<text text-anchor="middle" x="376" y="-295.5" font-family="Helvetica,sans-Serif" font-size="10.00" fill="#000000"> </text>
</g>
<!-- Node9&#45;&gt;Node4 -->
<g id="edge6" class="edge">
<title>Node9&#45;&gt;Node4</title>
<path fill="none" stroke="#404040" d="M355.4972,-288.5106C345.3238,-275.3914 332.3672,-260.0906 319,-248 314.9395,-244.3273 310.669,-240.7032 306.2703,-237.1543"/>
<polygon fill="none" stroke="#404040" points="305.9332,-236.8917 298.7418,-236.3588 296.4677,-229.5156 303.6591,-230.0485 305.9332,-236.8917"/>
<text text-anchor="middle" x="363" y="-256.5" font-family="Helvetica,sans-Serif" font-size="10.00" fill="#000000"> #node_id_</text>
</g>
</g>
</svg>
