<?xml version="1.0" encoding="UTF-8" standalone="no"?>
<!DOCTYPE svg PUBLIC "-//W3C//DTD SVG 1.1//EN"
 "http://www.w3.org/Graphics/SVG/1.1/DTD/svg11.dtd">
<!-- Generated by graphviz version 2.40.1 (20161225.0304)
 -->
<!-- Title: gambol::NLPToFile Pages: 1 -->
<svg width="141pt" height="204pt"
 viewBox="0.00 0.00 140.50 204.00" xmlns="http://www.w3.org/2000/svg" xmlns:xlink="http://www.w3.org/1999/xlink">
<g id="graph0" class="graph" transform="scale(1 1) rotate(0) translate(4 200)">
<title>gambol::NLPToFile</title>
<!-- Node1 -->
<g id="node1" class="node">
<title>Node1</title>
<polygon fill="#bfbfbf" stroke="#000000" points="2.5,-.5 2.5,-90.5 124.5,-90.5 124.5,-.5 2.5,-.5"/>
<text text-anchor="middle" x="63.5" y="-78.5" font-family="Helvetica,sans-Serif" font-size="10.00" fill="#000000">gambol::NLPToFile</text>
<polyline fill="none" stroke="#000000" points="2.5,-71.5 124.5,-71.5 "/>
<text text-anchor="middle" x="63.5" y="-59.5" font-family="Helvetica,sans-Serif" font-size="10.00" fill="#000000"> </text>
<polyline fill="none" stroke="#000000" points="2.5,-52.5 124.5,-52.5 "/>
<text text-anchor="start" x="10.5" y="-40.5" font-family="Helvetica,sans-Serif" font-size="10.00" fill="#000000">+ NLPToFile()</text>
<text text-anchor="start" x="10.5" y="-29.5" font-family="Helvetica,sans-Serif" font-size="10.00" fill="#000000">+ ~NLPToFile()</text>
<text text-anchor="start" x="10.5" y="-18.5" font-family="Helvetica,sans-Serif" font-size="10.00" fill="#000000">+ SetGuessFromFile()</text>
<text text-anchor="start" x="10.5" y="-7.5" font-family="Helvetica,sans-Serif" font-size="10.00" fill="#000000">+ WriteFileFromResult()</text>
</g>
<!-- Node2 -->
<g id="node2" class="node">
<title>Node2</title>
<polygon fill="none" stroke="#bfbfbf" points="0,-138.5 0,-195.5 59,-195.5 59,-138.5 0,-138.5"/>
<text text-anchor="middle" x="29.5" y="-183.5" font-family="Helvetica,sans-Serif" font-size="10.00" fill="#000000">Problem *</text>
<polyline fill="none" stroke="#bfbfbf" points="0,-176.5 59,-176.5 "/>
<text text-anchor="middle" x="29.5" y="-164.5" font-family="Helvetica,sans-Serif" font-size="10.00" fill="#000000"> </text>
<polyline fill="none" stroke="#bfbfbf" points="0,-157.5 59,-157.5 "/>
<text text-anchor="middle" x="29.5" y="-145.5" font-family="Helvetica,sans-Serif" font-size="10.00" fill="#000000"> </text>
</g>
<!-- Node2&#45;&gt;Node1 -->
<g id="edge1" class="edge">
<title>Node2&#45;&gt;Node1</title>
<path fill="none" stroke="#404040" d="M37.5575,-138.2062C40.5636,-127.4641 44.0911,-114.8583 47.5596,-102.4636"/>
<polygon fill="none" stroke="#404040" points="47.6141,-102.2685 45.379,-95.4125 50.848,-90.7124 53.0831,-97.5684 47.6141,-102.2685"/>
<text text-anchor="middle" x="58" y="-112" font-family="Helvetica,sans-Serif" font-size="10.00" fill="#000000"> &#45;nlp_</text>
</g>
<!-- Node3 -->
<g id="node3" class="node">
<title>Node3</title>
<polygon fill="none" stroke="#bfbfbf" points="77,-138.5 77,-195.5 118,-195.5 118,-138.5 77,-138.5"/>
<text text-anchor="middle" x="97.5" y="-183.5" font-family="Helvetica,sans-Serif" font-size="10.00" fill="#000000">string</text>
<polyline fill="none" stroke="#bfbfbf" points="77,-176.5 118,-176.5 "/>
<text text-anchor="middle" x="97.5" y="-164.5" font-family="Helvetica,sans-Serif" font-size="10.00" fill="#000000"> </text>
<polyline fill="none" stroke="#bfbfbf" points="77,-157.5 118,-157.5 "/>
<text text-anchor="middle" x="97.5" y="-145.5" font-family="Helvetica,sans-Serif" font-size="10.00" fill="#000000"> </text>
</g>
<!-- Node3&#45;&gt;Node1 -->
<g id="edge2" class="edge">
<title>Node3&#45;&gt;Node1</title>
<path fill="none" stroke="#404040" d="M89.4425,-138.2062C86.4364,-127.4641 82.9089,-114.8583 79.4404,-102.4636"/>
<polygon fill="none" stroke="#404040" points="79.3859,-102.2685 73.9169,-97.5684 76.152,-90.7124 81.621,-95.4125 79.3859,-102.2685"/>
<text text-anchor="middle" x="108" y="-112" font-family="Helvetica,sans-Serif" font-size="10.00" fill="#000000"> &#45;filename_</text>
</g>
</g>
</svg>
