<?xml version="1.0" encoding="UTF-8" standalone="no"?>
<!DOCTYPE svg PUBLIC "-//W3C//DTD SVG 1.1//EN"
 "http://www.w3.org/Graphics/SVG/1.1/DTD/svg11.dtd">
<!-- Generated by graphviz version 2.40.1 (20161225.0304)
 -->
<!-- Title: gambol::GaitGeneratorQuadruped Pages: 1 -->
<svg width="288pt" height="628pt"
 viewBox="0.00 0.00 288.00 628.00" xmlns="http://www.w3.org/2000/svg" xmlns:xlink="http://www.w3.org/1999/xlink">
<g id="graph0" class="graph" transform="scale(1 1) rotate(0) translate(4 624)">
<title>gambol::GaitGeneratorQuadruped</title>
<!-- Node2 -->
<g id="node1" class="node">
<title>Node2</title>
<polygon fill="#bfbfbf" stroke="#000000" points="93,-.5 93,-189.5 255,-189.5 255,-.5 93,-.5"/>
<text text-anchor="middle" x="174" y="-177.5" font-family="Helvetica,sans-Serif" font-size="10.00" fill="#000000">gambol::GaitGeneratorQuadruped</text>
<polyline fill="none" stroke="#000000" points="93,-170.5 255,-170.5 "/>
<text text-anchor="start" x="101" y="-158.5" font-family="Helvetica,sans-Serif" font-size="10.00" fill="#000000">&#45; II_</text>
<text text-anchor="start" x="101" y="-147.5" font-family="Helvetica,sans-Serif" font-size="10.00" fill="#000000">&#45; Pb_</text>
<text text-anchor="start" x="101" y="-136.5" font-family="Helvetica,sans-Serif" font-size="10.00" fill="#000000">&#45; PP_</text>
<text text-anchor="start" x="101" y="-125.5" font-family="Helvetica,sans-Serif" font-size="10.00" fill="#000000">&#45; bb_</text>
<text text-anchor="start" x="101" y="-114.5" font-family="Helvetica,sans-Serif" font-size="10.00" fill="#000000">&#45; bB_</text>
<text text-anchor="start" x="101" y="-103.5" font-family="Helvetica,sans-Serif" font-size="10.00" fill="#000000">&#45; BB_</text>
<polyline fill="none" stroke="#000000" points="93,-96.5 255,-96.5 "/>
<text text-anchor="start" x="101" y="-84.5" font-family="Helvetica,sans-Serif" font-size="10.00" fill="#000000">+ GaitGeneratorQuadruped()</text>
<text text-anchor="start" x="101" y="-73.5" font-family="Helvetica,sans-Serif" font-size="10.00" fill="#000000">+ ~GaitGeneratorQuadruped()</text>
<text text-anchor="start" x="101" y="-62.5" font-family="Helvetica,sans-Serif" font-size="10.00" fill="#000000">&#45; GetGait()</text>
<text text-anchor="start" x="101" y="-51.5" font-family="Helvetica,sans-Serif" font-size="10.00" fill="#000000">&#45; GetStrideStand()</text>
<text text-anchor="start" x="101" y="-40.5" font-family="Helvetica,sans-Serif" font-size="10.00" fill="#000000">&#45; GetStrideFlight()</text>
<text text-anchor="start" x="101" y="-29.5" font-family="Helvetica,sans-Serif" font-size="10.00" fill="#000000">&#45; GetStrideWalk()</text>
<text text-anchor="start" x="101" y="-18.5" font-family="Helvetica,sans-Serif" font-size="10.00" fill="#000000">&#45; GetStrideWalkOverlap()</text>
<text text-anchor="start" x="101" y="-7.5" font-family="Helvetica,sans-Serif" font-size="10.00" fill="#000000">and 11 more...</text>
</g>
<!-- Node3 -->
<g id="node2" class="node">
<title>Node3</title>
<g id="a_node2"><a xlink:href="classgambol_1_1GaitGenerator.html" target="_top" xlink:title="Generates endeffector phase durations for predefined gait styles. ">
<polygon fill="none" stroke="#000000" points="24,-347.5 24,-514.5 188,-514.5 188,-347.5 24,-347.5"/>
<text text-anchor="middle" x="106" y="-502.5" font-family="Helvetica,sans-Serif" font-size="10.00" fill="#000000">gambol::GaitGenerator</text>
<polyline fill="none" stroke="#000000" points="24,-495.5 188,-495.5 "/>
<text text-anchor="middle" x="106" y="-483.5" font-family="Helvetica,sans-Serif" font-size="10.00" fill="#000000"> </text>
<polyline fill="none" stroke="#000000" points="24,-476.5 188,-476.5 "/>
<text text-anchor="start" x="32" y="-464.5" font-family="Helvetica,sans-Serif" font-size="10.00" fill="#000000">+ GaitGenerator()</text>
<text text-anchor="start" x="32" y="-453.5" font-family="Helvetica,sans-Serif" font-size="10.00" fill="#000000">+ ~GaitGenerator()</text>
<text text-anchor="start" x="32" y="-442.5" font-family="Helvetica,sans-Serif" font-size="10.00" fill="#000000">+ GetPhaseDurations()</text>
<text text-anchor="start" x="32" y="-431.5" font-family="Helvetica,sans-Serif" font-size="10.00" fill="#000000">+ GetPhaseDurations()</text>
<text text-anchor="start" x="32" y="-420.5" font-family="Helvetica,sans-Serif" font-size="10.00" fill="#000000">+ IsInContactAtStart()</text>
<text text-anchor="start" x="32" y="-409.5" font-family="Helvetica,sans-Serif" font-size="10.00" fill="#000000">and 4 more...</text>
<text text-anchor="start" x="32" y="-398.5" font-family="Helvetica,sans-Serif" font-size="10.00" fill="#000000">+ MakeGaitGenerator()</text>
<text text-anchor="start" x="32" y="-387.5" font-family="Helvetica,sans-Serif" font-size="10.00" fill="#000000"># RemoveTransition()</text>
<text text-anchor="start" x="32" y="-376.5" font-family="Helvetica,sans-Serif" font-size="10.00" fill="#000000">&#45; GetPhaseDurations()</text>
<text text-anchor="start" x="32" y="-365.5" font-family="Helvetica,sans-Serif" font-size="10.00" fill="#000000">&#45; GetGait()</text>
<text text-anchor="start" x="32" y="-354.5" font-family="Helvetica,sans-Serif" font-size="10.00" fill="#000000">&#45; GetNormalizedPhaseDurations()</text>
</a>
</g>
</g>
<!-- Node3&#45;&gt;Node2 -->
<g id="edge1" class="edge">
<title>Node3&#45;&gt;Node2</title>
<path fill="none" stroke="#191970" d="M125.0017,-337.1092C134.3129,-291.101 145.501,-235.8188 154.8341,-189.7023"/>
<polygon fill="none" stroke="#191970" points="121.5371,-336.5842 122.9839,-347.0797 128.398,-337.9727 121.5371,-336.5842"/>
</g>
<!-- Node4 -->
<g id="node3" class="node">
<title>Node4</title>
<polygon fill="none" stroke="#bfbfbf" points="0,-562.5 0,-619.5 90,-619.5 90,-562.5 0,-562.5"/>
<text text-anchor="middle" x="45" y="-607.5" font-family="Helvetica,sans-Serif" font-size="10.00" fill="#000000">vector&lt; double &gt;</text>
<polyline fill="none" stroke="#bfbfbf" points="0,-600.5 90,-600.5 "/>
<text text-anchor="middle" x="45" y="-588.5" font-family="Helvetica,sans-Serif" font-size="10.00" fill="#000000"> </text>
<polyline fill="none" stroke="#bfbfbf" points="0,-581.5 90,-581.5 "/>
<text text-anchor="middle" x="45" y="-569.5" font-family="Helvetica,sans-Serif" font-size="10.00" fill="#000000"> </text>
</g>
<!-- Node4&#45;&gt;Node3 -->
<g id="edge2" class="edge">
<title>Node4&#45;&gt;Node3</title>
<path fill="none" stroke="#404040" d="M55.9056,-562.3952C59.9483,-551.7915 64.7874,-539.0986 69.8414,-525.8423"/>
<polygon fill="none" stroke="#404040" points="69.8496,-525.8207 68.2494,-518.7893 74.1245,-514.6079 75.7246,-521.6393 69.8496,-525.8207"/>
<text text-anchor="middle" x="86" y="-536" font-family="Helvetica,sans-Serif" font-size="10.00" fill="#000000"> #times_</text>
</g>
<!-- Node5 -->
<g id="node4" class="node">
<title>Node5</title>
<polygon fill="none" stroke="#bfbfbf" points="108.5,-562.5 108.5,-619.5 227.5,-619.5 227.5,-562.5 108.5,-562.5"/>
<text text-anchor="middle" x="168" y="-607.5" font-family="Helvetica,sans-Serif" font-size="10.00" fill="#000000">vector&lt; ContactState &gt;</text>
<polyline fill="none" stroke="#bfbfbf" points="108.5,-600.5 227.5,-600.5 "/>
<text text-anchor="middle" x="168" y="-588.5" font-family="Helvetica,sans-Serif" font-size="10.00" fill="#000000"> </text>
<polyline fill="none" stroke="#bfbfbf" points="108.5,-581.5 227.5,-581.5 "/>
<text text-anchor="middle" x="168" y="-569.5" font-family="Helvetica,sans-Serif" font-size="10.00" fill="#000000"> </text>
</g>
<!-- Node5&#45;&gt;Node3 -->
<g id="edge3" class="edge">
<title>Node5&#45;&gt;Node3</title>
<path fill="none" stroke="#404040" d="M156.9156,-562.3952C152.8067,-551.7915 147.8882,-539.0986 142.7514,-525.8423"/>
<polygon fill="none" stroke="#404040" points="142.734,-525.7972 136.8363,-521.6479 138.3981,-514.6079 144.2958,-518.7573 142.734,-525.7972"/>
<text text-anchor="middle" x="176" y="-536" font-family="Helvetica,sans-Serif" font-size="10.00" fill="#000000"> #contacts_</text>
</g>
<!-- Node6 -->
<g id="node5" class="node">
<title>Node6</title>
<polygon fill="none" stroke="#bfbfbf" points="206,-402.5 206,-459.5 280,-459.5 280,-402.5 206,-402.5"/>
<text text-anchor="middle" x="243" y="-447.5" font-family="Helvetica,sans-Serif" font-size="10.00" fill="#000000">ContactState</text>
<polyline fill="none" stroke="#bfbfbf" points="206,-440.5 280,-440.5 "/>
<text text-anchor="middle" x="243" y="-428.5" font-family="Helvetica,sans-Serif" font-size="10.00" fill="#000000"> </text>
<polyline fill="none" stroke="#bfbfbf" points="206,-421.5 280,-421.5 "/>
<text text-anchor="middle" x="243" y="-409.5" font-family="Helvetica,sans-Serif" font-size="10.00" fill="#000000"> </text>
</g>
<!-- Node6&#45;&gt;Node2 -->
<g id="edge4" class="edge">
<title>Node6&#45;&gt;Node2</title>
<path fill="none" stroke="#404040" d="M237.1171,-402.3528C228.075,-358.3217 210.2984,-271.7574 195.9088,-201.6864"/>
<polygon fill="none" stroke="#404040" points="195.8618,-201.457 190.7366,-196.3843 193.4478,-189.7023 198.573,-194.775 195.8618,-201.457"/>
<text text-anchor="middle" x="232" y="-321" font-family="Helvetica,sans-Serif" font-size="10.00" fill="#000000"> &#45;bP_</text>
<text text-anchor="middle" x="232" y="-310" font-family="Helvetica,sans-Serif" font-size="10.00" fill="#000000">&#45;Bb_</text>
<text text-anchor="middle" x="232" y="-299" font-family="Helvetica,sans-Serif" font-size="10.00" fill="#000000">&#45;BP_</text>
<text text-anchor="middle" x="232" y="-288" font-family="Helvetica,sans-Serif" font-size="10.00" fill="#000000">&#45;IB_</text>
<text text-anchor="middle" x="232" y="-277" font-family="Helvetica,sans-Serif" font-size="10.00" fill="#000000">&#45;PI_</text>
<text text-anchor="middle" x="232" y="-266" font-family="Helvetica,sans-Serif" font-size="10.00" fill="#000000">&#45;bI_</text>
<text text-anchor="middle" x="232" y="-255" font-family="Helvetica,sans-Serif" font-size="10.00" fill="#000000">&#45;Ib_</text>
<text text-anchor="middle" x="232" y="-244" font-family="Helvetica,sans-Serif" font-size="10.00" fill="#000000">&#45;BI_</text>
<text text-anchor="middle" x="232" y="-233" font-family="Helvetica,sans-Serif" font-size="10.00" fill="#000000">&#45;IP_</text>
<text text-anchor="middle" x="232" y="-222" font-family="Helvetica,sans-Serif" font-size="10.00" fill="#000000">&#45;PB_</text>
<text text-anchor="middle" x="232" y="-211" font-family="Helvetica,sans-Serif" font-size="10.00" fill="#000000">...</text>
</g>
</g>
</svg>
