<?xml version="1.0" encoding="UTF-8" standalone="no"?>
<!DOCTYPE svg PUBLIC "-//W3C//DTD SVG 1.1//EN"
 "http://www.w3.org/Graphics/SVG/1.1/DTD/svg11.dtd">
<!-- Generated by graphviz version 2.40.1 (20161225.0304)
 -->
<!-- Title: gambol::GaitGeneratorBipedFeet3D Pages: 1 -->
<svg width="172pt" height="529pt"
 viewBox="0.00 0.00 172.00 529.00" xmlns="http://www.w3.org/2000/svg" xmlns:xlink="http://www.w3.org/1999/xlink">
<g id="graph0" class="graph" transform="scale(1 1) rotate(0) translate(4 525)">
<title>gambol::GaitGeneratorBipedFeet3D</title>
<!-- Node0 -->
<g id="node1" class="node">
<title>Node0</title>
<polygon fill="#bfbfbf" stroke="#000000" points="4.5,-.5 4.5,-79.5 159.5,-79.5 159.5,-.5 4.5,-.5"/>
<text text-anchor="start" x="12.5" y="-67.5" font-family="Helvetica,sans-Serif" font-size="10.00" fill="#000000">gambol::GaitGeneratorBiped</text>
<text text-anchor="middle" x="82" y="-56.5" font-family="Helvetica,sans-Serif" font-size="10.00" fill="#000000">Feet3D</text>
<polyline fill="none" stroke="#000000" points="4.5,-49.5 159.5,-49.5 "/>
<text text-anchor="middle" x="82" y="-37.5" font-family="Helvetica,sans-Serif" font-size="10.00" fill="#000000"> </text>
<polyline fill="none" stroke="#000000" points="4.5,-30.5 159.5,-30.5 "/>
<text text-anchor="start" x="12.5" y="-18.5" font-family="Helvetica,sans-Serif" font-size="10.00" fill="#000000">+ GaitGeneratorBipedFeet3D()</text>
<text text-anchor="start" x="12.5" y="-7.5" font-family="Helvetica,sans-Serif" font-size="10.00" fill="#000000">+ ~GaitGeneratorBipedFeet3D()</text>
</g>
<!-- Node1 -->
<g id="node2" class="node">
<title>Node1</title>
<g id="a_node2"><a xlink:href="classgambol_1_1GaitGeneratorBipedFeet.html" target="_top" xlink:title="Produces the contact sequence for a variety of two&#45;legged gaits including heel and toe...">
<polygon fill="none" stroke="#000000" points="2.5,-116.5 2.5,-305.5 161.5,-305.5 161.5,-116.5 2.5,-116.5"/>
<text text-anchor="middle" x="82" y="-293.5" font-family="Helvetica,sans-Serif" font-size="10.00" fill="#000000">gambol::GaitGeneratorBipedFeet</text>
<polyline fill="none" stroke="#000000" points="2.5,-286.5 161.5,-286.5 "/>
<text text-anchor="start" x="10.5" y="-274.5" font-family="Helvetica,sans-Serif" font-size="10.00" fill="#000000"># II_</text>
<text text-anchor="start" x="10.5" y="-263.5" font-family="Helvetica,sans-Serif" font-size="10.00" fill="#000000"># PI_</text>
<text text-anchor="start" x="10.5" y="-252.5" font-family="Helvetica,sans-Serif" font-size="10.00" fill="#000000"># bI_</text>
<text text-anchor="start" x="10.5" y="-241.5" font-family="Helvetica,sans-Serif" font-size="10.00" fill="#000000"># IP_</text>
<text text-anchor="start" x="10.5" y="-230.5" font-family="Helvetica,sans-Serif" font-size="10.00" fill="#000000"># Ib_</text>
<text text-anchor="start" x="10.5" y="-219.5" font-family="Helvetica,sans-Serif" font-size="10.00" fill="#000000">and 11 more...</text>
<polyline fill="none" stroke="#000000" points="2.5,-212.5 161.5,-212.5 "/>
<text text-anchor="start" x="10.5" y="-200.5" font-family="Helvetica,sans-Serif" font-size="10.00" fill="#000000">+ GaitGeneratorBipedFeet()</text>
<text text-anchor="start" x="10.5" y="-189.5" font-family="Helvetica,sans-Serif" font-size="10.00" fill="#000000">+ ~GaitGeneratorBipedFeet()</text>
<text text-anchor="start" x="10.5" y="-178.5" font-family="Helvetica,sans-Serif" font-size="10.00" fill="#000000"># GetGait()</text>
<text text-anchor="start" x="10.5" y="-167.5" font-family="Helvetica,sans-Serif" font-size="10.00" fill="#000000"># GetStrideStand()</text>
<text text-anchor="start" x="10.5" y="-156.5" font-family="Helvetica,sans-Serif" font-size="10.00" fill="#000000"># GetStrideFlight()</text>
<text text-anchor="start" x="10.5" y="-145.5" font-family="Helvetica,sans-Serif" font-size="10.00" fill="#000000"># GetStrideWalk()</text>
<text text-anchor="start" x="10.5" y="-134.5" font-family="Helvetica,sans-Serif" font-size="10.00" fill="#000000"># GetStrideWalkBegin()</text>
<text text-anchor="start" x="10.5" y="-123.5" font-family="Helvetica,sans-Serif" font-size="10.00" fill="#000000">and 10 more...</text>
</a>
</g>
</g>
<!-- Node1&#45;&gt;Node0 -->
<g id="edge1" class="edge">
<title>Node1&#45;&gt;Node0</title>
<path fill="none" stroke="#191970" d="M82,-106.2385C82,-96.8809 82,-87.8479 82,-79.6203"/>
<polygon fill="none" stroke="#191970" points="78.5001,-106.4972 82,-116.4973 85.5001,-106.4973 78.5001,-106.4972"/>
</g>
<!-- Node2 -->
<g id="node3" class="node">
<title>Node2</title>
<g id="a_node3"><a xlink:href="classgambol_1_1GaitGenerator.html" target="_top" xlink:title="Generates endeffector phase durations for predefined gait styles. ">
<polygon fill="none" stroke="#000000" points="0,-342.5 0,-520.5 164,-520.5 164,-342.5 0,-342.5"/>
<text text-anchor="middle" x="82" y="-508.5" font-family="Helvetica,sans-Serif" font-size="10.00" fill="#000000">gambol::GaitGenerator</text>
<polyline fill="none" stroke="#000000" points="0,-501.5 164,-501.5 "/>
<text text-anchor="start" x="8" y="-489.5" font-family="Helvetica,sans-Serif" font-size="10.00" fill="#000000"># times_</text>
<text text-anchor="start" x="8" y="-478.5" font-family="Helvetica,sans-Serif" font-size="10.00" fill="#000000"># contacts_</text>
<polyline fill="none" stroke="#000000" points="0,-471.5 164,-471.5 "/>
<text text-anchor="start" x="8" y="-459.5" font-family="Helvetica,sans-Serif" font-size="10.00" fill="#000000">+ GaitGenerator()</text>
<text text-anchor="start" x="8" y="-448.5" font-family="Helvetica,sans-Serif" font-size="10.00" fill="#000000">+ ~GaitGenerator()</text>
<text text-anchor="start" x="8" y="-437.5" font-family="Helvetica,sans-Serif" font-size="10.00" fill="#000000">+ GetPhaseDurations()</text>
<text text-anchor="start" x="8" y="-426.5" font-family="Helvetica,sans-Serif" font-size="10.00" fill="#000000">+ GetPhaseDurations()</text>
<text text-anchor="start" x="8" y="-415.5" font-family="Helvetica,sans-Serif" font-size="10.00" fill="#000000">+ IsInContactAtStart()</text>
<text text-anchor="start" x="8" y="-404.5" font-family="Helvetica,sans-Serif" font-size="10.00" fill="#000000">and 4 more...</text>
<text text-anchor="start" x="8" y="-393.5" font-family="Helvetica,sans-Serif" font-size="10.00" fill="#000000">+ MakeGaitGenerator()</text>
<text text-anchor="start" x="8" y="-382.5" font-family="Helvetica,sans-Serif" font-size="10.00" fill="#000000"># RemoveTransition()</text>
<text text-anchor="start" x="8" y="-371.5" font-family="Helvetica,sans-Serif" font-size="10.00" fill="#000000">&#45; GetPhaseDurations()</text>
<text text-anchor="start" x="8" y="-360.5" font-family="Helvetica,sans-Serif" font-size="10.00" fill="#000000">&#45; GetGait()</text>
<text text-anchor="start" x="8" y="-349.5" font-family="Helvetica,sans-Serif" font-size="10.00" fill="#000000">&#45; GetNormalizedPhaseDurations()</text>
</a>
</g>
</g>
<!-- Node2&#45;&gt;Node1 -->
<g id="edge2" class="edge">
<title>Node2&#45;&gt;Node1</title>
<path fill="none" stroke="#191970" d="M82,-332.1939C82,-323.4093 82,-314.531 82,-305.7853"/>
<polygon fill="none" stroke="#191970" points="78.5001,-332.4498 82,-342.4498 85.5001,-332.4498 78.5001,-332.4498"/>
</g>
</g>
</svg>
