<?xml version="1.0" encoding="UTF-8" standalone="no"?>
<!DOCTYPE svg PUBLIC "-//W3C//DTD SVG 1.1//EN"
 "http://www.w3.org/Graphics/SVG/1.1/DTD/svg11.dtd">
<!-- Generated by graphviz version 2.40.1 (20161225.0304)
 -->
<!-- Title: gambol::NodeCost Pages: 1 -->
<svg width="177pt" height="375pt"
 viewBox="0.00 0.00 177.00 375.00" xmlns="http://www.w3.org/2000/svg" xmlns:xlink="http://www.w3.org/1999/xlink">
<g id="graph0" class="graph" transform="scale(1 1) rotate(0) translate(4 371)">
<title>gambol::NodeCost</title>
<!-- Node0 -->
<g id="node1" class="node">
<title>Node0</title>
<polygon fill="#bfbfbf" stroke="#000000" points="0,-127.5 0,-272.5 169,-272.5 169,-127.5 0,-127.5"/>
<text text-anchor="middle" x="84.5" y="-260.5" font-family="Helvetica,sans-Serif" font-size="10.00" fill="#000000">gambol::NodeCost</text>
<polyline fill="none" stroke="#000000" points="0,-253.5 169,-253.5 "/>
<text text-anchor="start" x="8" y="-241.5" font-family="Helvetica,sans-Serif" font-size="10.00" fill="#000000"># nodes_</text>
<text text-anchor="start" x="8" y="-230.5" font-family="Helvetica,sans-Serif" font-size="10.00" fill="#000000"># node_id_</text>
<text text-anchor="start" x="8" y="-219.5" font-family="Helvetica,sans-Serif" font-size="10.00" fill="#000000"># dim_</text>
<text text-anchor="start" x="8" y="-208.5" font-family="Helvetica,sans-Serif" font-size="10.00" fill="#000000"># weight_</text>
<text text-anchor="start" x="8" y="-197.5" font-family="Helvetica,sans-Serif" font-size="10.00" fill="#000000"># exp_</text>
<polyline fill="none" stroke="#000000" points="0,-190.5 169,-190.5 "/>
<text text-anchor="start" x="8" y="-178.5" font-family="Helvetica,sans-Serif" font-size="10.00" fill="#000000">+ NodeCost()</text>
<text text-anchor="start" x="8" y="-167.5" font-family="Helvetica,sans-Serif" font-size="10.00" fill="#000000">+ ~NodeCost()</text>
<text text-anchor="start" x="8" y="-156.5" font-family="Helvetica,sans-Serif" font-size="10.00" fill="#000000">+ InitVariableDependedQuantities()</text>
<text text-anchor="start" x="8" y="-145.5" font-family="Helvetica,sans-Serif" font-size="10.00" fill="#000000">+ GetCost()</text>
<text text-anchor="start" x="8" y="-134.5" font-family="Helvetica,sans-Serif" font-size="10.00" fill="#000000"># FillJacobianBlock()</text>
</g>
<!-- Node2 -->
<g id="node3" class="node">
<title>Node2</title>
<g id="a_node3"><a xlink:href="classgambol_1_1NodeDerivativeCost.html" target="_top" xlink:title="{gambol::NodeDerivativeCost\n||+ NodeDerivativeCost()\l+ ~NodeDerivativeCost()\l+ GetCost()\l+ FillJacobianBlock()\l}">
<polygon fill="none" stroke="#000000" points="13,-.5 13,-90.5 156,-90.5 156,-.5 13,-.5"/>
<text text-anchor="middle" x="84.5" y="-78.5" font-family="Helvetica,sans-Serif" font-size="10.00" fill="#000000">gambol::NodeDerivativeCost</text>
<polyline fill="none" stroke="#000000" points="13,-71.5 156,-71.5 "/>
<text text-anchor="middle" x="84.5" y="-59.5" font-family="Helvetica,sans-Serif" font-size="10.00" fill="#000000"> </text>
<polyline fill="none" stroke="#000000" points="13,-52.5 156,-52.5 "/>
<text text-anchor="start" x="21" y="-40.5" font-family="Helvetica,sans-Serif" font-size="10.00" fill="#000000">+ NodeDerivativeCost()</text>
<text text-anchor="start" x="21" y="-29.5" font-family="Helvetica,sans-Serif" font-size="10.00" fill="#000000">+ ~NodeDerivativeCost()</text>
<text text-anchor="start" x="21" y="-18.5" font-family="Helvetica,sans-Serif" font-size="10.00" fill="#000000">+ GetCost()</text>
<text text-anchor="start" x="21" y="-7.5" font-family="Helvetica,sans-Serif" font-size="10.00" fill="#000000">+ FillJacobianBlock()</text>
</a>
</g>
</g>
<!-- Node0&#45;&gt;Node2 -->
<g id="edge2" class="edge">
<title>Node0&#45;&gt;Node2</title>
<path fill="none" stroke="#191970" d="M84.5,-116.9929C84.5,-107.903 84.5,-98.9201 84.5,-90.5512"/>
<polygon fill="none" stroke="#191970" points="81.0001,-117.274 84.5,-127.2741 88.0001,-117.2741 81.0001,-117.274"/>
</g>
<!-- Node1 -->
<g id="node2" class="node">
<title>Node1</title>
<polygon fill="none" stroke="#bfbfbf" points="54.5,-309.5 54.5,-366.5 114.5,-366.5 114.5,-309.5 54.5,-309.5"/>
<text text-anchor="middle" x="84.5" y="-354.5" font-family="Helvetica,sans-Serif" font-size="10.00" fill="#000000">CostTerm</text>
<polyline fill="none" stroke="#bfbfbf" points="54.5,-347.5 114.5,-347.5 "/>
<text text-anchor="middle" x="84.5" y="-335.5" font-family="Helvetica,sans-Serif" font-size="10.00" fill="#000000"> </text>
<polyline fill="none" stroke="#bfbfbf" points="54.5,-328.5 114.5,-328.5 "/>
<text text-anchor="middle" x="84.5" y="-316.5" font-family="Helvetica,sans-Serif" font-size="10.00" fill="#000000"> </text>
</g>
<!-- Node1&#45;&gt;Node0 -->
<g id="edge1" class="edge">
<title>Node1&#45;&gt;Node0</title>
<path fill="none" stroke="#191970" d="M84.5,-299.2817C84.5,-290.9388 84.5,-281.8592 84.5,-272.6924"/>
<polygon fill="none" stroke="#191970" points="81.0001,-299.4063 84.5,-309.4063 88.0001,-299.4063 81.0001,-299.4063"/>
</g>
</g>
</svg>
