<?xml version="1.0" encoding="UTF-8" standalone="no"?>
<!DOCTYPE svg PUBLIC "-//W3C//DTD SVG 1.1//EN"
 "http://www.w3.org/Graphics/SVG/1.1/DTD/svg11.dtd">
<!-- Generated by graphviz version 2.40.1 (20161225.0304)
 -->
<!-- Title: gambol::ForceFlatConstraint Pages: 1 -->
<svg width="149pt" height="419pt"
 viewBox="0.00 0.00 149.00 419.00" xmlns="http://www.w3.org/2000/svg" xmlns:xlink="http://www.w3.org/1999/xlink">
<g id="graph0" class="graph" transform="scale(1 1) rotate(0) translate(4 415)">
<title>gambol::ForceFlatConstraint</title>
<!-- Node0 -->
<g id="node1" class="node">
<title>Node0</title>
<polygon fill="#bfbfbf" stroke="#000000" points="0,-.5 0,-134.5 141,-134.5 141,-.5 0,-.5"/>
<text text-anchor="middle" x="70.5" y="-122.5" font-family="Helvetica,sans-Serif" font-size="10.00" fill="#000000">gambol::ForceFlatConstraint</text>
<polyline fill="none" stroke="#000000" points="0,-115.5 141,-115.5 "/>
<text text-anchor="start" x="8" y="-103.5" font-family="Helvetica,sans-Serif" font-size="10.00" fill="#000000">&#45; ee_id_</text>
<text text-anchor="start" x="8" y="-92.5" font-family="Helvetica,sans-Serif" font-size="10.00" fill="#000000">&#45; max_normal_force_</text>
<text text-anchor="start" x="8" y="-81.5" font-family="Helvetica,sans-Serif" font-size="10.00" fill="#000000">&#45; mu_</text>
<polyline fill="none" stroke="#000000" points="0,-74.5 141,-74.5 "/>
<text text-anchor="start" x="8" y="-62.5" font-family="Helvetica,sans-Serif" font-size="10.00" fill="#000000">+ ForceFlatConstraint()</text>
<text text-anchor="start" x="8" y="-51.5" font-family="Helvetica,sans-Serif" font-size="10.00" fill="#000000">+ ~ForceFlatConstraint()</text>
<text text-anchor="start" x="8" y="-40.5" font-family="Helvetica,sans-Serif" font-size="10.00" fill="#000000">+ UpdateConstraintAtNode()</text>
<text text-anchor="start" x="8" y="-29.5" font-family="Helvetica,sans-Serif" font-size="10.00" fill="#000000">+ UpdateBoundsAtNode()</text>
<text text-anchor="start" x="8" y="-18.5" font-family="Helvetica,sans-Serif" font-size="10.00" fill="#000000">+ UpdateJacobianAtNode()</text>
<text text-anchor="start" x="8" y="-7.5" font-family="Helvetica,sans-Serif" font-size="10.00" fill="#000000">&#45; GetRow()</text>
</g>
<!-- Node1 -->
<g id="node2" class="node">
<title>Node1</title>
<g id="a_node2"><a xlink:href="classgambol_1_1NodesConstraint.html" target="_top" xlink:title="{gambol::NodesConstraint\n|# nodes_holder_\l|+ GetValues()\l+ GetBounds()\l+ FillJacobianBlock()\l# NodesConstraint()\l# ~NodesConstraint()\l# GetNumberOfNodes()\l&#45; UpdateConstraintAtNode()\l&#45; UpdateBoundsAtNode()\l&#45; UpdateJacobianAtNode()\l}">
<polygon fill="none" stroke="#000000" points="1.5,-171.5 1.5,-316.5 139.5,-316.5 139.5,-171.5 1.5,-171.5"/>
<text text-anchor="middle" x="70.5" y="-304.5" font-family="Helvetica,sans-Serif" font-size="10.00" fill="#000000">gambol::NodesConstraint</text>
<polyline fill="none" stroke="#000000" points="1.5,-297.5 139.5,-297.5 "/>
<text text-anchor="start" x="9.5" y="-285.5" font-family="Helvetica,sans-Serif" font-size="10.00" fill="#000000"># nodes_holder_</text>
<polyline fill="none" stroke="#000000" points="1.5,-278.5 139.5,-278.5 "/>
<text text-anchor="start" x="9.5" y="-266.5" font-family="Helvetica,sans-Serif" font-size="10.00" fill="#000000">+ GetValues()</text>
<text text-anchor="start" x="9.5" y="-255.5" font-family="Helvetica,sans-Serif" font-size="10.00" fill="#000000">+ GetBounds()</text>
<text text-anchor="start" x="9.5" y="-244.5" font-family="Helvetica,sans-Serif" font-size="10.00" fill="#000000">+ FillJacobianBlock()</text>
<text text-anchor="start" x="9.5" y="-233.5" font-family="Helvetica,sans-Serif" font-size="10.00" fill="#000000"># NodesConstraint()</text>
<text text-anchor="start" x="9.5" y="-222.5" font-family="Helvetica,sans-Serif" font-size="10.00" fill="#000000"># ~NodesConstraint()</text>
<text text-anchor="start" x="9.5" y="-211.5" font-family="Helvetica,sans-Serif" font-size="10.00" fill="#000000"># GetNumberOfNodes()</text>
<text text-anchor="start" x="9.5" y="-200.5" font-family="Helvetica,sans-Serif" font-size="10.00" fill="#000000">&#45; UpdateConstraintAtNode()</text>
<text text-anchor="start" x="9.5" y="-189.5" font-family="Helvetica,sans-Serif" font-size="10.00" fill="#000000">&#45; UpdateBoundsAtNode()</text>
<text text-anchor="start" x="9.5" y="-178.5" font-family="Helvetica,sans-Serif" font-size="10.00" fill="#000000">&#45; UpdateJacobianAtNode()</text>
</a>
</g>
</g>
<!-- Node1&#45;&gt;Node0 -->
<g id="edge1" class="edge">
<title>Node1&#45;&gt;Node0</title>
<path fill="none" stroke="#191970" d="M70.5,-161.3906C70.5,-152.4372 70.5,-143.4059 70.5,-134.6676"/>
<polygon fill="none" stroke="#191970" points="67.0001,-161.4466 70.5,-171.4466 74.0001,-161.4467 67.0001,-161.4466"/>
</g>
<!-- Node2 -->
<g id="node3" class="node">
<title>Node2</title>
<polygon fill="none" stroke="#bfbfbf" points="32,-353.5 32,-410.5 109,-410.5 109,-353.5 32,-353.5"/>
<text text-anchor="middle" x="70.5" y="-398.5" font-family="Helvetica,sans-Serif" font-size="10.00" fill="#000000">ConstraintSet</text>
<polyline fill="none" stroke="#bfbfbf" points="32,-391.5 109,-391.5 "/>
<text text-anchor="middle" x="70.5" y="-379.5" font-family="Helvetica,sans-Serif" font-size="10.00" fill="#000000"> </text>
<polyline fill="none" stroke="#bfbfbf" points="32,-372.5 109,-372.5 "/>
<text text-anchor="middle" x="70.5" y="-360.5" font-family="Helvetica,sans-Serif" font-size="10.00" fill="#000000"> </text>
</g>
<!-- Node2&#45;&gt;Node1 -->
<g id="edge2" class="edge">
<title>Node2&#45;&gt;Node1</title>
<path fill="none" stroke="#191970" d="M70.5,-343.2817C70.5,-334.9388 70.5,-325.8592 70.5,-316.6924"/>
<polygon fill="none" stroke="#191970" points="67.0001,-343.4063 70.5,-353.4063 74.0001,-343.4063 67.0001,-343.4063"/>
</g>
</g>
</svg>
