<?xml version="1.0" encoding="UTF-8" standalone="no"?>
<!DOCTYPE svg PUBLIC "-//W3C//DTD SVG 1.1//EN"
 "http://www.w3.org/Graphics/SVG/1.1/DTD/svg11.dtd">
<!-- Generated by graphviz version 2.40.1 (20161225.0304)
 -->
<!-- Title: gambol::TerrainConstraint Pages: 1 -->
<svg width="702pt" height="601pt"
 viewBox="0.00 0.00 701.50 601.00" xmlns="http://www.w3.org/2000/svg" xmlns:xlink="http://www.w3.org/1999/xlink">
<g id="graph0" class="graph" transform="scale(1 1) rotate(0) translate(4 597)">
<title>gambol::TerrainConstraint</title>
<!-- Node3 -->
<g id="node1" class="node">
<title>Node3</title>
<polygon fill="#bfbfbf" stroke="#000000" points="434,-.5 434,-123.5 575,-123.5 575,-.5 434,-.5"/>
<text text-anchor="middle" x="504.5" y="-111.5" font-family="Helvetica,sans-Serif" font-size="10.00" fill="#000000">gambol::TerrainConstraint</text>
<polyline fill="none" stroke="#000000" points="434,-104.5 575,-104.5 "/>
<text text-anchor="middle" x="504.5" y="-92.5" font-family="Helvetica,sans-Serif" font-size="10.00" fill="#000000"> </text>
<polyline fill="none" stroke="#000000" points="434,-85.5 575,-85.5 "/>
<text text-anchor="start" x="442" y="-73.5" font-family="Helvetica,sans-Serif" font-size="10.00" fill="#000000">+ TerrainConstraint()</text>
<text text-anchor="start" x="442" y="-62.5" font-family="Helvetica,sans-Serif" font-size="10.00" fill="#000000">+ ~TerrainConstraint()</text>
<text text-anchor="start" x="442" y="-51.5" font-family="Helvetica,sans-Serif" font-size="10.00" fill="#000000">+ Update()</text>
<text text-anchor="start" x="442" y="-40.5" font-family="Helvetica,sans-Serif" font-size="10.00" fill="#000000">+ UpdateConstraintAtNode()</text>
<text text-anchor="start" x="442" y="-29.5" font-family="Helvetica,sans-Serif" font-size="10.00" fill="#000000">+ UpdateBoundsAtNode()</text>
<text text-anchor="start" x="442" y="-18.5" font-family="Helvetica,sans-Serif" font-size="10.00" fill="#000000">+ UpdateJacobianAtNode()</text>
<text text-anchor="start" x="442" y="-7.5" font-family="Helvetica,sans-Serif" font-size="10.00" fill="#000000">&#45; GetRow()</text>
</g>
<!-- Node4 -->
<g id="node2" class="node">
<title>Node4</title>
<g id="a_node2"><a xlink:href="classgambol_1_1NodesConstraint.html" target="_top" xlink:title="{gambol::NodesConstraint\n||+ GetValues()\l+ GetBounds()\l+ FillJacobianBlock()\l# NodesConstraint()\l# ~NodesConstraint()\l# GetNumberOfNodes()\l&#45; UpdateConstraintAtNode()\l&#45; UpdateBoundsAtNode()\l&#45; UpdateJacobianAtNode()\l}">
<polygon fill="none" stroke="#000000" points="135.5,-182.5 135.5,-327.5 273.5,-327.5 273.5,-182.5 135.5,-182.5"/>
<text text-anchor="middle" x="204.5" y="-315.5" font-family="Helvetica,sans-Serif" font-size="10.00" fill="#000000">gambol::NodesConstraint</text>
<polyline fill="none" stroke="#000000" points="135.5,-308.5 273.5,-308.5 "/>
<text text-anchor="middle" x="204.5" y="-296.5" font-family="Helvetica,sans-Serif" font-size="10.00" fill="#000000"> </text>
<polyline fill="none" stroke="#000000" points="135.5,-289.5 273.5,-289.5 "/>
<text text-anchor="start" x="143.5" y="-277.5" font-family="Helvetica,sans-Serif" font-size="10.00" fill="#000000">+ GetValues()</text>
<text text-anchor="start" x="143.5" y="-266.5" font-family="Helvetica,sans-Serif" font-size="10.00" fill="#000000">+ GetBounds()</text>
<text text-anchor="start" x="143.5" y="-255.5" font-family="Helvetica,sans-Serif" font-size="10.00" fill="#000000">+ FillJacobianBlock()</text>
<text text-anchor="start" x="143.5" y="-244.5" font-family="Helvetica,sans-Serif" font-size="10.00" fill="#000000"># NodesConstraint()</text>
<text text-anchor="start" x="143.5" y="-233.5" font-family="Helvetica,sans-Serif" font-size="10.00" fill="#000000"># ~NodesConstraint()</text>
<text text-anchor="start" x="143.5" y="-222.5" font-family="Helvetica,sans-Serif" font-size="10.00" fill="#000000"># GetNumberOfNodes()</text>
<text text-anchor="start" x="143.5" y="-211.5" font-family="Helvetica,sans-Serif" font-size="10.00" fill="#000000">&#45; UpdateConstraintAtNode()</text>
<text text-anchor="start" x="143.5" y="-200.5" font-family="Helvetica,sans-Serif" font-size="10.00" fill="#000000">&#45; UpdateBoundsAtNode()</text>
<text text-anchor="start" x="143.5" y="-189.5" font-family="Helvetica,sans-Serif" font-size="10.00" fill="#000000">&#45; UpdateJacobianAtNode()</text>
</a>
</g>
</g>
<!-- Node4&#45;&gt;Node3 -->
<g id="edge1" class="edge">
<title>Node4&#45;&gt;Node3</title>
<path fill="none" stroke="#191970" d="M281.9637,-182.3871C282.1425,-182.2577 282.3212,-182.1287 282.5,-182 330.147,-147.7013 388.7386,-116.4306 433.7625,-94.4154"/>
<polygon fill="none" stroke="#191970" points="279.8063,-179.6303 273.9211,-188.4402 284.0157,-185.2232 279.8063,-179.6303"/>
</g>
<!-- Node5 -->
<g id="node3" class="node">
<title>Node5</title>
<polygon fill="none" stroke="#bfbfbf" points="150,-386.5 150,-443.5 227,-443.5 227,-386.5 150,-386.5"/>
<text text-anchor="middle" x="188.5" y="-431.5" font-family="Helvetica,sans-Serif" font-size="10.00" fill="#000000">ConstraintSet</text>
<polyline fill="none" stroke="#bfbfbf" points="150,-424.5 227,-424.5 "/>
<text text-anchor="middle" x="188.5" y="-412.5" font-family="Helvetica,sans-Serif" font-size="10.00" fill="#000000"> </text>
<polyline fill="none" stroke="#bfbfbf" points="150,-405.5 227,-405.5 "/>
<text text-anchor="middle" x="188.5" y="-393.5" font-family="Helvetica,sans-Serif" font-size="10.00" fill="#000000"> </text>
</g>
<!-- Node5&#45;&gt;Node4 -->
<g id="edge2" class="edge">
<title>Node5&#45;&gt;Node4</title>
<path fill="none" stroke="#191970" d="M192.3776,-376.2241C193.8418,-361.5823 195.5594,-344.4055 197.2339,-327.6612"/>
<polygon fill="none" stroke="#191970" points="188.873,-376.0965 191.3605,-386.3952 195.8382,-376.7931 188.873,-376.0965"/>
</g>
<!-- Node6 -->
<g id="node4" class="node">
<title>Node6</title>
<g id="a_node4"><a xlink:href="structgambol_1_1NodesHolder.html" target="_top" xlink:title="{gambol::NodesHolder\n||+ NodesHolder()\l+ NodesHolder()\l+ ~NodesHolder()\l}">
<polygon fill="none" stroke="#000000" points="245,-375.5 245,-454.5 356,-454.5 356,-375.5 245,-375.5"/>
<text text-anchor="middle" x="300.5" y="-442.5" font-family="Helvetica,sans-Serif" font-size="10.00" fill="#000000">gambol::NodesHolder</text>
<polyline fill="none" stroke="#000000" points="245,-435.5 356,-435.5 "/>
<text text-anchor="middle" x="300.5" y="-423.5" font-family="Helvetica,sans-Serif" font-size="10.00" fill="#000000"> </text>
<polyline fill="none" stroke="#000000" points="245,-416.5 356,-416.5 "/>
<text text-anchor="start" x="253" y="-404.5" font-family="Helvetica,sans-Serif" font-size="10.00" fill="#000000">+ NodesHolder()</text>
<text text-anchor="start" x="253" y="-393.5" font-family="Helvetica,sans-Serif" font-size="10.00" fill="#000000">+ NodesHolder()</text>
<text text-anchor="start" x="253" y="-382.5" font-family="Helvetica,sans-Serif" font-size="10.00" fill="#000000">+ ~NodesHolder()</text>
</a>
</g>
</g>
<!-- Node6&#45;&gt;Node4 -->
<g id="edge3" class="edge">
<title>Node6&#45;&gt;Node4</title>
<path fill="none" stroke="#404040" d="M276.7697,-375.4494C269.935,-364.0583 262.2094,-351.1824 254.4164,-338.194"/>
<polygon fill="none" stroke="#404040" points="254.3418,-338.0697 247.8249,-334.9827 248.1678,-327.7797 254.6848,-330.8667 254.3418,-338.0697"/>
<text text-anchor="middle" x="300.5" y="-349" font-family="Helvetica,sans-Serif" font-size="10.00" fill="#000000"> #nodes_holder_</text>
</g>
<!-- Node7 -->
<g id="node5" class="node">
<title>Node7</title>
<polygon fill="none" stroke="#bfbfbf" points="0,-530 0,-587 131,-587 131,-530 0,-530"/>
<text text-anchor="middle" x="65.5" y="-575" font-family="Helvetica,sans-Serif" font-size="10.00" fill="#000000">shared_ptr&lt; NodeTimes &gt;</text>
<polyline fill="none" stroke="#bfbfbf" points="0,-568 131,-568 "/>
<text text-anchor="middle" x="65.5" y="-556" font-family="Helvetica,sans-Serif" font-size="10.00" fill="#000000"> </text>
<polyline fill="none" stroke="#bfbfbf" points="0,-549 131,-549 "/>
<text text-anchor="middle" x="65.5" y="-537" font-family="Helvetica,sans-Serif" font-size="10.00" fill="#000000"> </text>
</g>
<!-- Node7&#45;&gt;Node6 -->
<g id="edge4" class="edge">
<title>Node7&#45;&gt;Node6</title>
<path fill="none" stroke="#404040" d="M99.7202,-529.9059C122.6282,-511.8019 154.0562,-488.8943 184.5,-473 203.0611,-463.3095 211.525,-464.7023 233.9519,-455.2376"/>
<polygon fill="none" stroke="#404040" points="233.9822,-455.2238 237.7854,-449.0971 244.9035,-450.2514 241.1004,-456.378 233.9822,-455.2238"/>
<text text-anchor="middle" x="217" y="-487" font-family="Helvetica,sans-Serif" font-size="10.00" fill="#000000"> +node_times_</text>
</g>
<!-- Node8 -->
<g id="node6" class="node">
<title>Node8</title>
<polygon fill="none" stroke="#bfbfbf" points="149,-530 149,-587 298,-587 298,-530 149,-530"/>
<text text-anchor="middle" x="223.5" y="-575" font-family="Helvetica,sans-Serif" font-size="10.00" fill="#000000">shared_ptr&lt; NodesVariables &gt;</text>
<polyline fill="none" stroke="#bfbfbf" points="149,-568 298,-568 "/>
<text text-anchor="middle" x="223.5" y="-556" font-family="Helvetica,sans-Serif" font-size="10.00" fill="#000000"> </text>
<polyline fill="none" stroke="#bfbfbf" points="149,-549 298,-549 "/>
<text text-anchor="middle" x="223.5" y="-537" font-family="Helvetica,sans-Serif" font-size="10.00" fill="#000000"> </text>
</g>
<!-- Node8&#45;&gt;Node6 -->
<g id="edge5" class="edge">
<title>Node8&#45;&gt;Node6</title>
<path fill="none" stroke="#404040" d="M238.897,-529.8055C248.8088,-511.3336 261.9625,-486.8199 273.5695,-465.1886"/>
<polygon fill="none" stroke="#404040" points="273.6232,-465.0886 272.9355,-457.9103 279.297,-454.5146 279.9847,-461.6929 273.6232,-465.0886"/>
<text text-anchor="middle" x="295" y="-498" font-family="Helvetica,sans-Serif" font-size="10.00" fill="#000000"> +torques_</text>
<text text-anchor="middle" x="295" y="-487" font-family="Helvetica,sans-Serif" font-size="10.00" fill="#000000">+joint_vel_</text>
<text text-anchor="middle" x="295" y="-476" font-family="Helvetica,sans-Serif" font-size="10.00" fill="#000000">+joint_pos_</text>
</g>
<!-- Node9 -->
<g id="node7" class="node">
<title>Node9</title>
<polygon fill="none" stroke="#bfbfbf" points="316.5,-524.5 316.5,-592.5 438.5,-592.5 438.5,-524.5 316.5,-524.5"/>
<text text-anchor="start" x="324.5" y="-580.5" font-family="Helvetica,sans-Serif" font-size="10.00" fill="#000000">vector&lt; NodesVariables</text>
<text text-anchor="middle" x="377.5" y="-569.5" font-family="Helvetica,sans-Serif" font-size="10.00" fill="#000000">::Ptr &gt;</text>
<polyline fill="none" stroke="#bfbfbf" points="316.5,-562.5 438.5,-562.5 "/>
<text text-anchor="middle" x="377.5" y="-550.5" font-family="Helvetica,sans-Serif" font-size="10.00" fill="#000000"> </text>
<polyline fill="none" stroke="#bfbfbf" points="316.5,-543.5 438.5,-543.5 "/>
<text text-anchor="middle" x="377.5" y="-531.5" font-family="Helvetica,sans-Serif" font-size="10.00" fill="#000000"> </text>
</g>
<!-- Node9&#45;&gt;Node6 -->
<g id="edge6" class="edge">
<title>Node9&#45;&gt;Node6</title>
<path fill="none" stroke="#404040" d="M359.2521,-524.4925C349.7586,-506.8001 337.9684,-484.8274 327.4469,-465.2192"/>
<polygon fill="none" stroke="#404040" points="327.4286,-465.1851 321.0671,-461.7894 321.7548,-454.6112 328.1164,-458.0069 327.4286,-465.1851"/>
<text text-anchor="middle" x="377.5" y="-487" font-family="Helvetica,sans-Serif" font-size="10.00" fill="#000000"> +ee_forces_</text>
</g>
<!-- Node10 -->
<g id="node8" class="node">
<title>Node10</title>
<polygon fill="none" stroke="#bfbfbf" points="456.5,-524.5 456.5,-592.5 578.5,-592.5 578.5,-524.5 456.5,-524.5"/>
<text text-anchor="start" x="464.5" y="-580.5" font-family="Helvetica,sans-Serif" font-size="10.00" fill="#000000">vector&lt; PhaseDurations</text>
<text text-anchor="middle" x="517.5" y="-569.5" font-family="Helvetica,sans-Serif" font-size="10.00" fill="#000000">::Ptr &gt;</text>
<polyline fill="none" stroke="#bfbfbf" points="456.5,-562.5 578.5,-562.5 "/>
<text text-anchor="middle" x="517.5" y="-550.5" font-family="Helvetica,sans-Serif" font-size="10.00" fill="#000000"> </text>
<polyline fill="none" stroke="#bfbfbf" points="456.5,-543.5 578.5,-543.5 "/>
<text text-anchor="middle" x="517.5" y="-531.5" font-family="Helvetica,sans-Serif" font-size="10.00" fill="#000000"> </text>
</g>
<!-- Node10&#45;&gt;Node6 -->
<g id="edge7" class="edge">
<title>Node10&#45;&gt;Node6</title>
<path fill="none" stroke="#404040" d="M478.2076,-524.1492C458.5422,-507.7361 433.9747,-488.3698 410.5,-473 396.8983,-464.0945 381.7805,-455.4095 367.2155,-447.5859"/>
<polygon fill="none" stroke="#404040" points="366.8318,-447.3835 359.6584,-448.12 356.2195,-441.7817 363.3929,-441.0452 366.8318,-447.3835"/>
<text text-anchor="middle" x="495.5" y="-487" font-family="Helvetica,sans-Serif" font-size="10.00" fill="#000000"> +phase_durations_</text>
</g>
<!-- Node11 -->
<g id="node9" class="node">
<title>Node11</title>
<polygon fill="none" stroke="#bfbfbf" points="291.5,-226.5 291.5,-283.5 419.5,-283.5 419.5,-226.5 291.5,-226.5"/>
<text text-anchor="middle" x="355.5" y="-271.5" font-family="Helvetica,sans-Serif" font-size="10.00" fill="#000000">shared_ptr&lt; HeightMap &gt;</text>
<polyline fill="none" stroke="#bfbfbf" points="291.5,-264.5 419.5,-264.5 "/>
<text text-anchor="middle" x="355.5" y="-252.5" font-family="Helvetica,sans-Serif" font-size="10.00" fill="#000000"> </text>
<polyline fill="none" stroke="#bfbfbf" points="291.5,-245.5 419.5,-245.5 "/>
<text text-anchor="middle" x="355.5" y="-233.5" font-family="Helvetica,sans-Serif" font-size="10.00" fill="#000000"> </text>
</g>
<!-- Node11&#45;&gt;Node3 -->
<g id="edge8" class="edge">
<title>Node11&#45;&gt;Node3</title>
<path fill="none" stroke="#404040" d="M377.8068,-226.1059C396.6414,-201.7095 424.4201,-165.7277 449.1701,-133.6689"/>
<polygon fill="none" stroke="#404040" points="449.4075,-133.3615 449.9078,-126.1677 456.7407,-123.8628 456.2403,-131.0565 449.4075,-133.3615"/>
<text text-anchor="middle" x="458" y="-150.5" font-family="Helvetica,sans-Serif" font-size="10.00" fill="#000000"> &#45;terrain_</text>
</g>
<!-- Node12 -->
<g id="node10" class="node">
<title>Node12</title>
<polygon fill="none" stroke="#bfbfbf" points="438,-226.5 438,-283.5 571,-283.5 571,-226.5 438,-226.5"/>
<text text-anchor="middle" x="504.5" y="-271.5" font-family="Helvetica,sans-Serif" font-size="10.00" fill="#000000">shared_ptr&lt; RobotModel &gt;</text>
<polyline fill="none" stroke="#bfbfbf" points="438,-264.5 571,-264.5 "/>
<text text-anchor="middle" x="504.5" y="-252.5" font-family="Helvetica,sans-Serif" font-size="10.00" fill="#000000"> </text>
<polyline fill="none" stroke="#bfbfbf" points="438,-245.5 571,-245.5 "/>
<text text-anchor="middle" x="504.5" y="-233.5" font-family="Helvetica,sans-Serif" font-size="10.00" fill="#000000"> </text>
</g>
<!-- Node12&#45;&gt;Node3 -->
<g id="edge9" class="edge">
<title>Node12&#45;&gt;Node3</title>
<path fill="none" stroke="#404040" d="M504.5,-226.1059C504.5,-202.3404 504.5,-167.5811 504.5,-136.1638"/>
<polygon fill="none" stroke="#404040" points="504.5001,-135.8628 500.5,-129.8628 504.5,-123.8628 508.5,-129.8627 504.5001,-135.8628"/>
<text text-anchor="middle" x="534" y="-156" font-family="Helvetica,sans-Serif" font-size="10.00" fill="#000000"> &#45;model_</text>
<text text-anchor="middle" x="534" y="-145" font-family="Helvetica,sans-Serif" font-size="10.00" fill="#000000">&#45;model_km1_</text>
</g>
<!-- Node13 -->
<g id="node11" class="node">
<title>Node13</title>
<polygon fill="none" stroke="#bfbfbf" points="589,-226.5 589,-283.5 624,-283.5 624,-226.5 589,-226.5"/>
<text text-anchor="middle" x="606.5" y="-271.5" font-family="Helvetica,sans-Serif" font-size="10.00" fill="#000000">bool</text>
<polyline fill="none" stroke="#bfbfbf" points="589,-264.5 624,-264.5 "/>
<text text-anchor="middle" x="606.5" y="-252.5" font-family="Helvetica,sans-Serif" font-size="10.00" fill="#000000"> </text>
<polyline fill="none" stroke="#bfbfbf" points="589,-245.5 624,-245.5 "/>
<text text-anchor="middle" x="606.5" y="-233.5" font-family="Helvetica,sans-Serif" font-size="10.00" fill="#000000"> </text>
</g>
<!-- Node13&#45;&gt;Node3 -->
<g id="edge10" class="edge">
<title>Node13&#45;&gt;Node3</title>
<path fill="none" stroke="#404040" d="M599.3914,-226.0291C592.953,-202.515 582.2177,-168.9596 567.5,-142 566.0547,-139.3524 564.5221,-136.7024 562.9204,-134.062"/>
<polygon fill="none" stroke="#404040" points="562.9147,-134.0531 556.3089,-131.161 556.4378,-123.9511 563.0436,-126.8431 562.9147,-134.0531"/>
<text text-anchor="middle" x="605.5" y="-150.5" font-family="Helvetica,sans-Serif" font-size="10.00" fill="#000000"> &#45;skip_initial_</text>
</g>
<!-- Node14 -->
<g id="node12" class="node">
<title>Node14</title>
<polygon fill="none" stroke="#bfbfbf" points="661.5,-226.5 661.5,-283.5 693.5,-283.5 693.5,-226.5 661.5,-226.5"/>
<text text-anchor="middle" x="677.5" y="-271.5" font-family="Helvetica,sans-Serif" font-size="10.00" fill="#000000">uint</text>
<polyline fill="none" stroke="#bfbfbf" points="661.5,-264.5 693.5,-264.5 "/>
<text text-anchor="middle" x="677.5" y="-252.5" font-family="Helvetica,sans-Serif" font-size="10.00" fill="#000000"> </text>
<polyline fill="none" stroke="#bfbfbf" points="661.5,-245.5 693.5,-245.5 "/>
<text text-anchor="middle" x="677.5" y="-233.5" font-family="Helvetica,sans-Serif" font-size="10.00" fill="#000000"> </text>
</g>
<!-- Node14&#45;&gt;Node3 -->
<g id="edge11" class="edge">
<title>Node14&#45;&gt;Node3</title>
<path fill="none" stroke="#404040" d="M673.2708,-226.325C668.4143,-201.7271 658.3957,-166.4802 638.5,-142 624.2322,-124.4445 605.0172,-109.8305 585.5998,-98.1068"/>
<polygon fill="none" stroke="#404040" points="585.5302,-98.0666 578.3339,-98.53 575.1385,-92.0655 582.3347,-91.6022 585.5302,-98.0666"/>
<text text-anchor="middle" x="670" y="-150.5" font-family="Helvetica,sans-Serif" font-size="10.00" fill="#000000"> &#45;ee_id_</text>
</g>
</g>
</svg>
