<?xml version="1.0" encoding="UTF-8" standalone="no"?>
<!DOCTYPE svg PUBLIC "-//W3C//DTD SVG 1.1//EN"
 "http://www.w3.org/Graphics/SVG/1.1/DTD/svg11.dtd">
<!-- Generated by graphviz version 2.40.1 (20161225.0304)
 -->
<!-- Title: gambol::TerrainConstraint Pages: 1 -->
<svg width="149pt" height="452pt"
 viewBox="0.00 0.00 149.00 452.00" xmlns="http://www.w3.org/2000/svg" xmlns:xlink="http://www.w3.org/1999/xlink">
<g id="graph0" class="graph" transform="scale(1 1) rotate(0) translate(4 448)">
<title>gambol::TerrainConstraint</title>
<!-- Node0 -->
<g id="node1" class="node">
<title>Node0</title>
<polygon fill="#bfbfbf" stroke="#000000" points="0,-.5 0,-167.5 141,-167.5 141,-.5 0,-.5"/>
<text text-anchor="middle" x="70.5" y="-155.5" font-family="Helvetica,sans-Serif" font-size="10.00" fill="#000000">gambol::TerrainConstraint</text>
<polyline fill="none" stroke="#000000" points="0,-148.5 141,-148.5 "/>
<text text-anchor="start" x="8" y="-136.5" font-family="Helvetica,sans-Serif" font-size="10.00" fill="#000000">&#45; ee_id_</text>
<text text-anchor="start" x="8" y="-125.5" font-family="Helvetica,sans-Serif" font-size="10.00" fill="#000000">&#45; skip_initial_</text>
<text text-anchor="start" x="8" y="-114.5" font-family="Helvetica,sans-Serif" font-size="10.00" fill="#000000">&#45; terrain_</text>
<text text-anchor="start" x="8" y="-103.5" font-family="Helvetica,sans-Serif" font-size="10.00" fill="#000000">&#45; model_</text>
<text text-anchor="start" x="8" y="-92.5" font-family="Helvetica,sans-Serif" font-size="10.00" fill="#000000">&#45; model_km1_</text>
<polyline fill="none" stroke="#000000" points="0,-85.5 141,-85.5 "/>
<text text-anchor="start" x="8" y="-73.5" font-family="Helvetica,sans-Serif" font-size="10.00" fill="#000000">+ TerrainConstraint()</text>
<text text-anchor="start" x="8" y="-62.5" font-family="Helvetica,sans-Serif" font-size="10.00" fill="#000000">+ ~TerrainConstraint()</text>
<text text-anchor="start" x="8" y="-51.5" font-family="Helvetica,sans-Serif" font-size="10.00" fill="#000000">+ Update()</text>
<text text-anchor="start" x="8" y="-40.5" font-family="Helvetica,sans-Serif" font-size="10.00" fill="#000000">+ UpdateConstraintAtNode()</text>
<text text-anchor="start" x="8" y="-29.5" font-family="Helvetica,sans-Serif" font-size="10.00" fill="#000000">+ UpdateBoundsAtNode()</text>
<text text-anchor="start" x="8" y="-18.5" font-family="Helvetica,sans-Serif" font-size="10.00" fill="#000000">+ UpdateJacobianAtNode()</text>
<text text-anchor="start" x="8" y="-7.5" font-family="Helvetica,sans-Serif" font-size="10.00" fill="#000000">&#45; GetRow()</text>
</g>
<!-- Node1 -->
<g id="node2" class="node">
<title>Node1</title>
<g id="a_node2"><a xlink:href="classgambol_1_1NodesConstraint.html" target="_top" xlink:title="{gambol::NodesConstraint\n|# nodes_holder_\l|+ GetValues()\l+ GetBounds()\l+ FillJacobianBlock()\l# NodesConstraint()\l# ~NodesConstraint()\l# GetNumberOfNodes()\l&#45; UpdateConstraintAtNode()\l&#45; UpdateBoundsAtNode()\l&#45; UpdateJacobianAtNode()\l}">
<polygon fill="none" stroke="#000000" points="1.5,-204.5 1.5,-349.5 139.5,-349.5 139.5,-204.5 1.5,-204.5"/>
<text text-anchor="middle" x="70.5" y="-337.5" font-family="Helvetica,sans-Serif" font-size="10.00" fill="#000000">gambol::NodesConstraint</text>
<polyline fill="none" stroke="#000000" points="1.5,-330.5 139.5,-330.5 "/>
<text text-anchor="start" x="9.5" y="-318.5" font-family="Helvetica,sans-Serif" font-size="10.00" fill="#000000"># nodes_holder_</text>
<polyline fill="none" stroke="#000000" points="1.5,-311.5 139.5,-311.5 "/>
<text text-anchor="start" x="9.5" y="-299.5" font-family="Helvetica,sans-Serif" font-size="10.00" fill="#000000">+ GetValues()</text>
<text text-anchor="start" x="9.5" y="-288.5" font-family="Helvetica,sans-Serif" font-size="10.00" fill="#000000">+ GetBounds()</text>
<text text-anchor="start" x="9.5" y="-277.5" font-family="Helvetica,sans-Serif" font-size="10.00" fill="#000000">+ FillJacobianBlock()</text>
<text text-anchor="start" x="9.5" y="-266.5" font-family="Helvetica,sans-Serif" font-size="10.00" fill="#000000"># NodesConstraint()</text>
<text text-anchor="start" x="9.5" y="-255.5" font-family="Helvetica,sans-Serif" font-size="10.00" fill="#000000"># ~NodesConstraint()</text>
<text text-anchor="start" x="9.5" y="-244.5" font-family="Helvetica,sans-Serif" font-size="10.00" fill="#000000"># GetNumberOfNodes()</text>
<text text-anchor="start" x="9.5" y="-233.5" font-family="Helvetica,sans-Serif" font-size="10.00" fill="#000000">&#45; UpdateConstraintAtNode()</text>
<text text-anchor="start" x="9.5" y="-222.5" font-family="Helvetica,sans-Serif" font-size="10.00" fill="#000000">&#45; UpdateBoundsAtNode()</text>
<text text-anchor="start" x="9.5" y="-211.5" font-family="Helvetica,sans-Serif" font-size="10.00" fill="#000000">&#45; UpdateJacobianAtNode()</text>
</a>
</g>
</g>
<!-- Node1&#45;&gt;Node0 -->
<g id="edge1" class="edge">
<title>Node1&#45;&gt;Node0</title>
<path fill="none" stroke="#191970" d="M70.5,-194.1064C70.5,-185.3394 70.5,-176.4195 70.5,-167.644"/>
<polygon fill="none" stroke="#191970" points="67.0001,-194.31 70.5,-204.31 74.0001,-194.31 67.0001,-194.31"/>
</g>
<!-- Node2 -->
<g id="node3" class="node">
<title>Node2</title>
<polygon fill="none" stroke="#bfbfbf" points="32,-386.5 32,-443.5 109,-443.5 109,-386.5 32,-386.5"/>
<text text-anchor="middle" x="70.5" y="-431.5" font-family="Helvetica,sans-Serif" font-size="10.00" fill="#000000">ConstraintSet</text>
<polyline fill="none" stroke="#bfbfbf" points="32,-424.5 109,-424.5 "/>
<text text-anchor="middle" x="70.5" y="-412.5" font-family="Helvetica,sans-Serif" font-size="10.00" fill="#000000"> </text>
<polyline fill="none" stroke="#bfbfbf" points="32,-405.5 109,-405.5 "/>
<text text-anchor="middle" x="70.5" y="-393.5" font-family="Helvetica,sans-Serif" font-size="10.00" fill="#000000"> </text>
</g>
<!-- Node2&#45;&gt;Node1 -->
<g id="edge2" class="edge">
<title>Node2&#45;&gt;Node1</title>
<path fill="none" stroke="#191970" d="M70.5,-376.2817C70.5,-367.9388 70.5,-358.8592 70.5,-349.6924"/>
<polygon fill="none" stroke="#191970" points="67.0001,-376.4063 70.5,-386.4063 74.0001,-376.4063 67.0001,-376.4063"/>
</g>
</g>
</svg>
