<?xml version="1.0" encoding="UTF-8" standalone="no"?>
<!DOCTYPE svg PUBLIC "-//W3C//DTD SVG 1.1//EN"
 "http://www.w3.org/Graphics/SVG/1.1/DTD/svg11.dtd">
<!-- Generated by graphviz version 2.40.1 (20161225.0304)
 -->
<!-- Title: src/Control/CsvLogger.h Pages: 1 -->
<svg width="272pt" height="84pt"
 viewBox="0.00 0.00 271.50 84.00" xmlns="http://www.w3.org/2000/svg" xmlns:xlink="http://www.w3.org/1999/xlink">
<g id="graph0" class="graph" transform="scale(1 1) rotate(0) translate(4 80)">
<title>src/Control/CsvLogger.h</title>
<!-- Node0 -->
<g id="node1" class="node">
<title>Node0</title>
<polygon fill="#bfbfbf" stroke="#000000" points="57.5,-56.5 57.5,-75.5 180.5,-75.5 180.5,-56.5 57.5,-56.5"/>
<text text-anchor="middle" x="119" y="-63.5" font-family="Helvetica,sans-Serif" font-size="10.00" fill="#000000">src/Control/CsvLogger.h</text>
</g>
<!-- Node1 -->
<g id="node2" class="node">
<title>Node1</title>
<polygon fill="none" stroke="#bfbfbf" points="0,-.5 0,-19.5 50,-19.5 50,-.5 0,-.5"/>
<text text-anchor="middle" x="25" y="-7.5" font-family="Helvetica,sans-Serif" font-size="10.00" fill="#000000">fstream</text>
</g>
<!-- Node0&#45;&gt;Node1 -->
<g id="edge1" class="edge">
<title>Node0&#45;&gt;Node1</title>
<path fill="none" stroke="#191970" d="M102.6264,-56.2455C88.0692,-47.5731 66.569,-34.7645 49.8848,-24.825"/>
<polygon fill="#191970" stroke="#191970" points="51.5683,-21.7539 41.1859,-19.6427 47.9856,-27.7676 51.5683,-21.7539"/>
</g>
<!-- Node2 -->
<g id="node3" class="node">
<title>Node2</title>
<polygon fill="none" stroke="#bfbfbf" points="68.5,-.5 68.5,-19.5 109.5,-19.5 109.5,-.5 68.5,-.5"/>
<text text-anchor="middle" x="89" y="-7.5" font-family="Helvetica,sans-Serif" font-size="10.00" fill="#000000">string</text>
</g>
<!-- Node0&#45;&gt;Node2 -->
<g id="edge2" class="edge">
<title>Node0&#45;&gt;Node2</title>
<path fill="none" stroke="#191970" d="M113.7744,-56.2455C109.6877,-48.617 103.8865,-37.7881 98.925,-28.5267"/>
<polygon fill="#191970" stroke="#191970" points="101.9732,-26.8047 94.1657,-19.6427 95.8028,-30.1103 101.9732,-26.8047"/>
</g>
<!-- Node3 -->
<g id="node4" class="node">
<title>Node3</title>
<polygon fill="none" stroke="#bfbfbf" points="128,-.5 128,-19.5 172,-19.5 172,-.5 128,-.5"/>
<text text-anchor="middle" x="150" y="-7.5" font-family="Helvetica,sans-Serif" font-size="10.00" fill="#000000">vector</text>
</g>
<!-- Node0&#45;&gt;Node3 -->
<g id="edge3" class="edge">
<title>Node0&#45;&gt;Node3</title>
<path fill="none" stroke="#191970" d="M124.3998,-56.2455C128.6227,-48.617 134.6173,-37.7881 139.7441,-28.5267"/>
<polygon fill="#191970" stroke="#191970" points="142.881,-30.0867 144.6621,-19.6427 136.7568,-26.6965 142.881,-30.0867"/>
</g>
<!-- Node4 -->
<g id="node5" class="node">
<title>Node4</title>
<polygon fill="none" stroke="#bfbfbf" points="190.5,-.5 190.5,-19.5 263.5,-19.5 263.5,-.5 190.5,-.5"/>
<text text-anchor="middle" x="227" y="-7.5" font-family="Helvetica,sans-Serif" font-size="10.00" fill="#000000">Eigen/Dense</text>
</g>
<!-- Node0&#45;&gt;Node4 -->
<g id="edge4" class="edge">
<title>Node0&#45;&gt;Node4</title>
<path fill="none" stroke="#191970" d="M137.8122,-56.2455C154.8473,-47.4125 180.1575,-34.2887 199.4681,-24.2758"/>
<polygon fill="#191970" stroke="#191970" points="201.137,-27.353 208.4034,-19.6427 197.9147,-21.1388 201.137,-27.353"/>
</g>
</g>
</svg>
