<?xml version="1.0" encoding="UTF-8" standalone="no"?>
<!DOCTYPE svg PUBLIC "-//W3C//DTD SVG 1.1//EN"
 "http://www.w3.org/Graphics/SVG/1.1/DTD/svg11.dtd">
<!-- Generated by graphviz version 2.40.1 (20161225.0304)
 -->
<!-- Title: src/Control Pages: 1 -->
<svg width="105pt" height="223pt"
 viewBox="0.00 0.00 105.00 223.00" xmlns="http://www.w3.org/2000/svg" xmlns:xlink="http://www.w3.org/1999/xlink">
<g id="graph0" class="graph" transform="scale(1 1) rotate(0) translate(4 219)">
<title>src/Control</title>
<g id="clust1" class="cluster">
<title>clusterdir_68267d1309a1af8e8297ef4c3efbcdba</title>
<g id="a_clust1"><a xlink:href="dir_68267d1309a1af8e8297ef4c3efbcdba.html" target="_top" xlink:title="src">
<polygon fill="#ddddee" stroke="#000000" points="8,-136 8,-207 78,-207 78,-136 8,-136"/>
<text text-anchor="middle" x="43" y="-195" font-family="Helvetica,sans-Serif" font-size="10.00" fill="#000000">src</text>
</a>
</g>
</g>
<!-- dir_3ff0826a6d651abbf0f532354e1ac7dc -->
<g id="node1" class="node">
<title>dir_3ff0826a6d651abbf0f532354e1ac7dc</title>
<g id="a_node1"><a xlink:href="dir_3ff0826a6d651abbf0f532354e1ac7dc.html" target="_top" xlink:title="Control">
<polygon fill="#eeeeff" stroke="#000000" points="70,-180 16,-180 16,-144 70,-144 70,-180"/>
<text text-anchor="middle" x="43" y="-159.5" font-family="Helvetica,sans-Serif" font-size="10.00" fill="#000000">Control</text>
</a>
</g>
</g>
<!-- dir_02445d780b8407c2ffa0d219f85cafdc -->
<g id="node2" class="node">
<title>dir_02445d780b8407c2ffa0d219f85cafdc</title>
<g id="a_node2"><a xlink:href="dir_02445d780b8407c2ffa0d219f85cafdc.html" target="_top" xlink:title="Variables">
<polygon fill="none" stroke="#000000" points="70.5,-36 13.5,-36 13.5,0 70.5,0 70.5,-36"/>
<text text-anchor="middle" x="42" y="-15.5" font-family="Helvetica,sans-Serif" font-size="10.00" fill="#000000">Variables</text>
</a>
</g>
</g>
<!-- dir_3ff0826a6d651abbf0f532354e1ac7dc&#45;&gt;dir_02445d780b8407c2ffa0d219f85cafdc -->
<g id="edge2" class="edge">
<title>dir_3ff0826a6d651abbf0f532354e1ac7dc&#45;&gt;dir_02445d780b8407c2ffa0d219f85cafdc</title>
<path fill="none" stroke="#000000" d="M39.1587,-143.6001C37.1834,-133.2025 34.9877,-119.9346 34,-108 32.6803,-92.0545 32.8244,-87.9568 34,-72 34.6169,-63.6264 35.7649,-54.5812 37.0026,-46.3322"/>
<polygon fill="#000000" stroke="#000000" points="40.4648,-46.8463 38.585,-36.4196 33.5523,-45.7428 40.4648,-46.8463"/>
<g id="a_edge2&#45;headlabel"><a xlink:href="dir_000002_000008.html" target="_top" xlink:title="1">
<text text-anchor="middle" x="42.702" y="-48.3436" font-family="Helvetica,sans-Serif" font-size="10.00" fill="#000000">1</text>
</a>
</g>
</g>
<!-- dir_49cc6817093df1463ad9037c5c5c7d6e -->
<g id="node3" class="node">
<title>dir_49cc6817093df1463ad9037c5c5c7d6e</title>
<g id="a_node3"><a xlink:href="dir_49cc6817093df1463ad9037c5c5c7d6e.html" target="_top" xlink:title="Problem">
<polygon fill="none" stroke="#000000" points="97,-108 43,-108 43,-72 97,-72 97,-108"/>
<text text-anchor="middle" x="70" y="-87.5" font-family="Helvetica,sans-Serif" font-size="10.00" fill="#000000">Problem</text>
</a>
</g>
</g>
<!-- dir_3ff0826a6d651abbf0f532354e1ac7dc&#45;&gt;dir_49cc6817093df1463ad9037c5c5c7d6e -->
<g id="edge3" class="edge">
<title>dir_3ff0826a6d651abbf0f532354e1ac7dc&#45;&gt;dir_49cc6817093df1463ad9037c5c5c7d6e</title>
<path fill="none" stroke="#000000" d="M49.8132,-143.8314C52.7644,-135.9617 56.2858,-126.5712 59.555,-117.8533"/>
<polygon fill="#000000" stroke="#000000" points="62.8609,-119.0055 63.095,-108.4133 56.3066,-116.5476 62.8609,-119.0055"/>
<g id="a_edge3&#45;headlabel"><a xlink:href="dir_000002_000005.html" target="_top" xlink:title="2">
<text text-anchor="middle" x="64.2573" y="-120.8682" font-family="Helvetica,sans-Serif" font-size="10.00" fill="#000000">2</text>
</a>
</g>
</g>
<!-- dir_49cc6817093df1463ad9037c5c5c7d6e&#45;&gt;dir_02445d780b8407c2ffa0d219f85cafdc -->
<g id="edge1" class="edge">
<title>dir_49cc6817093df1463ad9037c5c5c7d6e&#45;&gt;dir_02445d780b8407c2ffa0d219f85cafdc</title>
<path fill="none" stroke="#000000" d="M62.9344,-71.8314C59.874,-63.9617 56.2221,-54.5712 52.8318,-45.8533"/>
<polygon fill="#000000" stroke="#000000" points="56.0473,-44.4647 49.1607,-36.4133 49.5232,-47.0019 56.0473,-44.4647"/>
<g id="a_edge1&#45;headlabel"><a xlink:href="dir_000005_000008.html" target="_top" xlink:title="5">
<text text-anchor="middle" x="59.9963" y="-44.2859" font-family="Helvetica,sans-Serif" font-size="10.00" fill="#000000">5</text>
</a>
</g>
</g>
</g>
</svg>
