<?xml version="1.0" encoding="UTF-8" standalone="no"?>
<!DOCTYPE svg PUBLIC "-//W3C//DTD SVG 1.1//EN"
 "http://www.w3.org/Graphics/SVG/1.1/DTD/svg11.dtd">
<!-- Generated by graphviz version 2.40.1 (20161225.0304)
 -->
<!-- Title: src/Robots Pages: 1 -->
<svg width="148pt" height="151pt"
 viewBox="0.00 0.00 148.00 151.00" xmlns="http://www.w3.org/2000/svg" xmlns:xlink="http://www.w3.org/1999/xlink">
<g id="graph0" class="graph" transform="scale(1 1) rotate(0) translate(4 147)">
<title>src/Robots</title>
<g id="clust1" class="cluster">
<title>clusterdir_68267d1309a1af8e8297ef4c3efbcdba</title>
<g id="a_clust1"><a xlink:href="dir_68267d1309a1af8e8297ef4c3efbcdba.html" target="_top" xlink:title="src">
<polygon fill="#ddddee" stroke="#000000" points="32.5,-64 32.5,-135 102.5,-135 102.5,-64 32.5,-64"/>
<text text-anchor="middle" x="67.5" y="-123" font-family="Helvetica,sans-Serif" font-size="10.00" fill="#000000">src</text>
</a>
</g>
</g>
<!-- dir_69443210df65fabcdf2b961c72d3489e -->
<g id="node1" class="node">
<title>dir_69443210df65fabcdf2b961c72d3489e</title>
<g id="a_node1"><a xlink:href="dir_69443210df65fabcdf2b961c72d3489e.html" target="_top" xlink:title="Robots">
<polygon fill="#eeeeff" stroke="#000000" points="94.5,-108 40.5,-108 40.5,-72 94.5,-72 94.5,-108"/>
<text text-anchor="middle" x="67.5" y="-87.5" font-family="Helvetica,sans-Serif" font-size="10.00" fill="#000000">Robots</text>
</a>
</g>
</g>
<!-- dir_02445d780b8407c2ffa0d219f85cafdc -->
<g id="node2" class="node">
<title>dir_02445d780b8407c2ffa0d219f85cafdc</title>
<g id="a_node2"><a xlink:href="dir_02445d780b8407c2ffa0d219f85cafdc.html" target="_top" xlink:title="Variables">
<polygon fill="none" stroke="#000000" points="57,-36 0,-36 0,0 57,0 57,-36"/>
<text text-anchor="middle" x="28.5" y="-15.5" font-family="Helvetica,sans-Serif" font-size="10.00" fill="#000000">Variables</text>
</a>
</g>
</g>
<!-- dir_69443210df65fabcdf2b961c72d3489e&#45;&gt;dir_02445d780b8407c2ffa0d219f85cafdc -->
<g id="edge1" class="edge">
<title>dir_69443210df65fabcdf2b961c72d3489e&#45;&gt;dir_02445d780b8407c2ffa0d219f85cafdc</title>
<path fill="none" stroke="#000000" d="M57.6587,-71.8314C53.3043,-63.7925 48.0902,-54.1666 43.2831,-45.2918"/>
<polygon fill="#000000" stroke="#000000" points="46.3143,-43.5392 38.4739,-36.4133 40.1592,-46.8732 46.3143,-43.5392"/>
<g id="a_edge1&#45;headlabel"><a xlink:href="dir_000006_000008.html" target="_top" xlink:title="2">
<text text-anchor="middle" x="50.5228" y="-42.8476" font-family="Helvetica,sans-Serif" font-size="10.00" fill="#000000">2</text>
</a>
</g>
</g>
<!-- dir_8ced59cfcaad7166add56ff082e55ef8 -->
<g id="node3" class="node">
<title>dir_8ced59cfcaad7166add56ff082e55ef8</title>
<g id="a_node3"><a xlink:href="dir_8ced59cfcaad7166add56ff082e55ef8.html" target="_top" xlink:title="Generators">
<polygon fill="none" stroke="#000000" points="140,-36 75,-36 75,0 140,0 140,-36"/>
<text text-anchor="middle" x="107.5" y="-15.5" font-family="Helvetica,sans-Serif" font-size="10.00" fill="#000000">Generators</text>
</a>
</g>
</g>
<!-- dir_69443210df65fabcdf2b961c72d3489e&#45;&gt;dir_8ced59cfcaad7166add56ff082e55ef8 -->
<g id="edge2" class="edge">
<title>dir_69443210df65fabcdf2b961c72d3489e&#45;&gt;dir_8ced59cfcaad7166add56ff082e55ef8</title>
<path fill="none" stroke="#000000" d="M77.5937,-71.8314C82.0597,-63.7925 87.4075,-54.1666 92.3379,-45.2918"/>
<polygon fill="#000000" stroke="#000000" points="95.4735,-46.8546 97.2704,-36.4133 89.3544,-43.4551 95.4735,-46.8546"/>
<g id="a_edge2&#45;headlabel"><a xlink:href="dir_000006_000004.html" target="_top" xlink:title="8">
<text text-anchor="middle" x="96.2098" y="-48.8757" font-family="Helvetica,sans-Serif" font-size="10.00" fill="#000000">8</text>
</a>
</g>
</g>
</g>
</svg>
