<?xml version="1.0" encoding="UTF-8" standalone="no"?>
<!DOCTYPE svg PUBLIC "-//W3C//DTD SVG 1.1//EN"
 "http://www.w3.org/Graphics/SVG/1.1/DTD/svg11.dtd">
<!-- Generated by graphviz version 2.40.1 (20161225.0304)
 -->
<!-- Title: src/Constraints Pages: 1 -->
<svg width="140pt" height="295pt"
 viewBox="0.00 0.00 140.00 295.00" xmlns="http://www.w3.org/2000/svg" xmlns:xlink="http://www.w3.org/1999/xlink">
<g id="graph0" class="graph" transform="scale(1 1) rotate(0) translate(4 291)">
<title>src/Constraints</title>
<g id="clust1" class="cluster">
<title>clusterdir_68267d1309a1af8e8297ef4c3efbcdba</title>
<g id="a_clust1"><a xlink:href="dir_68267d1309a1af8e8297ef4c3efbcdba.html" target="_top" xlink:title="src">
<polygon fill="#ddddee" stroke="#000000" points="8,-208 8,-279 92,-279 92,-208 8,-208"/>
<text text-anchor="middle" x="50" y="-267" font-family="Helvetica,sans-Serif" font-size="10.00" fill="#000000">src</text>
</a>
</g>
</g>
<!-- dir_7876048763a7c3bc1c27695b4ff5cc71 -->
<g id="node1" class="node">
<title>dir_7876048763a7c3bc1c27695b4ff5cc71</title>
<g id="a_node1"><a xlink:href="dir_7876048763a7c3bc1c27695b4ff5cc71.html" target="_top" xlink:title="Constraints">
<polygon fill="#eeeeff" stroke="#000000" points="83.5,-252 16.5,-252 16.5,-216 83.5,-216 83.5,-252"/>
<text text-anchor="middle" x="50" y="-231.5" font-family="Helvetica,sans-Serif" font-size="10.00" fill="#000000">Constraints</text>
</a>
</g>
</g>
<!-- dir_69443210df65fabcdf2b961c72d3489e -->
<g id="node2" class="node">
<title>dir_69443210df65fabcdf2b961c72d3489e</title>
<g id="a_node2"><a xlink:href="dir_69443210df65fabcdf2b961c72d3489e.html" target="_top" xlink:title="Robots">
<polygon fill="none" stroke="#000000" points="86,-108 32,-108 32,-72 86,-72 86,-108"/>
<text text-anchor="middle" x="59" y="-87.5" font-family="Helvetica,sans-Serif" font-size="10.00" fill="#000000">Robots</text>
</a>
</g>
</g>
<!-- dir_7876048763a7c3bc1c27695b4ff5cc71&#45;&gt;dir_69443210df65fabcdf2b961c72d3489e -->
<g id="edge2" class="edge">
<title>dir_7876048763a7c3bc1c27695b4ff5cc71&#45;&gt;dir_69443210df65fabcdf2b961c72d3489e</title>
<path fill="none" stroke="#000000" d="M51.1399,-215.7623C52.6749,-191.201 55.422,-147.2474 57.2279,-118.3541"/>
<polygon fill="#000000" stroke="#000000" points="60.7387,-118.2885 57.8694,-108.0896 53.7523,-117.8518 60.7387,-118.2885"/>
<g id="a_edge2&#45;headlabel"><a xlink:href="dir_000001_000006.html" target="_top" xlink:title="7">
<text text-anchor="middle" x="63.3483" y="-119.5532" font-family="Helvetica,sans-Serif" font-size="10.00" fill="#000000">7</text>
</a>
</g>
</g>
<!-- dir_02445d780b8407c2ffa0d219f85cafdc -->
<g id="node3" class="node">
<title>dir_02445d780b8407c2ffa0d219f85cafdc</title>
<g id="a_node3"><a xlink:href="dir_02445d780b8407c2ffa0d219f85cafdc.html" target="_top" xlink:title="Variables">
<polygon fill="none" stroke="#000000" points="87.5,-36 30.5,-36 30.5,0 87.5,0 87.5,-36"/>
<text text-anchor="middle" x="59" y="-15.5" font-family="Helvetica,sans-Serif" font-size="10.00" fill="#000000">Variables</text>
</a>
</g>
</g>
<!-- dir_7876048763a7c3bc1c27695b4ff5cc71&#45;&gt;dir_02445d780b8407c2ffa0d219f85cafdc -->
<g id="edge3" class="edge">
<title>dir_7876048763a7c3bc1c27695b4ff5cc71&#45;&gt;dir_02445d780b8407c2ffa0d219f85cafdc</title>
<path fill="none" stroke="#000000" d="M41.6006,-215.672C28.8485,-185.2772 7.6316,-122.7585 23,-72 25.9564,-62.2355 31.3252,-52.6229 37.03,-44.2762"/>
<polygon fill="#000000" stroke="#000000" points="39.9414,-46.2239 43.0095,-36.0831 34.2871,-42.0973 39.9414,-46.2239"/>
<g id="a_edge3&#45;headlabel"><a xlink:href="dir_000001_000008.html" target="_top" xlink:title="5">
<text text-anchor="middle" x="40.1158" y="-48.3013" font-family="Helvetica,sans-Serif" font-size="10.00" fill="#000000">5</text>
</a>
</g>
</g>
<!-- dir_9ca388931d97c86fb1978224ef335a40 -->
<g id="node4" class="node">
<title>dir_9ca388931d97c86fb1978224ef335a40</title>
<g id="a_node4"><a xlink:href="dir_9ca388931d97c86fb1978224ef335a40.html" target="_top" xlink:title="Terrain">
<polygon fill="none" stroke="#000000" points="132,-180 78,-180 78,-144 132,-144 132,-180"/>
<text text-anchor="middle" x="105" y="-159.5" font-family="Helvetica,sans-Serif" font-size="10.00" fill="#000000">Terrain</text>
</a>
</g>
</g>
<!-- dir_7876048763a7c3bc1c27695b4ff5cc71&#45;&gt;dir_9ca388931d97c86fb1978224ef335a40 -->
<g id="edge4" class="edge">
<title>dir_7876048763a7c3bc1c27695b4ff5cc71&#45;&gt;dir_9ca388931d97c86fb1978224ef335a40</title>
<path fill="none" stroke="#000000" d="M63.8788,-215.8314C70.2136,-207.5386 77.8384,-197.557 84.7926,-188.4533"/>
<polygon fill="#000000" stroke="#000000" points="87.6452,-190.4847 90.9343,-180.4133 82.0825,-186.2353 87.6452,-190.4847"/>
<g id="a_edge4&#45;headlabel"><a xlink:href="dir_000001_000007.html" target="_top" xlink:title="2">
<text text-anchor="middle" x="87.7195" y="-192.5647" font-family="Helvetica,sans-Serif" font-size="10.00" fill="#000000">2</text>
</a>
</g>
</g>
<!-- dir_69443210df65fabcdf2b961c72d3489e&#45;&gt;dir_02445d780b8407c2ffa0d219f85cafdc -->
<g id="edge1" class="edge">
<title>dir_69443210df65fabcdf2b961c72d3489e&#45;&gt;dir_02445d780b8407c2ffa0d219f85cafdc</title>
<path fill="none" stroke="#000000" d="M59,-71.8314C59,-64.131 59,-54.9743 59,-46.4166"/>
<polygon fill="#000000" stroke="#000000" points="62.5001,-46.4132 59,-36.4133 55.5001,-46.4133 62.5001,-46.4132"/>
<g id="a_edge1&#45;headlabel"><a xlink:href="dir_000006_000008.html" target="_top" xlink:title="2">
<text text-anchor="middle" x="65.3393" y="-47.5079" font-family="Helvetica,sans-Serif" font-size="10.00" fill="#000000">2</text>
</a>
</g>
</g>
<!-- dir_9ca388931d97c86fb1978224ef335a40&#45;&gt;dir_69443210df65fabcdf2b961c72d3489e -->
<g id="edge5" class="edge">
<title>dir_9ca388931d97c86fb1978224ef335a40&#45;&gt;dir_69443210df65fabcdf2b961c72d3489e</title>
<path fill="none" stroke="#000000" d="M93.3923,-143.8314C88.2022,-135.7079 81.9768,-125.9637 76.2575,-117.0118"/>
<polygon fill="#000000" stroke="#000000" points="79.0974,-114.9559 70.764,-108.4133 73.1985,-118.7246 79.0974,-114.9559"/>
<g id="a_edge5&#45;headlabel"><a xlink:href="dir_000007_000006.html" target="_top" xlink:title="1">
<text text-anchor="middle" x="83.4253" y="-113.9564" font-family="Helvetica,sans-Serif" font-size="10.00" fill="#000000">1</text>
</a>
</g>
</g>
<!-- dir_9ca388931d97c86fb1978224ef335a40&#45;&gt;dir_02445d780b8407c2ffa0d219f85cafdc -->
<g id="edge6" class="edge">
<title>dir_9ca388931d97c86fb1978224ef335a40&#45;&gt;dir_02445d780b8407c2ffa0d219f85cafdc</title>
<path fill="none" stroke="#000000" d="M105.4698,-143.842C105.3849,-125.248 103.6632,-95.7823 95,-72 91.5081,-62.414 85.9827,-52.8535 80.299,-44.4998"/>
<polygon fill="#000000" stroke="#000000" points="83.073,-42.3622 74.3975,-36.2807 77.387,-46.445 83.073,-42.3622"/>
<g id="a_edge6&#45;headlabel"><a xlink:href="dir_000007_000008.html" target="_top" xlink:title="1">
<text text-anchor="middle" x="87.4759" y="-41.1261" font-family="Helvetica,sans-Serif" font-size="10.00" fill="#000000">1</text>
</a>
</g>
</g>
</g>
</svg>
