<?xml version="1.0" encoding="UTF-8" standalone="no"?>
<!DOCTYPE svg PUBLIC "-//W3C//DTD SVG 1.1//EN"
 "http://www.w3.org/Graphics/SVG/1.1/DTD/svg11.dtd">
<!-- Generated by graphviz version 2.40.1 (20161225.0304)
 -->
<!-- Title: src/Constraints/DynamicsConstraint.h Pages: 1 -->
<svg width="314pt" height="106pt"
 viewBox="0.00 0.00 314.00 106.00" xmlns="http://www.w3.org/2000/svg" xmlns:xlink="http://www.w3.org/1999/xlink">
<g id="graph0" class="graph" transform="scale(1 1) rotate(0) translate(4 102)">
<title>src/Constraints/DynamicsConstraint.h</title>
<!-- Node11 -->
<g id="node1" class="node">
<title>Node11</title>
<polygon fill="#bfbfbf" stroke="#000000" points="81,-67.5 81,-97.5 212,-97.5 212,-67.5 81,-67.5"/>
<text text-anchor="start" x="89" y="-85.5" font-family="Helvetica,sans-Serif" font-size="10.00" fill="#000000">src/Constraints/Dynamics</text>
<text text-anchor="middle" x="146.5" y="-74.5" font-family="Helvetica,sans-Serif" font-size="10.00" fill="#000000">Constraint.h</text>
</g>
<!-- Node12 -->
<g id="node2" class="node">
<title>Node12</title>
<g id="a_node2"><a xlink:href="DynamicsConstraint_8cpp.html" target="_top" xlink:title="src/Constraints/Dynamics\lConstraint.cpp">
<polygon fill="none" stroke="#000000" points="0,-.5 0,-30.5 131,-30.5 131,-.5 0,-.5"/>
<text text-anchor="start" x="8" y="-18.5" font-family="Helvetica,sans-Serif" font-size="10.00" fill="#000000">src/Constraints/Dynamics</text>
<text text-anchor="middle" x="65.5" y="-7.5" font-family="Helvetica,sans-Serif" font-size="10.00" fill="#000000">Constraint.cpp</text>
</a>
</g>
</g>
<!-- Node11&#45;&gt;Node12 -->
<g id="edge1" class="edge">
<title>Node11&#45;&gt;Node12</title>
<path fill="none" stroke="#191970" d="M120.2425,-60.7808C108.3433,-50.9383 94.5644,-39.541 83.8074,-30.6432"/>
<polygon fill="#191970" stroke="#191970" points="118.1835,-63.6198 128.1198,-67.2967 122.6451,-58.2259 118.1835,-63.6198"/>
</g>
<!-- Node13 -->
<g id="node3" class="node">
<title>Node13</title>
<g id="a_node3"><a xlink:href="NlpFormulation_8cpp.html" target="_top" xlink:title="src/Problem/NlpFormulation.cpp">
<polygon fill="none" stroke="#000000" points="149,-6 149,-25 306,-25 306,-6 149,-6"/>
<text text-anchor="middle" x="227.5" y="-13" font-family="Helvetica,sans-Serif" font-size="10.00" fill="#000000">src/Problem/NlpFormulation.cpp</text>
</a>
</g>
</g>
<!-- Node11&#45;&gt;Node13 -->
<g id="edge2" class="edge">
<title>Node11&#45;&gt;Node13</title>
<path fill="none" stroke="#191970" d="M172.6415,-60.8767C187.2458,-48.7967 204.7115,-34.3498 215.9485,-25.055"/>
<polygon fill="#191970" stroke="#191970" points="170.3549,-58.2259 164.8802,-67.2967 174.8165,-63.6198 170.3549,-58.2259"/>
</g>
</g>
</svg>
