<?xml version="1.0" encoding="UTF-8" standalone="no"?>
<!DOCTYPE svg PUBLIC "-//W3C//DTD SVG 1.1//EN"
 "http://www.w3.org/Graphics/SVG/1.1/DTD/svg11.dtd">
<!-- Generated by graphviz version 2.40.1 (20161225.0304)
 -->
<!-- Title: src/Constraints/DynamicsConstraint.cpp Pages: 1 -->
<svg width="759pt" height="375pt"
 viewBox="0.00 0.00 758.50 375.00" xmlns="http://www.w3.org/2000/svg" xmlns:xlink="http://www.w3.org/1999/xlink">
<g id="graph0" class="graph" transform="scale(1 1) rotate(0) translate(4 371)">
<title>src/Constraints/DynamicsConstraint.cpp</title>
<!-- Node0 -->
<g id="node1" class="node">
<title>Node0</title>
<polygon fill="#bfbfbf" stroke="#000000" points="58.5,-336.5 58.5,-366.5 189.5,-366.5 189.5,-336.5 58.5,-336.5"/>
<text text-anchor="start" x="66.5" y="-354.5" font-family="Helvetica,sans-Serif" font-size="10.00" fill="#000000">src/Constraints/Dynamics</text>
<text text-anchor="middle" x="124" y="-343.5" font-family="Helvetica,sans-Serif" font-size="10.00" fill="#000000">Constraint.cpp</text>
</g>
<!-- Node1 -->
<g id="node2" class="node">
<title>Node1</title>
<polygon fill="none" stroke="#bfbfbf" points="0,-280.5 0,-299.5 54,-299.5 54,-280.5 0,-280.5"/>
<text text-anchor="middle" x="27" y="-287.5" font-family="Helvetica,sans-Serif" font-size="10.00" fill="#000000">iostream</text>
</g>
<!-- Node0&#45;&gt;Node1 -->
<g id="edge1" class="edge">
<title>Node0&#45;&gt;Node1</title>
<path fill="none" stroke="#191970" d="M100.0225,-336.2977C85.0624,-326.8127 65.878,-314.6495 50.9274,-305.1705"/>
<polygon fill="#191970" stroke="#191970" points="52.561,-302.062 42.2413,-299.6633 48.8127,-307.9739 52.561,-302.062"/>
</g>
<!-- Node2 -->
<g id="node3" class="node">
<title>Node2</title>
<polygon fill="none" stroke="#bfbfbf" points="235,-.5 235,-19.5 287,-19.5 287,-.5 235,-.5"/>
<text text-anchor="middle" x="261" y="-7.5" font-family="Helvetica,sans-Serif" font-size="10.00" fill="#000000">memory</text>
</g>
<!-- Node0&#45;&gt;Node2 -->
<g id="edge2" class="edge">
<title>Node0&#45;&gt;Node2</title>
<path fill="none" stroke="#191970" d="M114.6788,-336.1622C102.3053,-314.3044 82,-272.5607 82,-234 82,-234 82,-234 82,-122 82,-55.1559 172.8144,-26.7129 225.0726,-15.8791"/>
<polygon fill="#191970" stroke="#191970" points="225.8307,-19.2972 234.9719,-13.941 224.4857,-12.4277 225.8307,-19.2972"/>
</g>
<!-- Node3 -->
<g id="node4" class="node">
<title>Node3</title>
<g id="a_node4"><a xlink:href="DynamicsConstraint_8h.html" target="_top" xlink:title="DynamicsConstraint.h">
<polygon fill="none" stroke="#000000" points="110,-280.5 110,-299.5 224,-299.5 224,-280.5 110,-280.5"/>
<text text-anchor="middle" x="167" y="-287.5" font-family="Helvetica,sans-Serif" font-size="10.00" fill="#000000">DynamicsConstraint.h</text>
</a>
</g>
</g>
<!-- Node0&#45;&gt;Node3 -->
<g id="edge3" class="edge">
<title>Node0&#45;&gt;Node3</title>
<path fill="none" stroke="#191970" d="M134.6292,-336.2977C140.5981,-327.7609 148.0838,-317.0545 154.3529,-308.0883"/>
<polygon fill="#191970" stroke="#191970" points="157.2534,-310.048 160.1152,-299.8469 151.5165,-306.0368 157.2534,-310.048"/>
</g>
<!-- Node13 -->
<g id="node14" class="node">
<title>Node13</title>
<g id="a_node14"><a xlink:href="MuJoCoRobotModel_8h.html" target="_top" xlink:title="../Robots/MuJoCoRobotModel.h">
<polygon fill="none" stroke="#000000" points="473,-280.5 473,-299.5 631,-299.5 631,-280.5 473,-280.5"/>
<text text-anchor="middle" x="552" y="-287.5" font-family="Helvetica,sans-Serif" font-size="10.00" fill="#000000">../Robots/MuJoCoRobotModel.h</text>
</a>
</g>
</g>
<!-- Node0&#45;&gt;Node13 -->
<g id="edge20" class="edge">
<title>Node0&#45;&gt;Node13</title>
<path fill="none" stroke="#191970" d="M189.937,-342.0254C266.9548,-330.9586 394.1583,-312.6805 475.463,-300.9977"/>
<polygon fill="#191970" stroke="#191970" points="476.2353,-304.4228 485.6358,-299.536 475.2396,-297.4939 476.2353,-304.4228"/>
</g>
<!-- Node4 -->
<g id="node5" class="node">
<title>Node4</title>
<g id="a_node5"><a xlink:href="NodesConstraint_8h.html" target="_top" xlink:title="NodesConstraint.h">
<polygon fill="none" stroke="#000000" points="116,-224.5 116,-243.5 214,-243.5 214,-224.5 116,-224.5"/>
<text text-anchor="middle" x="165" y="-231.5" font-family="Helvetica,sans-Serif" font-size="10.00" fill="#000000">NodesConstraint.h</text>
</a>
</g>
</g>
<!-- Node3&#45;&gt;Node4 -->
<g id="edge4" class="edge">
<title>Node3&#45;&gt;Node4</title>
<path fill="none" stroke="#191970" d="M166.6516,-280.2455C166.3907,-272.9382 166.0248,-262.6944 165.7037,-253.7046"/>
<polygon fill="#191970" stroke="#191970" points="169.1992,-253.5113 165.3444,-243.6427 162.2036,-253.7613 169.1992,-253.5113"/>
</g>
<!-- Node12 -->
<g id="node13" class="node">
<title>Node12</title>
<g id="a_node13"><a xlink:href="RobotModel_8h.html" target="_top" xlink:title="../Robots/RobotModel.h">
<polygon fill="none" stroke="#000000" points="232.5,-224.5 232.5,-243.5 353.5,-243.5 353.5,-224.5 232.5,-224.5"/>
<text text-anchor="middle" x="293" y="-231.5" font-family="Helvetica,sans-Serif" font-size="10.00" fill="#000000">../Robots/RobotModel.h</text>
</a>
</g>
</g>
<!-- Node3&#45;&gt;Node12 -->
<g id="edge17" class="edge">
<title>Node3&#45;&gt;Node12</title>
<path fill="none" stroke="#191970" d="M188.6602,-280.3733C208.9772,-271.3435 239.564,-257.7494 262.375,-247.6111"/>
<polygon fill="#191970" stroke="#191970" points="263.9059,-250.7609 271.6225,-243.5011 261.0628,-244.3642 263.9059,-250.7609"/>
</g>
<!-- Node5 -->
<g id="node6" class="node">
<title>Node5</title>
<polygon fill="none" stroke="#bfbfbf" points="110,-168.5 110,-187.5 218,-187.5 218,-168.5 110,-168.5"/>
<text text-anchor="middle" x="164" y="-175.5" font-family="Helvetica,sans-Serif" font-size="10.00" fill="#000000">ifopt/constraint_set.h</text>
</g>
<!-- Node4&#45;&gt;Node5 -->
<g id="edge5" class="edge">
<title>Node4&#45;&gt;Node5</title>
<path fill="none" stroke="#191970" d="M164.8258,-224.2455C164.6953,-216.9382 164.5124,-206.6944 164.3519,-197.7046"/>
<polygon fill="#191970" stroke="#191970" points="167.8503,-197.5786 164.1722,-187.6427 160.8514,-197.7036 167.8503,-197.5786"/>
</g>
<!-- Node6 -->
<g id="node7" class="node">
<title>Node6</title>
<g id="a_node7"><a xlink:href="NodesHolder_8h.html" target="_top" xlink:title="../Variables/NodesHolder.h">
<polygon fill="none" stroke="#000000" points="290,-168.5 290,-187.5 424,-187.5 424,-168.5 290,-168.5"/>
<text text-anchor="middle" x="357" y="-175.5" font-family="Helvetica,sans-Serif" font-size="10.00" fill="#000000">../Variables/NodesHolder.h</text>
</a>
</g>
</g>
<!-- Node4&#45;&gt;Node6 -->
<g id="edge6" class="edge">
<title>Node4&#45;&gt;Node6</title>
<path fill="none" stroke="#191970" d="M198.006,-224.3733C230.2091,-214.9807 279.3442,-200.6496 314.4639,-190.4064"/>
<polygon fill="#191970" stroke="#191970" points="315.8047,-193.6612 324.4247,-187.5011 313.8447,-186.9412 315.8047,-193.6612"/>
</g>
<!-- Node7 -->
<g id="node8" class="node">
<title>Node7</title>
<g id="a_node8"><a xlink:href="NodesVariables_8h.html" target="_top" xlink:title="NodesVariables.h">
<polygon fill="none" stroke="#000000" points="338,-112.5 338,-131.5 432,-131.5 432,-112.5 338,-112.5"/>
<text text-anchor="middle" x="385" y="-119.5" font-family="Helvetica,sans-Serif" font-size="10.00" fill="#000000">NodesVariables.h</text>
</a>
</g>
</g>
<!-- Node6&#45;&gt;Node7 -->
<g id="edge7" class="edge">
<title>Node6&#45;&gt;Node7</title>
<path fill="none" stroke="#191970" d="M361.8772,-168.2455C365.6513,-160.6973 370.9921,-150.0158 375.5901,-140.8197"/>
<polygon fill="#191970" stroke="#191970" points="378.837,-142.1522 380.1787,-131.6427 372.576,-139.0217 378.837,-142.1522"/>
</g>
<!-- Node9 -->
<g id="node10" class="node">
<title>Node9</title>
<g id="a_node10"><a xlink:href="NodeTimes_8h.html" target="_top" xlink:title="NodeTimes.h">
<polygon fill="none" stroke="#000000" points="256.5,-56.5 256.5,-75.5 331.5,-75.5 331.5,-56.5 256.5,-56.5"/>
<text text-anchor="middle" x="294" y="-63.5" font-family="Helvetica,sans-Serif" font-size="10.00" fill="#000000">NodeTimes.h</text>
</a>
</g>
</g>
<!-- Node6&#45;&gt;Node9 -->
<g id="edge15" class="edge">
<title>Node6&#45;&gt;Node9</title>
<path fill="none" stroke="#191970" d="M350.8216,-168.2297C345.0313,-158.9857 336.2113,-144.6773 329,-132 320.1082,-116.3686 310.5809,-98.3083 303.715,-85.0358"/>
<polygon fill="#191970" stroke="#191970" points="306.7232,-83.232 299.038,-75.939 300.4978,-86.4328 306.7232,-83.232"/>
</g>
<!-- Node11 -->
<g id="node12" class="node">
<title>Node11</title>
<g id="a_node12"><a xlink:href="PhaseDurations_8h.html" target="_top" xlink:title="PhaseDurations.h">
<polygon fill="none" stroke="#000000" points="466.5,-56.5 466.5,-75.5 561.5,-75.5 561.5,-56.5 466.5,-56.5"/>
<text text-anchor="middle" x="514" y="-63.5" font-family="Helvetica,sans-Serif" font-size="10.00" fill="#000000">PhaseDurations.h</text>
</a>
</g>
</g>
<!-- Node6&#45;&gt;Node11 -->
<g id="edge16" class="edge">
<title>Node6&#45;&gt;Node11</title>
<path fill="none" stroke="#191970" d="M377.4746,-168.4746C394.9898,-159.9379 420.5379,-146.5478 441,-132 461.9134,-117.1313 483.4135,-96.9926 497.614,-82.885"/>
<polygon fill="#191970" stroke="#191970" points="500.1442,-85.3041 504.702,-75.7397 495.1746,-80.3743 500.1442,-85.3041"/>
</g>
<!-- Node8 -->
<g id="node9" class="node">
<title>Node8</title>
<polygon fill="none" stroke="#bfbfbf" points="349.5,-56.5 349.5,-75.5 448.5,-75.5 448.5,-56.5 349.5,-56.5"/>
<text text-anchor="middle" x="399" y="-63.5" font-family="Helvetica,sans-Serif" font-size="10.00" fill="#000000">ifopt/variable_set.h</text>
</g>
<!-- Node7&#45;&gt;Node8 -->
<g id="edge8" class="edge">
<title>Node7&#45;&gt;Node8</title>
<path fill="none" stroke="#191970" d="M387.4386,-112.2455C389.2855,-104.8579 391.8828,-94.4689 394.1478,-85.4087"/>
<polygon fill="#191970" stroke="#191970" points="397.5594,-86.193 396.5893,-75.6427 390.7684,-84.4952 397.5594,-86.193"/>
</g>
<!-- Node7&#45;&gt;Node9 -->
<g id="edge9" class="edge">
<title>Node7&#45;&gt;Node9</title>
<path fill="none" stroke="#191970" d="M369.149,-112.2455C355.1868,-103.6534 334.6272,-91.0014 318.5404,-81.1018"/>
<polygon fill="#191970" stroke="#191970" points="320.0203,-77.9029 309.6693,-75.6427 316.3516,-83.8645 320.0203,-77.9029"/>
</g>
<!-- Node7&#45;&gt;Node11 -->
<g id="edge12" class="edge">
<title>Node7&#45;&gt;Node11</title>
<path fill="none" stroke="#191970" d="M407.1759,-112.3733C427.9766,-103.3435 459.2917,-89.7494 482.6458,-79.6111"/>
<polygon fill="#191970" stroke="#191970" points="484.3343,-82.6938 492.1135,-75.5011 481.5468,-76.2727 484.3343,-82.6938"/>
</g>
<!-- Node9&#45;&gt;Node2 -->
<g id="edge11" class="edge">
<title>Node9&#45;&gt;Node2</title>
<path fill="none" stroke="#191970" d="M288.2518,-56.2455C283.7565,-48.617 277.3752,-37.7881 271.9175,-28.5267"/>
<polygon fill="#191970" stroke="#191970" points="274.7747,-26.4811 266.6823,-19.6427 268.7439,-30.035 274.7747,-26.4811"/>
</g>
<!-- Node10 -->
<g id="node11" class="node">
<title>Node10</title>
<polygon fill="none" stroke="#bfbfbf" points="492,-.5 492,-19.5 536,-19.5 536,-.5 492,-.5"/>
<text text-anchor="middle" x="514" y="-7.5" font-family="Helvetica,sans-Serif" font-size="10.00" fill="#000000">vector</text>
</g>
<!-- Node9&#45;&gt;Node10 -->
<g id="edge10" class="edge">
<title>Node9&#45;&gt;Node10</title>
<path fill="none" stroke="#191970" d="M331.8193,-56.3733C374.2004,-45.5854 442.1752,-28.2827 482.0156,-18.1415"/>
<polygon fill="#191970" stroke="#191970" points="482.9172,-21.5237 491.7447,-15.665 481.1904,-14.74 482.9172,-21.5237"/>
</g>
<!-- Node11&#45;&gt;Node2 -->
<g id="edge13" class="edge">
<title>Node11&#45;&gt;Node2</title>
<path fill="none" stroke="#191970" d="M470.7952,-56.4369C421.723,-45.5751 342.5466,-28.0498 296.7854,-17.9209"/>
<polygon fill="#191970" stroke="#191970" points="297.5236,-14.4996 287.0035,-15.7557 296.0107,-21.3342 297.5236,-14.4996"/>
</g>
<!-- Node11&#45;&gt;Node10 -->
<g id="edge14" class="edge">
<title>Node11&#45;&gt;Node10</title>
<path fill="none" stroke="#191970" d="M514,-56.2455C514,-48.9382 514,-38.6944 514,-29.7046"/>
<polygon fill="#191970" stroke="#191970" points="517.5001,-29.6426 514,-19.6427 510.5001,-29.6427 517.5001,-29.6426"/>
</g>
<!-- Node12&#45;&gt;Node2 -->
<g id="edge18" class="edge">
<title>Node12&#45;&gt;Node2</title>
<path fill="none" stroke="#191970" d="M289.0957,-224.233C279.5532,-199.7713 255.2282,-133.6979 247,-76 245.7451,-67.2001 245.6917,-64.7921 247,-56 248.3327,-47.0439 251.0494,-37.419 253.7381,-29.3"/>
<polygon fill="#191970" stroke="#191970" points="257.1067,-30.272 257.1376,-19.6772 250.5064,-27.9402 257.1067,-30.272"/>
</g>
<!-- Node12&#45;&gt;Node6 -->
<g id="edge19" class="edge">
<title>Node12&#45;&gt;Node6</title>
<path fill="none" stroke="#191970" d="M304.1479,-224.2455C313.5087,-216.0549 327.0858,-204.1749 338.1349,-194.5069"/>
<polygon fill="#191970" stroke="#191970" points="340.7588,-196.8618 345.9798,-187.6427 336.1492,-191.5937 340.7588,-196.8618"/>
</g>
<!-- Node13&#45;&gt;Node6 -->
<g id="edge25" class="edge">
<title>Node13&#45;&gt;Node6</title>
<path fill="none" stroke="#191970" d="M552.0487,-280.4428C551.5832,-266.1198 548.533,-239.1547 533,-224 517.8798,-209.248 470.5018,-197.3525 428.7083,-189.3563"/>
<polygon fill="#191970" stroke="#191970" points="429.2555,-185.8981 418.7838,-187.5089 427.9744,-192.7799 429.2555,-185.8981"/>
</g>
<!-- Node13&#45;&gt;Node10 -->
<g id="edge22" class="edge">
<title>Node13&#45;&gt;Node10</title>
<path fill="none" stroke="#191970" d="M557.607,-280.4834C568.1774,-261.6141 590,-217.8343 590,-178 590,-178 590,-178 590,-122 590,-91.3494 587.0191,-81.4913 570,-56 561.8966,-43.8627 549.6399,-33.2805 538.6572,-25.336"/>
<polygon fill="#191970" stroke="#191970" points="540.4519,-22.3227 530.2261,-19.5508 536.4913,-28.0946 540.4519,-22.3227"/>
</g>
<!-- Node13&#45;&gt;Node12 -->
<g id="edge24" class="edge">
<title>Node13&#45;&gt;Node12</title>
<path fill="none" stroke="#191970" d="M507.7706,-280.4369C463.2585,-270.8127 394.551,-255.957 346.8831,-245.6504"/>
<polygon fill="#191970" stroke="#191970" points="347.5608,-242.2161 337.047,-243.5237 346.0814,-249.058 347.5608,-242.2161"/>
</g>
<!-- Node14 -->
<g id="node15" class="node">
<title>Node14</title>
<polygon fill="none" stroke="#bfbfbf" points="618.5,-224.5 618.5,-243.5 691.5,-243.5 691.5,-224.5 618.5,-224.5"/>
<text text-anchor="middle" x="655" y="-231.5" font-family="Helvetica,sans-Serif" font-size="10.00" fill="#000000">Eigen/Dense</text>
</g>
<!-- Node13&#45;&gt;Node14 -->
<g id="edge21" class="edge">
<title>Node13&#45;&gt;Node14</title>
<path fill="none" stroke="#191970" d="M569.9412,-280.2455C586.04,-271.4928 609.8879,-258.527 628.2391,-248.5496"/>
<polygon fill="#191970" stroke="#191970" points="630.1507,-251.4942 637.2644,-243.6427 626.8071,-245.3444 630.1507,-251.4942"/>
</g>
<!-- Node15 -->
<g id="node16" class="node">
<title>Node15</title>
<polygon fill="none" stroke="#bfbfbf" points="709.5,-224.5 709.5,-243.5 750.5,-243.5 750.5,-224.5 709.5,-224.5"/>
<text text-anchor="middle" x="730" y="-231.5" font-family="Helvetica,sans-Serif" font-size="10.00" fill="#000000">string</text>
</g>
<!-- Node13&#45;&gt;Node15 -->
<g id="edge23" class="edge">
<title>Node13&#45;&gt;Node15</title>
<path fill="none" stroke="#191970" d="M583.2414,-280.4923C611.3018,-271.908 653.8573,-258.7796 699.8175,-244.0149"/>
<polygon fill="#191970" stroke="#191970" points="700.9159,-247.3383 709.3614,-240.941 698.7699,-240.6753 700.9159,-247.3383"/>
</g>
<!-- Node16 -->
<g id="node17" class="node">
<title>Node16</title>
<polygon fill="none" stroke="#bfbfbf" points="372,-224.5 372,-243.5 524,-243.5 524,-224.5 372,-224.5"/>
<text text-anchor="middle" x="448" y="-231.5" font-family="Helvetica,sans-Serif" font-size="10.00" fill="#000000">MuJoCoTools/MuJoCoModel.h</text>
</g>
<!-- Node13&#45;&gt;Node16 -->
<g id="edge26" class="edge">
<title>Node13&#45;&gt;Node16</title>
<path fill="none" stroke="#191970" d="M533.8846,-280.2455C517.555,-271.4527 493.329,-258.4079 474.7661,-248.4125"/>
<polygon fill="#191970" stroke="#191970" points="476.3719,-245.3021 465.9078,-243.6427 473.0532,-251.4654 476.3719,-245.3021"/>
</g>
</g>
</svg>
