<?xml version="1.0" encoding="UTF-8" standalone="no"?>
<!DOCTYPE svg PUBLIC "-//W3C//DTD SVG 1.1//EN"
 "http://www.w3.org/Graphics/SVG/1.1/DTD/svg11.dtd">
<!-- Generated by graphviz version 2.40.1 (20161225.0304)
 -->
<!-- Title: src/Generators/GaitGeneratorSnake.h Pages: 1 -->
<svg width="284pt" height="106pt"
 viewBox="0.00 0.00 284.00 106.00" xmlns="http://www.w3.org/2000/svg" xmlns:xlink="http://www.w3.org/1999/xlink">
<g id="graph0" class="graph" transform="scale(1 1) rotate(0) translate(4 102)">
<title>src/Generators/GaitGeneratorSnake.h</title>
<!-- Node6 -->
<g id="node1" class="node">
<title>Node6</title>
<polygon fill="#bfbfbf" stroke="#000000" points="73,-67.5 73,-97.5 218,-97.5 218,-67.5 73,-67.5"/>
<text text-anchor="start" x="81" y="-85.5" font-family="Helvetica,sans-Serif" font-size="10.00" fill="#000000">src/Generators/GaitGenerator</text>
<text text-anchor="middle" x="145.5" y="-74.5" font-family="Helvetica,sans-Serif" font-size="10.00" fill="#000000">Snake.h</text>
</g>
<!-- Node7 -->
<g id="node2" class="node">
<title>Node7</title>
<g id="a_node2"><a xlink:href="GaitGeneratorSnake_8cpp.html" target="_top" xlink:title="src/Generators/GaitGenerator\lSnake.cpp">
<polygon fill="none" stroke="#000000" points="0,-.5 0,-30.5 145,-30.5 145,-.5 0,-.5"/>
<text text-anchor="start" x="8" y="-18.5" font-family="Helvetica,sans-Serif" font-size="10.00" fill="#000000">src/Generators/GaitGenerator</text>
<text text-anchor="middle" x="72.5" y="-7.5" font-family="Helvetica,sans-Serif" font-size="10.00" fill="#000000">Snake.cpp</text>
</a>
</g>
</g>
<!-- Node6&#45;&gt;Node7 -->
<g id="edge1" class="edge">
<title>Node6&#45;&gt;Node7</title>
<path fill="none" stroke="#191970" d="M121.526,-60.4965C110.8733,-50.7193 98.6007,-39.4554 88.9993,-30.6432"/>
<polygon fill="#191970" stroke="#191970" points="119.2011,-63.1134 128.9352,-67.2967 123.9344,-57.9562 119.2011,-63.1134"/>
</g>
<!-- Node8 -->
<g id="node3" class="node">
<title>Node8</title>
<g id="a_node3"><a xlink:href="Robot_8cpp.html" target="_top" xlink:title="src/Robots/Robot.cpp">
<polygon fill="none" stroke="#000000" points="163,-6 163,-25 276,-25 276,-6 163,-6"/>
<text text-anchor="middle" x="219.5" y="-13" font-family="Helvetica,sans-Serif" font-size="10.00" fill="#000000">src/Robots/Robot.cpp</text>
</a>
</g>
</g>
<!-- Node6&#45;&gt;Node8 -->
<g id="edge2" class="edge">
<title>Node6&#45;&gt;Node8</title>
<path fill="none" stroke="#191970" d="M169.7537,-60.5406C183.0196,-48.5296 198.7759,-34.2637 208.9467,-25.055"/>
<polygon fill="#191970" stroke="#191970" points="167.3556,-57.9903 162.2917,-67.2967 172.0539,-63.1794 167.3556,-57.9903"/>
</g>
</g>
</svg>
