<?xml version="1.0" encoding="UTF-8" standalone="no"?>
<!DOCTYPE svg PUBLIC "-//W3C//DTD SVG 1.1//EN"
 "http://www.w3.org/Graphics/SVG/1.1/DTD/svg11.dtd">
<!-- Generated by graphviz version 2.40.1 (20161225.0304)
 -->
<!-- Title: src/Generators/GaitGeneratorSnake.h Pages: 1 -->
<svg width="240pt" height="151pt"
 viewBox="0.00 0.00 240.00 151.00" xmlns="http://www.w3.org/2000/svg" xmlns:xlink="http://www.w3.org/1999/xlink">
<g id="graph0" class="graph" transform="scale(1 1) rotate(0) translate(4 147)">
<title>src/Generators/GaitGeneratorSnake.h</title>
<!-- Node0 -->
<g id="node1" class="node">
<title>Node0</title>
<polygon fill="#bfbfbf" stroke="#000000" points="47.5,-112.5 47.5,-142.5 192.5,-142.5 192.5,-112.5 47.5,-112.5"/>
<text text-anchor="start" x="55.5" y="-130.5" font-family="Helvetica,sans-Serif" font-size="10.00" fill="#000000">src/Generators/GaitGenerator</text>
<text text-anchor="middle" x="120" y="-119.5" font-family="Helvetica,sans-Serif" font-size="10.00" fill="#000000">Snake.h</text>
</g>
<!-- Node1 -->
<g id="node2" class="node">
<title>Node1</title>
<g id="a_node2"><a xlink:href="GaitGenerator_8h.html" target="_top" xlink:title="GaitGenerator.h">
<polygon fill="none" stroke="#000000" points="77,-56.5 77,-75.5 163,-75.5 163,-56.5 77,-56.5"/>
<text text-anchor="middle" x="120" y="-63.5" font-family="Helvetica,sans-Serif" font-size="10.00" fill="#000000">GaitGenerator.h</text>
</a>
</g>
</g>
<!-- Node0&#45;&gt;Node1 -->
<g id="edge1" class="edge">
<title>Node0&#45;&gt;Node1</title>
<path fill="none" stroke="#191970" d="M120,-112.2977C120,-104.3834 120,-94.6043 120,-86.0759"/>
<polygon fill="#191970" stroke="#191970" points="123.5001,-85.8469 120,-75.8469 116.5001,-85.847 123.5001,-85.8469"/>
</g>
<!-- Node2 -->
<g id="node3" class="node">
<title>Node2</title>
<polygon fill="none" stroke="#bfbfbf" points="0,-.5 0,-19.5 52,-19.5 52,-.5 0,-.5"/>
<text text-anchor="middle" x="26" y="-7.5" font-family="Helvetica,sans-Serif" font-size="10.00" fill="#000000">memory</text>
</g>
<!-- Node1&#45;&gt;Node2 -->
<g id="edge2" class="edge">
<title>Node1&#45;&gt;Node2</title>
<path fill="none" stroke="#191970" d="M103.6264,-56.2455C89.0692,-47.5731 67.569,-34.7645 50.8848,-24.825"/>
<polygon fill="#191970" stroke="#191970" points="52.5683,-21.7539 42.1859,-19.6427 48.9856,-27.7676 52.5683,-21.7539"/>
</g>
<!-- Node3 -->
<g id="node4" class="node">
<title>Node3</title>
<polygon fill="none" stroke="#bfbfbf" points="70.5,-.5 70.5,-19.5 111.5,-19.5 111.5,-.5 70.5,-.5"/>
<text text-anchor="middle" x="91" y="-7.5" font-family="Helvetica,sans-Serif" font-size="10.00" fill="#000000">string</text>
</g>
<!-- Node1&#45;&gt;Node3 -->
<g id="edge3" class="edge">
<title>Node1&#45;&gt;Node3</title>
<path fill="none" stroke="#191970" d="M114.9486,-56.2455C110.9981,-48.617 105.3903,-37.7881 100.5942,-28.5267"/>
<polygon fill="#191970" stroke="#191970" points="103.7001,-26.9131 95.9935,-19.6427 97.4841,-30.1321 103.7001,-26.9131"/>
</g>
<!-- Node4 -->
<g id="node5" class="node">
<title>Node4</title>
<polygon fill="none" stroke="#bfbfbf" points="130,-.5 130,-19.5 170,-19.5 170,-.5 130,-.5"/>
<text text-anchor="middle" x="150" y="-7.5" font-family="Helvetica,sans-Serif" font-size="10.00" fill="#000000">utility</text>
</g>
<!-- Node1&#45;&gt;Node4 -->
<g id="edge4" class="edge">
<title>Node1&#45;&gt;Node4</title>
<path fill="none" stroke="#191970" d="M125.2256,-56.2455C129.3123,-48.617 135.1135,-37.7881 140.075,-28.5267"/>
<polygon fill="#191970" stroke="#191970" points="143.1972,-30.1103 144.8343,-19.6427 137.0268,-26.8047 143.1972,-30.1103"/>
</g>
<!-- Node5 -->
<g id="node6" class="node">
<title>Node5</title>
<polygon fill="none" stroke="#bfbfbf" points="188,-.5 188,-19.5 232,-19.5 232,-.5 188,-.5"/>
<text text-anchor="middle" x="210" y="-7.5" font-family="Helvetica,sans-Serif" font-size="10.00" fill="#000000">vector</text>
</g>
<!-- Node1&#45;&gt;Node5 -->
<g id="edge5" class="edge">
<title>Node1&#45;&gt;Node5</title>
<path fill="none" stroke="#191970" d="M135.6768,-56.2455C149.4856,-47.6534 169.8193,-35.0014 185.7292,-25.1018"/>
<polygon fill="#191970" stroke="#191970" points="187.8613,-27.8974 194.5028,-19.6427 184.1632,-21.954 187.8613,-27.8974"/>
</g>
</g>
</svg>
