<?xml version="1.0" encoding="UTF-8" standalone="no"?>
<!DOCTYPE svg PUBLIC "-//W3C//DTD SVG 1.1//EN"
 "http://www.w3.org/Graphics/SVG/1.1/DTD/svg11.dtd">
<!-- Generated by graphviz version 2.40.1 (20161225.0304)
 -->
<!-- Title: src/Generators/GaitGenerator.h Pages: 1 -->
<!--zoomable 229 -->
<svg id="main" version="1.1" xmlns="http://www.w3.org/2000/svg" xmlns:xlink="http://www.w3.org/1999/xlink" xml:space="preserve" onload="init(evt)">
<style type="text/css"><![CDATA[
.edge:hover path { stroke: red; }
.edge:hover polygon { stroke: red; fill: red; }
]]></style>
<script type="text/javascript"><![CDATA[
var edges = document.getElementsByTagName('g');
if (edges && edges.length) {
  for (var i=0;i<edges.length;i++) {
    if (edges[i].id.substr(0,4)=='edge') {
      edges[i].setAttribute('class','edge');
    }
  }
}
]]></script>
        <defs>
                <circle id="rim" cx="0" cy="0" r="7"/>
                <circle id="rim2" cx="0" cy="0" r="3.5"/>
                <g id="zoomPlus">
                        <use xlink:href="#rim" fill="#404040">
                                <set attributeName="fill" to="#808080" begin="zoomplus.mouseover" end="zoomplus.mouseout"/>
                        </use>
                        <path d="M-4,0h8M0,-4v8" fill="none" stroke="white" stroke-width="1.5" pointer-events="none"/>
                </g>
                <g id="zoomMin">
                        <use xlink:href="#rim" fill="#404040">
                                <set attributeName="fill" to="#808080" begin="zoomminus.mouseover" end="zoomminus.mouseout"/>
                        </use>
                        <path d="M-4,0h8" fill="none" stroke="white" stroke-width="1.5" pointer-events="none"/>
                </g>
                <g id="dirArrow">
                        <path fill="none" stroke="white" stroke-width="1.5" d="M0,-3.0v7 M-2.5,-0.5L0,-3.0L2.5,-0.5"/>
                </g>
               <g id="resetDef">
                       <use xlink:href="#rim2" fill="#404040">
                               <set attributeName="fill" to="#808080" begin="reset.mouseover" end="reset.mouseout"/>
                       </use>
               </g>
        </defs>

<script type="text/javascript">
var viewWidth = 1685;
var viewHeight = 229;
var sectionId = 'dynsection-1';
</script>
<script xlink:href="svgpan.js"/>
<svg id="graph" class="graph">
<g id="viewport">
<title>src/Generators/GaitGenerator.h</title>
<!-- Node5 -->
<g id="node1" class="node">
<title>Node5</title>
<polygon fill="#bfbfbf" stroke="#000000" points="694,-201.5 694,-220.5 847,-220.5 847,-201.5 694,-201.5"/>
<text text-anchor="middle" x="770.5" y="-208.5" font-family="Helvetica,sans-Serif" font-size="10.00" fill="#000000">src/Generators/GaitGenerator.h</text>
</g>
<!-- Node6 -->
<g id="node2" class="node">
<title>Node6</title>
<g id="a_node2"><a xlink:href="GaitGenerator_8cpp.html" target="_top" xlink:title="src/Generators/GaitGenerator.cpp">
<polygon fill="none" stroke="#000000" points="201.5,-73 201.5,-92 365.5,-92 365.5,-73 201.5,-73"/>
<text text-anchor="middle" x="283.5" y="-80" font-family="Helvetica,sans-Serif" font-size="10.00" fill="#000000">src/Generators/GaitGenerator.cpp</text>
</a>
</g>
</g>
<!-- Node5&#45;&gt;Node6 -->
<g id="edge1" class="edge">
<title>Node5&#45;&gt;Node6</title>
<path fill="none" stroke="#191970" d="M695.8054,-199.8236C646.9553,-191.8176 581.9652,-179.8442 525.5,-165 444.3632,-143.6699 351.1256,-108.8676 307.8792,-92.1119"/>
<polygon fill="#191970" stroke="#191970" points="695.5445,-203.3269 705.9756,-201.4714 696.6641,-196.417 695.5445,-203.3269"/>
</g>
<!-- Node7 -->
<g id="node3" class="node">
<title>Node7</title>
<g id="a_node3"><a xlink:href="GaitGeneratorMonoped_8h.html" target="_top" xlink:title="src/Generators/GaitGenerator\lMonoped.h">
<polygon fill="none" stroke="#000000" points="156,-134.5 156,-164.5 301,-164.5 301,-134.5 156,-134.5"/>
<text text-anchor="start" x="164" y="-152.5" font-family="Helvetica,sans-Serif" font-size="10.00" fill="#000000">src/Generators/GaitGenerator</text>
<text text-anchor="middle" x="228.5" y="-141.5" font-family="Helvetica,sans-Serif" font-size="10.00" fill="#000000">Monoped.h</text>
</a>
</g>
</g>
<!-- Node5&#45;&gt;Node7 -->
<g id="edge2" class="edge">
<title>Node5&#45;&gt;Node7</title>
<path fill="none" stroke="#191970" d="M683.9669,-201.1812C577.9881,-189.1559 400.3681,-169.0016 301.1526,-157.7438"/>
<polygon fill="#191970" stroke="#191970" points="683.6633,-204.6691 693.9942,-202.319 684.4526,-197.7138 683.6633,-204.6691"/>
</g>
<!-- Node10 -->
<g id="node6" class="node">
<title>Node10</title>
<g id="a_node6"><a xlink:href="GaitGeneratorBiped_8h.html" target="_top" xlink:title="src/Generators/GaitGenerator\lBiped.h">
<polygon fill="none" stroke="#000000" points="535,-134.5 535,-164.5 680,-164.5 680,-134.5 535,-134.5"/>
<text text-anchor="start" x="543" y="-152.5" font-family="Helvetica,sans-Serif" font-size="10.00" fill="#000000">src/Generators/GaitGenerator</text>
<text text-anchor="middle" x="607.5" y="-141.5" font-family="Helvetica,sans-Serif" font-size="10.00" fill="#000000">Biped.h</text>
</a>
</g>
</g>
<!-- Node5&#45;&gt;Node10 -->
<g id="edge6" class="edge">
<title>Node5&#45;&gt;Node10</title>
<path fill="none" stroke="#191970" d="M735.609,-197.8356C709.7202,-188.0678 674.3797,-174.7338 647.3743,-164.5446"/>
<polygon fill="#191970" stroke="#191970" points="734.4395,-201.1351 745.0313,-201.3906 736.9106,-194.5858 734.4395,-201.1351"/>
</g>
<!-- Node14 -->
<g id="node10" class="node">
<title>Node14</title>
<g id="a_node10"><a xlink:href="GaitGeneratorQuadruped_8h.html" target="_top" xlink:title="src/Generators/GaitGenerator\lQuadruped.h">
<polygon fill="none" stroke="#000000" points="698,-134.5 698,-164.5 843,-164.5 843,-134.5 698,-134.5"/>
<text text-anchor="start" x="706" y="-152.5" font-family="Helvetica,sans-Serif" font-size="10.00" fill="#000000">src/Generators/GaitGenerator</text>
<text text-anchor="middle" x="770.5" y="-141.5" font-family="Helvetica,sans-Serif" font-size="10.00" fill="#000000">Quadruped.h</text>
</a>
</g>
</g>
<!-- Node5&#45;&gt;Node14 -->
<g id="edge13" class="edge">
<title>Node5&#45;&gt;Node14</title>
<path fill="none" stroke="#191970" d="M770.5,-191.3693C770.5,-182.681 770.5,-172.6241 770.5,-164.5446"/>
<polygon fill="#191970" stroke="#191970" points="767.0001,-191.3906 770.5,-201.3906 774.0001,-191.3907 767.0001,-191.3906"/>
</g>
<!-- Node16 -->
<g id="node12" class="node">
<title>Node16</title>
<g id="a_node12"><a xlink:href="GaitGeneratorBipedFeet_8h.html" target="_top" xlink:title="src/Generators/GaitGenerator\lBipedFeet.h">
<polygon fill="none" stroke="#000000" points="1326,-134.5 1326,-164.5 1471,-164.5 1471,-134.5 1326,-134.5"/>
<text text-anchor="start" x="1334" y="-152.5" font-family="Helvetica,sans-Serif" font-size="10.00" fill="#000000">src/Generators/GaitGenerator</text>
<text text-anchor="middle" x="1398.5" y="-141.5" font-family="Helvetica,sans-Serif" font-size="10.00" fill="#000000">BipedFeet.h</text>
</a>
</g>
</g>
<!-- Node5&#45;&gt;Node16 -->
<g id="edge17" class="edge">
<title>Node5&#45;&gt;Node16</title>
<path fill="none" stroke="#191970" d="M857.3582,-203.9108C957.6885,-195.5239 1127.6753,-180.705 1273.5,-165 1290.4587,-163.1736 1308.6874,-161.0212 1325.838,-158.9111"/>
<polygon fill="#191970" stroke="#191970" points="856.946,-200.4329 847.2715,-204.7519 857.5277,-207.4087 856.946,-200.4329"/>
</g>
<!-- Node20 -->
<g id="node16" class="node">
<title>Node20</title>
<g id="a_node16"><a xlink:href="GaitGeneratorSnake_8h.html" target="_top" xlink:title="src/Generators/GaitGenerator\lSnake.h">
<polygon fill="none" stroke="#000000" points="888,-134.5 888,-164.5 1033,-164.5 1033,-134.5 888,-134.5"/>
<text text-anchor="start" x="896" y="-152.5" font-family="Helvetica,sans-Serif" font-size="10.00" fill="#000000">src/Generators/GaitGenerator</text>
<text text-anchor="middle" x="960.5" y="-141.5" font-family="Helvetica,sans-Serif" font-size="10.00" fill="#000000">Snake.h</text>
</a>
</g>
</g>
<!-- Node5&#45;&gt;Node20 -->
<g id="edge23" class="edge">
<title>Node5&#45;&gt;Node20</title>
<path fill="none" stroke="#191970" d="M809.9799,-198.221C840.2571,-188.4207 882.126,-174.8684 914.0208,-164.5446"/>
<polygon fill="#191970" stroke="#191970" points="808.6237,-194.9811 800.1875,-201.3906 810.7794,-201.6409 808.6237,-194.9811"/>
</g>
<!-- Node22 -->
<g id="node18" class="node">
<title>Node22</title>
<g id="a_node18"><a xlink:href="Robot_8h.html" target="_top" xlink:title="src/Robots/Robot.h">
<polygon fill="none" stroke="#000000" points="1162.5,-140 1162.5,-159 1264.5,-159 1264.5,-140 1162.5,-140"/>
<text text-anchor="middle" x="1213.5" y="-147" font-family="Helvetica,sans-Serif" font-size="10.00" fill="#000000">src/Robots/Robot.h</text>
</a>
</g>
</g>
<!-- Node5&#45;&gt;Node22 -->
<g id="edge26" class="edge">
<title>Node5&#45;&gt;Node22</title>
<path fill="none" stroke="#191970" d="M849.1606,-200.0799C939.572,-187.5284 1085.3499,-167.2906 1162.2355,-156.6169"/>
<polygon fill="#191970" stroke="#191970" points="848.6564,-196.6162 839.2327,-201.4581 849.619,-203.5497 848.6564,-196.6162"/>
</g>
<!-- Node7&#45;&gt;Node6 -->
<g id="edge3" class="edge">
<title>Node7&#45;&gt;Node6</title>
<path fill="none" stroke="#191970" d="M247.3599,-126.5252C257.0396,-114.7336 268.3089,-101.0055 275.6564,-92.055"/>
<polygon fill="#191970" stroke="#191970" points="244.6201,-124.3466 240.9804,-134.2967 250.0306,-128.7881 244.6201,-124.3466"/>
</g>
<!-- Node8 -->
<g id="node4" class="node">
<title>Node8</title>
<g id="a_node4"><a xlink:href="GaitGeneratorMonoped_8cpp.html" target="_top" xlink:title="src/Generators/GaitGenerator\lMonoped.cpp">
<polygon fill="none" stroke="#000000" points="0,-67.5 0,-97.5 145,-97.5 145,-67.5 0,-67.5"/>
<text text-anchor="start" x="8" y="-85.5" font-family="Helvetica,sans-Serif" font-size="10.00" fill="#000000">src/Generators/GaitGenerator</text>
<text text-anchor="middle" x="72.5" y="-74.5" font-family="Helvetica,sans-Serif" font-size="10.00" fill="#000000">Monoped.cpp</text>
</a>
</g>
</g>
<!-- Node7&#45;&gt;Node8 -->
<g id="edge4" class="edge">
<title>Node7&#45;&gt;Node8</title>
<path fill="none" stroke="#191970" d="M184.1484,-130.4516C159.9047,-120.0392 130.2955,-107.3224 107.6621,-97.6017"/>
<polygon fill="#191970" stroke="#191970" points="182.9209,-133.7335 193.4906,-134.4639 185.6834,-127.3016 182.9209,-133.7335"/>
</g>
<!-- Node9 -->
<g id="node5" class="node">
<title>Node9</title>
<g id="a_node5"><a xlink:href="Robot_8cpp.html" target="_top" xlink:title="src/Robots/Robot.cpp">
<polygon fill="none" stroke="#000000" points="803,-6 803,-25 916,-25 916,-6 803,-6"/>
<text text-anchor="middle" x="859.5" y="-13" font-family="Helvetica,sans-Serif" font-size="10.00" fill="#000000">src/Robots/Robot.cpp</text>
</a>
</g>
</g>
<!-- Node7&#45;&gt;Node9 -->
<g id="edge5" class="edge">
<title>Node7&#45;&gt;Node9</title>
<path fill="none" stroke="#191970" d="M206.1192,-126.6899C191.1625,-108.6993 176.8494,-83.9056 192.5,-67 202.8373,-55.8338 643.4764,-28.4231 802.7828,-18.8585"/>
<polygon fill="#191970" stroke="#191970" points="203.6952,-129.2332 212.9312,-134.4243 208.9483,-124.6066 203.6952,-129.2332"/>
</g>
<!-- Node10&#45;&gt;Node6 -->
<g id="edge7" class="edge">
<title>Node10&#45;&gt;Node6</title>
<path fill="none" stroke="#191970" d="M524.6323,-132.3638C462.6276,-119.5418 380.1209,-102.4803 329.4659,-92.0053"/>
<polygon fill="#191970" stroke="#191970" points="524.2865,-135.8662 534.7881,-134.4639 525.7041,-129.0113 524.2865,-135.8662"/>
</g>
<!-- Node10&#45;&gt;Node9 -->
<g id="edge12" class="edge">
<title>Node10&#45;&gt;Node9</title>
<path fill="none" stroke="#191970" d="M644.9891,-129.5653C700.0061,-100.3102 800.5127,-46.8663 841.4384,-25.1042"/>
<polygon fill="#191970" stroke="#191970" points="643.1038,-126.6037 635.9177,-134.389 646.3904,-132.7842 643.1038,-126.6037"/>
</g>
<!-- Node11 -->
<g id="node7" class="node">
<title>Node11</title>
<g id="a_node7"><a xlink:href="GaitGeneratorBiped_8cpp.html" target="_top" xlink:title="src/Generators/GaitGenerator\lBiped.cpp">
<polygon fill="none" stroke="#000000" points="547,-67.5 547,-97.5 692,-97.5 692,-67.5 547,-67.5"/>
<text text-anchor="start" x="555" y="-85.5" font-family="Helvetica,sans-Serif" font-size="10.00" fill="#000000">src/Generators/GaitGenerator</text>
<text text-anchor="middle" x="619.5" y="-74.5" font-family="Helvetica,sans-Serif" font-size="10.00" fill="#000000">Biped.cpp</text>
</a>
</g>
</g>
<!-- Node10&#45;&gt;Node11 -->
<g id="edge8" class="edge">
<title>Node10&#45;&gt;Node11</title>
<path fill="none" stroke="#191970" d="M612.0102,-124.3179C613.618,-115.3414 615.378,-105.5143 616.7878,-97.6432"/>
<polygon fill="#191970" stroke="#191970" points="608.5409,-123.8362 610.223,-134.2967 615.4312,-125.0704 608.5409,-123.8362"/>
</g>
<!-- Node12 -->
<g id="node8" class="node">
<title>Node12</title>
<g id="a_node8"><a xlink:href="GaitGeneratorBipedArms_8h.html" target="_top" xlink:title="src/Generators/GaitGenerator\lBipedArms.h">
<polygon fill="none" stroke="#000000" points="384,-67.5 384,-97.5 529,-97.5 529,-67.5 384,-67.5"/>
<text text-anchor="start" x="392" y="-85.5" font-family="Helvetica,sans-Serif" font-size="10.00" fill="#000000">src/Generators/GaitGenerator</text>
<text text-anchor="middle" x="456.5" y="-74.5" font-family="Helvetica,sans-Serif" font-size="10.00" fill="#000000">BipedArms.h</text>
</a>
</g>
</g>
<!-- Node10&#45;&gt;Node12 -->
<g id="edge9" class="edge">
<title>Node10&#45;&gt;Node12</title>
<path fill="none" stroke="#191970" d="M564.2582,-130.3132C540.8497,-119.9267 512.3461,-107.2794 490.5351,-97.6017"/>
<polygon fill="#191970" stroke="#191970" points="563.0525,-133.6073 573.6127,-134.4639 565.8916,-127.2089 563.0525,-133.6073"/>
</g>
<!-- Node12&#45;&gt;Node9 -->
<g id="edge11" class="edge">
<title>Node12&#45;&gt;Node9</title>
<path fill="none" stroke="#191970" d="M539.4214,-66.6877C637.4828,-49.5834 740.7615,-33.4897 802.9909,-24.0046"/>
<polygon fill="#191970" stroke="#191970" points="538.5849,-63.2808 529.3385,-68.4533 539.7923,-70.1759 538.5849,-63.2808"/>
</g>
<!-- Node13 -->
<g id="node9" class="node">
<title>Node13</title>
<g id="a_node9"><a xlink:href="GaitGeneratorBipedArms_8cpp.html" target="_top" xlink:title="src/Generators/GaitGenerator\lBipedArms.cpp">
<polygon fill="none" stroke="#000000" points="384,-.5 384,-30.5 529,-30.5 529,-.5 384,-.5"/>
<text text-anchor="start" x="392" y="-18.5" font-family="Helvetica,sans-Serif" font-size="10.00" fill="#000000">src/Generators/GaitGenerator</text>
<text text-anchor="middle" x="456.5" y="-7.5" font-family="Helvetica,sans-Serif" font-size="10.00" fill="#000000">BipedArms.cpp</text>
</a>
</g>
</g>
<!-- Node12&#45;&gt;Node13 -->
<g id="edge10" class="edge">
<title>Node12&#45;&gt;Node13</title>
<path fill="none" stroke="#191970" d="M456.5,-57.0249C456.5,-48.128 456.5,-38.4287 456.5,-30.6432"/>
<polygon fill="#191970" stroke="#191970" points="453.0001,-57.2966 456.5,-67.2967 460.0001,-57.2967 453.0001,-57.2966"/>
</g>
<!-- Node14&#45;&gt;Node6 -->
<g id="edge14" class="edge">
<title>Node14&#45;&gt;Node6</title>
<path fill="none" stroke="#191970" d="M687.4413,-133.9107C547.8713,-113.1552 510.3078,-117.3365 374.5,-98 362.1244,-96.2379 348.8423,-94.1107 336.3549,-92.0044"/>
<polygon fill="#191970" stroke="#191970" points="687.2601,-137.4228 697.6694,-135.4489 688.3011,-130.5006 687.2601,-137.4228"/>
</g>
<!-- Node14&#45;&gt;Node9 -->
<g id="edge16" class="edge">
<title>Node14&#45;&gt;Node9</title>
<path fill="none" stroke="#191970" d="M767.0372,-124.2924C765.9298,-106.9588 767.0927,-84.077 777.5,-67 789.8354,-46.7592 813.4581,-33.1919 832.1924,-25.087"/>
<polygon fill="#191970" stroke="#191970" points="763.5535,-124.6306 767.9578,-134.2666 770.5239,-123.9872 763.5535,-124.6306"/>
</g>
<!-- Node15 -->
<g id="node11" class="node">
<title>Node15</title>
<g id="a_node11"><a xlink:href="GaitGeneratorQuadruped_8cpp.html" target="_top" xlink:title="src/Generators/GaitGenerator\lQuadruped.cpp">
<polygon fill="none" stroke="#000000" points="787,-67.5 787,-97.5 932,-97.5 932,-67.5 787,-67.5"/>
<text text-anchor="start" x="795" y="-85.5" font-family="Helvetica,sans-Serif" font-size="10.00" fill="#000000">src/Generators/GaitGenerator</text>
<text text-anchor="middle" x="859.5" y="-74.5" font-family="Helvetica,sans-Serif" font-size="10.00" fill="#000000">Quadruped.cpp</text>
</a>
</g>
</g>
<!-- Node14&#45;&gt;Node15 -->
<g id="edge15" class="edge">
<title>Node14&#45;&gt;Node15</title>
<path fill="none" stroke="#191970" d="M798.9743,-128.0643C812.1338,-118.1577 827.4513,-106.6265 839.3844,-97.6432"/>
<polygon fill="#191970" stroke="#191970" points="796.5797,-125.486 790.6955,-134.2967 800.7897,-131.0785 796.5797,-125.486"/>
</g>
<!-- Node16&#45;&gt;Node9 -->
<g id="edge22" class="edge">
<title>Node16&#45;&gt;Node9</title>
<path fill="none" stroke="#191970" d="M1378.8165,-126.7112C1360.6121,-107.3078 1331.7199,-80.4948 1300.5,-67 1232.663,-37.6775 1019.0321,-23.3881 916.0724,-18.0625"/>
<polygon fill="#191970" stroke="#191970" points="1376.3808,-129.2342 1385.7104,-134.255 1381.5481,-124.512 1376.3808,-129.2342"/>
</g>
<!-- Node17 -->
<g id="node13" class="node">
<title>Node17</title>
<g id="a_node13"><a xlink:href="GaitGeneratorBipedFeet_8cpp.html" target="_top" xlink:title="src/Generators/GaitGenerator\lBipedFeet.cpp">
<polygon fill="none" stroke="#000000" points="1369,-67.5 1369,-97.5 1514,-97.5 1514,-67.5 1369,-67.5"/>
<text text-anchor="start" x="1377" y="-85.5" font-family="Helvetica,sans-Serif" font-size="10.00" fill="#000000">src/Generators/GaitGenerator</text>
<text text-anchor="middle" x="1441.5" y="-74.5" font-family="Helvetica,sans-Serif" font-size="10.00" fill="#000000">BipedFeet.cpp</text>
</a>
</g>
</g>
<!-- Node16&#45;&gt;Node17 -->
<g id="edge18" class="edge">
<title>Node16&#45;&gt;Node17</title>
<path fill="none" stroke="#191970" d="M1413.7275,-125.7735C1419.7334,-116.4154 1426.4551,-105.9421 1431.7812,-97.6432"/>
<polygon fill="#191970" stroke="#191970" points="1410.7131,-123.9903 1408.2574,-134.2967 1416.6042,-127.7712 1410.7131,-123.9903"/>
</g>
<!-- Node18 -->
<g id="node14" class="node">
<title>Node18</title>
<g id="a_node14"><a xlink:href="GaitGeneratorBipedFeet3D_8h.html" target="_top" xlink:title="src/Generators/GaitGenerator\lBipedFeet3D.h">
<polygon fill="none" stroke="#000000" points="1532,-67.5 1532,-97.5 1677,-97.5 1677,-67.5 1532,-67.5"/>
<text text-anchor="start" x="1540" y="-85.5" font-family="Helvetica,sans-Serif" font-size="10.00" fill="#000000">src/Generators/GaitGenerator</text>
<text text-anchor="middle" x="1604.5" y="-74.5" font-family="Helvetica,sans-Serif" font-size="10.00" fill="#000000">BipedFeet3D.h</text>
</a>
</g>
</g>
<!-- Node16&#45;&gt;Node18 -->
<g id="edge19" class="edge">
<title>Node16&#45;&gt;Node18</title>
<path fill="none" stroke="#191970" d="M1454.5323,-131.2759C1486.9985,-120.7165 1527.3869,-107.5805 1558.0679,-97.6017"/>
<polygon fill="#191970" stroke="#191970" points="1453.1575,-128.0425 1444.7304,-134.4639 1455.3226,-134.6993 1453.1575,-128.0425"/>
</g>
<!-- Node18&#45;&gt;Node9 -->
<g id="edge21" class="edge">
<title>Node18&#45;&gt;Node9</title>
<path fill="none" stroke="#191970" d="M1521.4883,-66.8141C1291.9062,-36.5954 1029.3688,-22.7345 916.1286,-17.7574"/>
<polygon fill="#191970" stroke="#191970" points="1521.3308,-70.3239 1531.7049,-68.1727 1522.2536,-63.3849 1521.3308,-70.3239"/>
</g>
<!-- Node19 -->
<g id="node15" class="node">
<title>Node19</title>
<g id="a_node15"><a xlink:href="GaitGeneratorBipedFeet3D_8cpp.html" target="_top" xlink:title="src/Generators/GaitGenerator\lBipedFeet3D.cpp">
<polygon fill="none" stroke="#000000" points="1532,-.5 1532,-30.5 1677,-30.5 1677,-.5 1532,-.5"/>
<text text-anchor="start" x="1540" y="-18.5" font-family="Helvetica,sans-Serif" font-size="10.00" fill="#000000">src/Generators/GaitGenerator</text>
<text text-anchor="middle" x="1604.5" y="-7.5" font-family="Helvetica,sans-Serif" font-size="10.00" fill="#000000">BipedFeet3D.cpp</text>
</a>
</g>
</g>
<!-- Node18&#45;&gt;Node19 -->
<g id="edge20" class="edge">
<title>Node18&#45;&gt;Node19</title>
<path fill="none" stroke="#191970" d="M1604.5,-57.0249C1604.5,-48.128 1604.5,-38.4287 1604.5,-30.6432"/>
<polygon fill="#191970" stroke="#191970" points="1601.0001,-57.2966 1604.5,-67.2967 1608.0001,-57.2967 1601.0001,-57.2966"/>
</g>
<!-- Node20&#45;&gt;Node9 -->
<g id="edge25" class="edge">
<title>Node20&#45;&gt;Node9</title>
<path fill="none" stroke="#191970" d="M959.2966,-124.3514C957.3602,-106.8638 952.5037,-83.7732 940.5,-67 926.4378,-47.3504 902.3193,-33.4381 884.0478,-25.0677"/>
<polygon fill="#191970" stroke="#191970" points="955.8175,-124.7465 960.1626,-134.4093 962.7917,-124.1459 955.8175,-124.7465"/>
</g>
<!-- Node21 -->
<g id="node17" class="node">
<title>Node21</title>
<g id="a_node17"><a xlink:href="GaitGeneratorSnake_8cpp.html" target="_top" xlink:title="src/Generators/GaitGenerator\lSnake.cpp">
<polygon fill="none" stroke="#000000" points="989,-67.5 989,-97.5 1134,-97.5 1134,-67.5 989,-67.5"/>
<text text-anchor="start" x="997" y="-85.5" font-family="Helvetica,sans-Serif" font-size="10.00" fill="#000000">src/Generators/GaitGenerator</text>
<text text-anchor="middle" x="1061.5" y="-74.5" font-family="Helvetica,sans-Serif" font-size="10.00" fill="#000000">Snake.cpp</text>
</a>
</g>
</g>
<!-- Node20&#45;&gt;Node21 -->
<g id="edge24" class="edge">
<title>Node20&#45;&gt;Node21</title>
<path fill="none" stroke="#191970" d="M991.7119,-128.7951C1006.8457,-118.7558 1024.6992,-106.9124 1038.5598,-97.7177"/>
<polygon fill="#191970" stroke="#191970" points="989.5648,-126.0193 983.1664,-134.4639 993.4344,-131.8525 989.5648,-126.0193"/>
</g>
<!-- Node22&#45;&gt;Node9 -->
<g id="edge27" class="edge">
<title>Node22&#45;&gt;Node9</title>
<path fill="none" stroke="#191970" d="M1240.9335,-134.797C1268.5147,-118.1703 1304.2029,-90.3696 1283.5,-67 1259.5292,-39.9415 1026.0651,-24.2238 916.1658,-18.2697"/>
<polygon fill="#191970" stroke="#191970" points="1238.8803,-131.9417 1231.9839,-139.9847 1242.3907,-137.9978 1238.8803,-131.9417"/>
</g>
<!-- Node23 -->
<g id="node19" class="node">
<title>Node23</title>
<g id="a_node19"><a xlink:href="test__quaternion_8cpp.html" target="_top" xlink:title="test/test_quaternion.cpp">
<polygon fill="none" stroke="#000000" points="1152.5,-73 1152.5,-92 1274.5,-92 1274.5,-73 1152.5,-73"/>
<text text-anchor="middle" x="1213.5" y="-80" font-family="Helvetica,sans-Serif" font-size="10.00" fill="#000000">test/test_quaternion.cpp</text>
</a>
</g>
</g>
<!-- Node22&#45;&gt;Node23 -->
<g id="edge28" class="edge">
<title>Node22&#45;&gt;Node23</title>
<path fill="none" stroke="#191970" d="M1213.5,-129.6079C1213.5,-117.214 1213.5,-101.8263 1213.5,-92.0817"/>
<polygon fill="#191970" stroke="#191970" points="1210.0001,-129.9005 1213.5,-139.9005 1217.0001,-129.9006 1210.0001,-129.9005"/>
</g>
</g>
</svg>
        <g id="navigator" transform="translate(0 0)" fill="#404254">
                <rect fill="#f2f5e9" fill-opacity="0.5" stroke="#606060" stroke-width=".5" x="0" y="0" width="60" height="60"/>
                <use id="zoomplus" xlink:href="#zoomPlus" x="17" y="9" onmousedown="handleZoom(evt,'in')"/>
                <use id="zoomminus" xlink:href="#zoomMin" x="42" y="9" onmousedown="handleZoom(evt,'out')"/>
                <use id="reset" xlink:href="#resetDef" x="30" y="36" onmousedown="handleReset()"/>
                <g id="arrowUp" xlink:href="#dirArrow" transform="translate(30 24)" onmousedown="handlePan(0,-1)">
                  <use xlink:href="#rim" fill="#404040">
                        <set attributeName="fill" to="#808080" begin="arrowUp.mouseover" end="arrowUp.mouseout"/>
                  </use>
                  <path fill="none" stroke="white" stroke-width="1.5" d="M0,-3.0v7 M-2.5,-0.5L0,-3.0L2.5,-0.5"/>
                </g>
                <g id="arrowRight" xlink:href="#dirArrow" transform="rotate(90) translate(36 -43)" onmousedown="handlePan(1,0)">
                  <use xlink:href="#rim" fill="#404040">
                        <set attributeName="fill" to="#808080" begin="arrowRight.mouseover" end="arrowRight.mouseout"/>
                  </use>
                  <path fill="none" stroke="white" stroke-width="1.5" d="M0,-3.0v7 M-2.5,-0.5L0,-3.0L2.5,-0.5"/>
                </g>
                <g id="arrowDown" xlink:href="#dirArrow" transform="rotate(180) translate(-30 -48)" onmousedown="handlePan(0,1)">
                  <use xlink:href="#rim" fill="#404040">
                        <set attributeName="fill" to="#808080" begin="arrowDown.mouseover" end="arrowDown.mouseout"/>
                  </use>
                  <path fill="none" stroke="white" stroke-width="1.5" d="M0,-3.0v7 M-2.5,-0.5L0,-3.0L2.5,-0.5"/>
                </g>
                <g id="arrowLeft" xlink:href="#dirArrow" transform="rotate(270) translate(-36 17)" onmousedown="handlePan(-1,0)">
                  <use xlink:href="#rim" fill="#404040">
                        <set attributeName="fill" to="#808080" begin="arrowLeft.mouseover" end="arrowLeft.mouseout"/>
                  </use>
                  <path fill="none" stroke="white" stroke-width="1.5" d="M0,-3.0v7 M-2.5,-0.5L0,-3.0L2.5,-0.5"/>
                </g>
        </g>
        <svg viewBox="0 0 15 15" width="100%" height="30px" preserveAspectRatio="xMaxYMin meet">
         <g id="arrow_out" transform="scale(0.3 0.3)">
          <a xlink:href="GaitGenerator_8h__dep__incl_org.svg" target="_base">
           <rect id="button" ry="5" rx="5" y="6" x="6" height="38" width="38"
                fill="#f2f5e9" fill-opacity="0.5" stroke="#606060" stroke-width="1.0"/>
           <path id="arrow"
             d="M 11.500037,31.436501 C 11.940474,20.09759 22.043105,11.32322 32.158766,21.979434 L 37.068811,17.246167 C 37.068811,17.246167 37.088388,32 37.088388,32 L 22.160133,31.978069 C 22.160133,31.978069 26.997745,27.140456 26.997745,27.140456 C 18.528582,18.264221 13.291696,25.230495 11.500037,31.436501 z"
             style="fill:#404040;"/>
          </a>
         </g>
        </svg>
</svg>
