<?xml version="1.0" encoding="UTF-8" standalone="no"?>
<!DOCTYPE svg PUBLIC "-//W3C//DTD SVG 1.1//EN"
 "http://www.w3.org/Graphics/SVG/1.1/DTD/svg11.dtd">
<!-- Generated by graphviz version 2.40.1 (20161225.0304)
 -->
<!-- Title: src/Terrain/HeightMap.h Pages: 1 -->
<!--zoomable 196 -->
<svg id="main" version="1.1" xmlns="http://www.w3.org/2000/svg" xmlns:xlink="http://www.w3.org/1999/xlink" xml:space="preserve" onload="init(evt)">
<style type="text/css"><![CDATA[
.edge:hover path { stroke: red; }
.edge:hover polygon { stroke: red; fill: red; }
]]></style>
<script type="text/javascript"><![CDATA[
var edges = document.getElementsByTagName('g');
if (edges && edges.length) {
  for (var i=0;i<edges.length;i++) {
    if (edges[i].id.substr(0,4)=='edge') {
      edges[i].setAttribute('class','edge');
    }
  }
}
]]></script>
        <defs>
                <circle id="rim" cx="0" cy="0" r="7"/>
                <circle id="rim2" cx="0" cy="0" r="3.5"/>
                <g id="zoomPlus">
                        <use xlink:href="#rim" fill="#404040">
                                <set attributeName="fill" to="#808080" begin="zoomplus.mouseover" end="zoomplus.mouseout"/>
                        </use>
                        <path d="M-4,0h8M0,-4v8" fill="none" stroke="white" stroke-width="1.5" pointer-events="none"/>
                </g>
                <g id="zoomMin">
                        <use xlink:href="#rim" fill="#404040">
                                <set attributeName="fill" to="#808080" begin="zoomminus.mouseover" end="zoomminus.mouseout"/>
                        </use>
                        <path d="M-4,0h8" fill="none" stroke="white" stroke-width="1.5" pointer-events="none"/>
                </g>
                <g id="dirArrow">
                        <path fill="none" stroke="white" stroke-width="1.5" d="M0,-3.0v7 M-2.5,-0.5L0,-3.0L2.5,-0.5"/>
                </g>
               <g id="resetDef">
                       <use xlink:href="#rim2" fill="#404040">
                               <set attributeName="fill" to="#808080" begin="reset.mouseover" end="reset.mouseout"/>
                       </use>
               </g>
        </defs>

<script type="text/javascript">
var viewWidth = 1098;
var viewHeight = 196;
var sectionId = 'dynsection-1';
</script>
<script xlink:href="svgpan.js"/>
<svg id="graph" class="graph">
<g id="viewport">
<title>src/Terrain/HeightMap.h</title>
<!-- Node8 -->
<g id="node1" class="node">
<title>Node8</title>
<polygon fill="#bfbfbf" stroke="#000000" points="570.5,-168.5 570.5,-187.5 692.5,-187.5 692.5,-168.5 570.5,-168.5"/>
<text text-anchor="middle" x="631.5" y="-175.5" font-family="Helvetica,sans-Serif" font-size="10.00" fill="#000000">src/Terrain/HeightMap.h</text>
</g>
<!-- Node9 -->
<g id="node2" class="node">
<title>Node9</title>
<g id="a_node2"><a xlink:href="ForceConstraint_8h.html" target="_top" xlink:title="src/Constraints/ForceConstraint.h">
<polygon fill="none" stroke="#000000" points="188.5,-112.5 188.5,-131.5 352.5,-131.5 352.5,-112.5 188.5,-112.5"/>
<text text-anchor="middle" x="270.5" y="-119.5" font-family="Helvetica,sans-Serif" font-size="10.00" fill="#000000">src/Constraints/ForceConstraint.h</text>
</a>
</g>
</g>
<!-- Node8&#45;&gt;Node9 -->
<g id="edge1" class="edge">
<title>Node8&#45;&gt;Node9</title>
<path fill="none" stroke="#191970" d="M560.2676,-166.9501C493.6835,-156.6213 395.2927,-141.3584 332.0391,-131.5462"/>
<polygon fill="#191970" stroke="#191970" points="559.8429,-170.426 570.2613,-168.5004 560.916,-163.5087 559.8429,-170.426"/>
</g>
<!-- Node12 -->
<g id="node5" class="node">
<title>Node12</title>
<g id="a_node5"><a xlink:href="TerrainConstraint_8h.html" target="_top" xlink:title="src/Constraints/TerrainConstraint.h">
<polygon fill="none" stroke="#000000" points="370.5,-112.5 370.5,-131.5 540.5,-131.5 540.5,-112.5 370.5,-112.5"/>
<text text-anchor="middle" x="455.5" y="-119.5" font-family="Helvetica,sans-Serif" font-size="10.00" fill="#000000">src/Constraints/TerrainConstraint.h</text>
</a>
</g>
</g>
<!-- Node8&#45;&gt;Node12 -->
<g id="edge4" class="edge">
<title>Node8&#45;&gt;Node12</title>
<path fill="none" stroke="#191970" d="M591.6596,-165.3235C559.3827,-155.0536 514.6148,-140.8093 485.3607,-131.5011"/>
<polygon fill="#191970" stroke="#191970" points="590.654,-168.6764 601.2445,-168.3733 592.7765,-162.0059 590.654,-168.6764"/>
</g>
<!-- Node14 -->
<g id="node7" class="node">
<title>Node14</title>
<g id="a_node7"><a xlink:href="NlpFormulation_8h.html" target="_top" xlink:title="src/Problem/NlpFormulation.h">
<polygon fill="none" stroke="#000000" points="558.5,-112.5 558.5,-131.5 704.5,-131.5 704.5,-112.5 558.5,-112.5"/>
<text text-anchor="middle" x="631.5" y="-119.5" font-family="Helvetica,sans-Serif" font-size="10.00" fill="#000000">src/Problem/NlpFormulation.h</text>
</a>
</g>
</g>
<!-- Node8&#45;&gt;Node14 -->
<g id="edge7" class="edge">
<title>Node8&#45;&gt;Node14</title>
<path fill="none" stroke="#191970" d="M631.5,-158.1575C631.5,-149.155 631.5,-138.9199 631.5,-131.6427"/>
<polygon fill="#191970" stroke="#191970" points="628.0001,-158.2455 631.5,-168.2455 635.0001,-158.2456 628.0001,-158.2455"/>
</g>
<!-- Node21 -->
<g id="node14" class="node">
<title>Node21</title>
<g id="a_node14"><a xlink:href="HeightMap_8cpp.html" target="_top" xlink:title="src/Terrain/HeightMap.cpp">
<polygon fill="none" stroke="#000000" points="763.5,-56.5 763.5,-75.5 895.5,-75.5 895.5,-56.5 763.5,-56.5"/>
<text text-anchor="middle" x="829.5" y="-63.5" font-family="Helvetica,sans-Serif" font-size="10.00" fill="#000000">src/Terrain/HeightMap.cpp</text>
</a>
</g>
</g>
<!-- Node8&#45;&gt;Node21 -->
<g id="edge15" class="edge">
<title>Node8&#45;&gt;Node21</title>
<path fill="none" stroke="#191970" d="M657.6533,-163.3816C673.7688,-154.3607 694.848,-142.5377 713.5,-132 748.8036,-112.0547 790.0474,-88.5366 812.6127,-75.6507"/>
<polygon fill="#191970" stroke="#191970" points="655.8121,-160.4011 648.7942,-168.3383 659.2301,-166.51 655.8121,-160.4011"/>
</g>
<!-- Node22 -->
<g id="node15" class="node">
<title>Node22</title>
<g id="a_node15"><a xlink:href="HeightMapExamples_8h.html" target="_top" xlink:title="src/Terrain/HeightMapExamples.h">
<polygon fill="none" stroke="#000000" points="761,-112.5 761,-131.5 926,-131.5 926,-112.5 761,-112.5"/>
<text text-anchor="middle" x="843.5" y="-119.5" font-family="Helvetica,sans-Serif" font-size="10.00" fill="#000000">src/Terrain/HeightMapExamples.h</text>
</a>
</g>
</g>
<!-- Node8&#45;&gt;Node22 -->
<g id="edge16" class="edge">
<title>Node8&#45;&gt;Node22</title>
<path fill="none" stroke="#191970" d="M677.989,-165.7199C716.9708,-155.4228 771.8379,-140.9296 807.5315,-131.5011"/>
<polygon fill="#191970" stroke="#191970" points="676.7186,-162.4353 667.9441,-168.3733 678.5064,-169.2032 676.7186,-162.4353"/>
</g>
<!-- Node10 -->
<g id="node3" class="node">
<title>Node10</title>
<g id="a_node3"><a xlink:href="ForceConstraint_8cpp.html" target="_top" xlink:title="src/Constraints/ForceConstraint.cpp">
<polygon fill="none" stroke="#000000" points="0,-56.5 0,-75.5 175,-75.5 175,-56.5 0,-56.5"/>
<text text-anchor="middle" x="87.5" y="-63.5" font-family="Helvetica,sans-Serif" font-size="10.00" fill="#000000">src/Constraints/ForceConstraint.cpp</text>
</a>
</g>
</g>
<!-- Node9&#45;&gt;Node10 -->
<g id="edge2" class="edge">
<title>Node9&#45;&gt;Node10</title>
<path fill="none" stroke="#191970" d="M229.075,-109.3235C195.5144,-99.0536 148.966,-84.8093 118.5483,-75.5011"/>
<polygon fill="#191970" stroke="#191970" points="228.4547,-112.7938 239.0412,-112.3733 230.5031,-106.1002 228.4547,-112.7938"/>
</g>
<!-- Node11 -->
<g id="node4" class="node">
<title>Node11</title>
<g id="a_node4"><a xlink:href="NlpFormulation_8cpp.html" target="_top" xlink:title="src/Problem/NlpFormulation.cpp">
<polygon fill="none" stroke="#000000" points="392,-56.5 392,-75.5 549,-75.5 549,-56.5 392,-56.5"/>
<text text-anchor="middle" x="470.5" y="-63.5" font-family="Helvetica,sans-Serif" font-size="10.00" fill="#000000">src/Problem/NlpFormulation.cpp</text>
</a>
</g>
</g>
<!-- Node9&#45;&gt;Node11 -->
<g id="edge3" class="edge">
<title>Node9&#45;&gt;Node11</title>
<path fill="none" stroke="#191970" d="M314.8278,-109.5882C351.573,-99.2996 403.0375,-84.8895 436.5674,-75.5011"/>
<polygon fill="#191970" stroke="#191970" points="313.5671,-106.3065 304.8812,-112.3733 315.4546,-113.0473 313.5671,-106.3065"/>
</g>
<!-- Node12&#45;&gt;Node11 -->
<g id="edge6" class="edge">
<title>Node12&#45;&gt;Node11</title>
<path fill="none" stroke="#191970" d="M460.7356,-102.4538C463.166,-93.3803 465.9465,-82.9998 467.9171,-75.6427"/>
<polygon fill="#191970" stroke="#191970" points="457.3194,-101.6805 458.1128,-112.2455 464.0811,-103.4917 457.3194,-101.6805"/>
</g>
<!-- Node13 -->
<g id="node6" class="node">
<title>Node13</title>
<g id="a_node6"><a xlink:href="TerrainConstraint_8cpp.html" target="_top" xlink:title="src/Constraints/TerrainConstraint.cpp">
<polygon fill="none" stroke="#000000" points="193.5,-56.5 193.5,-75.5 373.5,-75.5 373.5,-56.5 193.5,-56.5"/>
<text text-anchor="middle" x="283.5" y="-63.5" font-family="Helvetica,sans-Serif" font-size="10.00" fill="#000000">src/Constraints/TerrainConstraint.cpp</text>
</a>
</g>
</g>
<!-- Node12&#45;&gt;Node13 -->
<g id="edge5" class="edge">
<title>Node12&#45;&gt;Node13</title>
<path fill="none" stroke="#191970" d="M416.1565,-109.1905C384.6449,-98.9309 341.1481,-84.7691 312.682,-75.5011"/>
<polygon fill="#191970" stroke="#191970" points="415.3399,-112.6054 425.9321,-112.3733 417.507,-105.9493 415.3399,-112.6054"/>
</g>
<!-- Node14&#45;&gt;Node11 -->
<g id="edge14" class="edge">
<title>Node14&#45;&gt;Node11</title>
<path fill="none" stroke="#191970" d="M594.2889,-109.057C564.8241,-98.8084 524.3459,-84.729 497.8157,-75.5011"/>
<polygon fill="#191970" stroke="#191970" points="593.2283,-112.3937 603.8231,-112.3733 595.528,-105.7822 593.2283,-112.3937"/>
</g>
<!-- Node15 -->
<g id="node8" class="node">
<title>Node15</title>
<g id="a_node8"><a xlink:href="MPC_8h.html" target="_top" xlink:title="src/Control/MPC.h">
<polygon fill="none" stroke="#000000" points="647.5,-56.5 647.5,-75.5 745.5,-75.5 745.5,-56.5 647.5,-56.5"/>
<text text-anchor="middle" x="696.5" y="-63.5" font-family="Helvetica,sans-Serif" font-size="10.00" fill="#000000">src/Control/MPC.h</text>
</a>
</g>
</g>
<!-- Node14&#45;&gt;Node15 -->
<g id="edge8" class="edge">
<title>Node14&#45;&gt;Node15</title>
<path fill="none" stroke="#191970" d="M650.4835,-105.645C661.7879,-95.9058 675.747,-83.8795 685.3076,-75.6427"/>
<polygon fill="#191970" stroke="#191970" points="648.1138,-103.0668 642.8221,-112.2455 652.6827,-108.3701 648.1138,-103.0668"/>
</g>
<!-- Node17 -->
<g id="node10" class="node">
<title>Node17</title>
<g id="a_node10"><a xlink:href="main_8h.html" target="_top" xlink:title="src/main.h">
<polygon fill="none" stroke="#000000" points="567.5,-56.5 567.5,-75.5 629.5,-75.5 629.5,-56.5 567.5,-56.5"/>
<text text-anchor="middle" x="598.5" y="-63.5" font-family="Helvetica,sans-Serif" font-size="10.00" fill="#000000">src/main.h</text>
</a>
</g>
</g>
<!-- Node14&#45;&gt;Node17 -->
<g id="edge10" class="edge">
<title>Node14&#45;&gt;Node17</title>
<path fill="none" stroke="#191970" d="M620.6746,-103.6296C615.1701,-94.2887 608.7063,-83.3197 604.1823,-75.6427"/>
<polygon fill="#191970" stroke="#191970" points="617.6595,-105.4071 625.7518,-112.2455 623.6903,-101.8532 617.6595,-105.4071"/>
</g>
<!-- Node16 -->
<g id="node9" class="node">
<title>Node16</title>
<g id="a_node9"><a xlink:href="MPC_8cpp.html" target="_top" xlink:title="src/Control/MPC.cpp">
<polygon fill="none" stroke="#000000" points="718,-.5 718,-19.5 827,-19.5 827,-.5 718,-.5"/>
<text text-anchor="middle" x="772.5" y="-7.5" font-family="Helvetica,sans-Serif" font-size="10.00" fill="#000000">src/Control/MPC.cpp</text>
</a>
</g>
</g>
<!-- Node15&#45;&gt;Node16 -->
<g id="edge9" class="edge">
<title>Node15&#45;&gt;Node16</title>
<path fill="none" stroke="#191970" d="M717.9297,-50.2097C731.2777,-40.3743 748.0179,-28.0394 759.4135,-19.6427"/>
<polygon fill="#191970" stroke="#191970" points="715.7126,-47.4958 709.7382,-56.2455 719.865,-53.1312 715.7126,-47.4958"/>
</g>
<!-- Node18 -->
<g id="node11" class="node">
<title>Node18</title>
<g id="a_node11"><a xlink:href="functions_8cpp.html" target="_top" xlink:title="src/functions.cpp">
<polygon fill="none" stroke="#000000" points="607.5,-.5 607.5,-19.5 699.5,-19.5 699.5,-.5 607.5,-.5"/>
<text text-anchor="middle" x="653.5" y="-7.5" font-family="Helvetica,sans-Serif" font-size="10.00" fill="#000000">src/functions.cpp</text>
</a>
</g>
</g>
<!-- Node17&#45;&gt;Node18 -->
<g id="edge11" class="edge">
<title>Node17&#45;&gt;Node18</title>
<path fill="none" stroke="#191970" d="M615.1226,-49.0751C624.5855,-39.4402 636.0969,-27.7196 644.0295,-19.6427"/>
<polygon fill="#191970" stroke="#191970" points="612.5903,-46.6585 608.0803,-56.2455 617.5845,-51.5635 612.5903,-46.6585"/>
</g>
<!-- Node19 -->
<g id="node12" class="node">
<title>Node19</title>
<g id="a_node12"><a xlink:href="main_8cpp.html" target="_top" xlink:title="src/main.cpp">
<polygon fill="none" stroke="#000000" points="409,-.5 409,-19.5 482,-19.5 482,-.5 409,-.5"/>
<text text-anchor="middle" x="445.5" y="-7.5" font-family="Helvetica,sans-Serif" font-size="10.00" fill="#000000">src/main.cpp</text>
</a>
</g>
</g>
<!-- Node17&#45;&gt;Node19 -->
<g id="edge12" class="edge">
<title>Node17&#45;&gt;Node19</title>
<path fill="none" stroke="#191970" d="M562.7721,-52.9231C534.8029,-42.686 496.5607,-28.6889 471.4584,-19.5011"/>
<polygon fill="#191970" stroke="#191970" points="561.6046,-56.2228 572.1984,-56.3733 564.0106,-49.6493 561.6046,-56.2228"/>
</g>
<!-- Node20 -->
<g id="node13" class="node">
<title>Node20</title>
<g id="a_node13"><a xlink:href="simulate_8cpp.html" target="_top" xlink:title="src/simulate.cpp">
<polygon fill="none" stroke="#000000" points="500,-.5 500,-19.5 589,-19.5 589,-.5 500,-.5"/>
<text text-anchor="middle" x="544.5" y="-7.5" font-family="Helvetica,sans-Serif" font-size="10.00" fill="#000000">src/simulate.cpp</text>
</a>
</g>
</g>
<!-- Node17&#45;&gt;Node20 -->
<g id="edge13" class="edge">
<title>Node17&#45;&gt;Node20</title>
<path fill="none" stroke="#191970" d="M581.9031,-48.7884C572.6653,-39.2085 561.5096,-27.6396 553.7983,-19.6427"/>
<polygon fill="#191970" stroke="#191970" points="579.6331,-51.4766 589.0939,-56.2455 584.672,-46.6176 579.6331,-51.4766"/>
</g>
<!-- Node22&#45;&gt;Node21 -->
<g id="edge17" class="edge">
<title>Node22&#45;&gt;Node21</title>
<path fill="none" stroke="#191970" d="M838.6135,-102.4538C836.3451,-93.3803 833.75,-82.9998 831.9107,-75.6427"/>
<polygon fill="#191970" stroke="#191970" points="835.2405,-103.393 841.0614,-112.2455 842.0315,-101.6952 835.2405,-103.393"/>
</g>
<!-- Node23 -->
<g id="node16" class="node">
<title>Node23</title>
<g id="a_node16"><a xlink:href="HeightMapExamples_8cpp.html" target="_top" xlink:title="src/Terrain/HeightMapExamples.cpp">
<polygon fill="none" stroke="#000000" points="913.5,-56.5 913.5,-75.5 1089.5,-75.5 1089.5,-56.5 913.5,-56.5"/>
<text text-anchor="middle" x="1001.5" y="-63.5" font-family="Helvetica,sans-Serif" font-size="10.00" fill="#000000">src/Terrain/HeightMapExamples.cpp</text>
</a>
</g>
</g>
<!-- Node22&#45;&gt;Node23 -->
<g id="edge18" class="edge">
<title>Node22&#45;&gt;Node23</title>
<path fill="none" stroke="#191970" d="M880.3955,-108.9231C909.2787,-98.686 948.7706,-84.6889 974.6933,-75.5011"/>
<polygon fill="#191970" stroke="#191970" points="878.9174,-105.7336 870.6612,-112.3733 881.2559,-112.3314 878.9174,-105.7336"/>
</g>
</g>
</svg>
        <g id="navigator" transform="translate(0 0)" fill="#404254">
                <rect fill="#f2f5e9" fill-opacity="0.5" stroke="#606060" stroke-width=".5" x="0" y="0" width="60" height="60"/>
                <use id="zoomplus" xlink:href="#zoomPlus" x="17" y="9" onmousedown="handleZoom(evt,'in')"/>
                <use id="zoomminus" xlink:href="#zoomMin" x="42" y="9" onmousedown="handleZoom(evt,'out')"/>
                <use id="reset" xlink:href="#resetDef" x="30" y="36" onmousedown="handleReset()"/>
                <g id="arrowUp" xlink:href="#dirArrow" transform="translate(30 24)" onmousedown="handlePan(0,-1)">
                  <use xlink:href="#rim" fill="#404040">
                        <set attributeName="fill" to="#808080" begin="arrowUp.mouseover" end="arrowUp.mouseout"/>
                  </use>
                  <path fill="none" stroke="white" stroke-width="1.5" d="M0,-3.0v7 M-2.5,-0.5L0,-3.0L2.5,-0.5"/>
                </g>
                <g id="arrowRight" xlink:href="#dirArrow" transform="rotate(90) translate(36 -43)" onmousedown="handlePan(1,0)">
                  <use xlink:href="#rim" fill="#404040">
                        <set attributeName="fill" to="#808080" begin="arrowRight.mouseover" end="arrowRight.mouseout"/>
                  </use>
                  <path fill="none" stroke="white" stroke-width="1.5" d="M0,-3.0v7 M-2.5,-0.5L0,-3.0L2.5,-0.5"/>
                </g>
                <g id="arrowDown" xlink:href="#dirArrow" transform="rotate(180) translate(-30 -48)" onmousedown="handlePan(0,1)">
                  <use xlink:href="#rim" fill="#404040">
                        <set attributeName="fill" to="#808080" begin="arrowDown.mouseover" end="arrowDown.mouseout"/>
                  </use>
                  <path fill="none" stroke="white" stroke-width="1.5" d="M0,-3.0v7 M-2.5,-0.5L0,-3.0L2.5,-0.5"/>
                </g>
                <g id="arrowLeft" xlink:href="#dirArrow" transform="rotate(270) translate(-36 17)" onmousedown="handlePan(-1,0)">
                  <use xlink:href="#rim" fill="#404040">
                        <set attributeName="fill" to="#808080" begin="arrowLeft.mouseover" end="arrowLeft.mouseout"/>
                  </use>
                  <path fill="none" stroke="white" stroke-width="1.5" d="M0,-3.0v7 M-2.5,-0.5L0,-3.0L2.5,-0.5"/>
                </g>
        </g>
        <svg viewBox="0 0 15 15" width="100%" height="30px" preserveAspectRatio="xMaxYMin meet">
         <g id="arrow_out" transform="scale(0.3 0.3)">
          <a xlink:href="HeightMap_8h__dep__incl_org.svg" target="_base">
           <rect id="button" ry="5" rx="5" y="6" x="6" height="38" width="38"
                fill="#f2f5e9" fill-opacity="0.5" stroke="#606060" stroke-width="1.0"/>
           <path id="arrow"
             d="M 11.500037,31.436501 C 11.940474,20.09759 22.043105,11.32322 32.158766,21.979434 L 37.068811,17.246167 C 37.068811,17.246167 37.088388,32 37.088388,32 L 22.160133,31.978069 C 22.160133,31.978069 26.997745,27.140456 26.997745,27.140456 C 18.528582,18.264221 13.291696,25.230495 11.500037,31.436501 z"
             style="fill:#404040;"/>
          </a>
         </g>
        </svg>
</svg>
