<?xml version="1.0" encoding="UTF-8" standalone="no"?>
<!DOCTYPE svg PUBLIC "-//W3C//DTD SVG 1.1//EN"
 "http://www.w3.org/Graphics/SVG/1.1/DTD/svg11.dtd">
<!-- Generated by graphviz version 2.40.1 (20161225.0304)
 -->
<!-- Title: Graphical Class Hierarchy Pages: 1 -->
<svg width="131pt" height="46pt"
 viewBox="0.00 0.00 131.00 46.00" xmlns="http://www.w3.org/2000/svg" xmlns:xlink="http://www.w3.org/1999/xlink">
<g id="graph0" class="graph" transform="scale(1 1) rotate(0) translate(4 42)">
<title>Graphical Class Hierarchy</title>
<!-- Node0 -->
<g id="node1" class="node">
<title>Node0</title>
<g id="a_node1"><a xlink:href="classgambol_1_1NodesVariables.html" target="_top" xlink:title="gambol::NodesVariables">
<polygon fill="none" stroke="#000000" points="0,-.5 0,-19.5 123,-19.5 123,-.5 0,-.5"/>
<text text-anchor="middle" x="61.5" y="-7.5" font-family="Helvetica,sans-Serif" font-size="10.00" fill="#000000">gambol::NodesVariables</text>
</a>
</g>
</g>
<!-- Node0&#45;&gt;Node0 -->
<g id="edge1" class="edge">
<title>Node0&#45;&gt;Node0</title>
<path fill="none" stroke="#191970" d="M38.8066,-29.0292C40.0445,-34.128 47.6089,-38 61.5,-38 83.1836,-38 89.4515,-28.5653 80.3037,-19.7571"/>
<polygon fill="#191970" stroke="#191970" points="42.0553,-30.3325 42.6963,-19.7571 35.6003,-27.6246 42.0553,-30.3325"/>
</g>
</g>
</svg>
