<?xml version="1.0" encoding="UTF-8" standalone="no"?>
<!DOCTYPE svg PUBLIC "-//W3C//DTD SVG 1.1//EN"
 "http://www.w3.org/Graphics/SVG/1.1/DTD/svg11.dtd">
<!-- Generated by graphviz version 2.40.1 (20161225.0304)
 -->
<!-- Title: Graphical Class Hierarchy Pages: 1 -->
<svg width="520pt" height="184pt"
 viewBox="0.00 0.00 520.00 184.00" xmlns="http://www.w3.org/2000/svg" xmlns:xlink="http://www.w3.org/1999/xlink">
<g id="graph0" class="graph" transform="scale(1 1) rotate(0) translate(4 180)">
<title>Graphical Class Hierarchy</title>
<!-- Node0 -->
<g id="node1" class="node">
<title>Node0</title>
<g id="a_node1"><a xlink:href="classgambol_1_1GaitGenerator.html" target="_top" xlink:title="Generates endeffector phase durations for predefined gait styles. ">
<polygon fill="none" stroke="#000000" points="0,-76.5 0,-95.5 115,-95.5 115,-76.5 0,-76.5"/>
<text text-anchor="middle" x="57.5" y="-83.5" font-family="Helvetica,sans-Serif" font-size="10.00" fill="#000000">gambol::GaitGenerator</text>
</a>
</g>
</g>
<!-- Node1 -->
<g id="node2" class="node">
<title>Node1</title>
<g id="a_node2"><a xlink:href="classgambol_1_1GaitGeneratorBiped.html" target="_top" xlink:title="Produces the contact sequence for a variety of two&#45;legged gaits. ">
<polygon fill="none" stroke="#000000" points="162,-155.5 162,-174.5 302,-174.5 302,-155.5 162,-155.5"/>
<text text-anchor="middle" x="232" y="-162.5" font-family="Helvetica,sans-Serif" font-size="10.00" fill="#000000">gambol::GaitGeneratorBiped</text>
</a>
</g>
</g>
<!-- Node0&#45;&gt;Node1 -->
<g id="edge1" class="edge">
<title>Node0&#45;&gt;Node1</title>
<path fill="none" stroke="#191970" d="M78.6995,-101.3286C97.063,-114.0048 124.737,-131.6995 151,-143 162.6453,-148.0108 175.7305,-152.1567 187.9318,-155.4468"/>
<polygon fill="#191970" stroke="#191970" points="80.6754,-98.4393 70.4797,-95.5588 76.6538,-104.1688 80.6754,-98.4393"/>
</g>
<!-- Node3 -->
<g id="node4" class="node">
<title>Node3</title>
<g id="a_node4"><a xlink:href="classgambol_1_1GaitGeneratorBipedFeet.html" target="_top" xlink:title="Produces the contact sequence for a variety of two&#45;legged gaits including heel and toe...">
<polygon fill="none" stroke="#000000" points="152.5,-114.5 152.5,-133.5 311.5,-133.5 311.5,-114.5 152.5,-114.5"/>
<text text-anchor="middle" x="232" y="-121.5" font-family="Helvetica,sans-Serif" font-size="10.00" fill="#000000">gambol::GaitGeneratorBipedFeet</text>
</a>
</g>
</g>
<!-- Node0&#45;&gt;Node3 -->
<g id="edge3" class="edge">
<title>Node0&#45;&gt;Node3</title>
<path fill="none" stroke="#191970" d="M111.4691,-97.7526C136.1433,-103.1258 164.9948,-109.4086 188.2829,-114.4799"/>
<polygon fill="#191970" stroke="#191970" points="112.0495,-94.297 101.5337,-95.589 110.56,-101.1367 112.0495,-94.297"/>
</g>
<!-- Node5 -->
<g id="node6" class="node">
<title>Node5</title>
<g id="a_node6"><a xlink:href="classgambol_1_1GaitGeneratorMonoped.html" target="_top" xlink:title="Produces the contact sequence for a variety of one&#45;legged gaits. ">
<polygon fill="none" stroke="#000000" points="154.5,-76.5 154.5,-95.5 309.5,-95.5 309.5,-76.5 154.5,-76.5"/>
<text text-anchor="middle" x="232" y="-83.5" font-family="Helvetica,sans-Serif" font-size="10.00" fill="#000000">gambol::GaitGeneratorMonoped</text>
</a>
</g>
</g>
<!-- Node0&#45;&gt;Node5 -->
<g id="edge5" class="edge">
<title>Node0&#45;&gt;Node5</title>
<path fill="none" stroke="#191970" d="M125.2615,-86C134.7444,-86 144.5508,-86 154.2012,-86"/>
<polygon fill="#191970" stroke="#191970" points="125.1215,-82.5001 115.1214,-86 125.1214,-89.5001 125.1215,-82.5001"/>
</g>
<!-- Node6 -->
<g id="node7" class="node">
<title>Node6</title>
<g id="a_node7"><a xlink:href="classgambol_1_1GaitGeneratorQuadruped.html" target="_top" xlink:title="Produces the contact sequence for a variety of four&#45;legged gaits. ">
<polygon fill="none" stroke="#000000" points="151,-38.5 151,-57.5 313,-57.5 313,-38.5 151,-38.5"/>
<text text-anchor="middle" x="232" y="-45.5" font-family="Helvetica,sans-Serif" font-size="10.00" fill="#000000">gambol::GaitGeneratorQuadruped</text>
</a>
</g>
</g>
<!-- Node0&#45;&gt;Node6 -->
<g id="edge6" class="edge">
<title>Node0&#45;&gt;Node6</title>
<path fill="none" stroke="#191970" d="M111.4691,-74.2474C136.1433,-68.8742 164.9948,-62.5914 188.2829,-57.5201"/>
<polygon fill="#191970" stroke="#191970" points="110.56,-70.8633 101.5337,-76.411 112.0495,-77.703 110.56,-70.8633"/>
</g>
<!-- Node7 -->
<g id="node8" class="node">
<title>Node7</title>
<g id="a_node8"><a xlink:href="classgambol_1_1GaitGeneratorSnake.html" target="_top" xlink:title="gambol::GaitGeneratorSnake">
<polygon fill="none" stroke="#000000" points="160.5,-.5 160.5,-19.5 303.5,-19.5 303.5,-.5 160.5,-.5"/>
<text text-anchor="middle" x="232" y="-7.5" font-family="Helvetica,sans-Serif" font-size="10.00" fill="#000000">gambol::GaitGeneratorSnake</text>
</a>
</g>
</g>
<!-- Node0&#45;&gt;Node7 -->
<g id="edge7" class="edge">
<title>Node0&#45;&gt;Node7</title>
<path fill="none" stroke="#191970" d="M78.2883,-70.6565C96.5881,-57.8201 124.3931,-39.9038 151,-29 160.2221,-25.2207 170.3574,-22.0983 180.2435,-19.5534"/>
<polygon fill="#191970" stroke="#191970" points="76.2165,-67.8352 70.1153,-76.497 80.2864,-73.5305 76.2165,-67.8352"/>
</g>
<!-- Node2 -->
<g id="node3" class="node">
<title>Node2</title>
<g id="a_node3"><a xlink:href="classgambol_1_1GaitGeneratorBipedArms.html" target="_top" xlink:title="Gait generator for a pinfoot biped with arms. ">
<polygon fill="none" stroke="#000000" points="349,-156.5 349,-175.5 512,-175.5 512,-156.5 349,-156.5"/>
<text text-anchor="middle" x="430.5" y="-163.5" font-family="Helvetica,sans-Serif" font-size="10.00" fill="#000000">gambol::GaitGeneratorBipedArms</text>
</a>
</g>
</g>
<!-- Node1&#45;&gt;Node2 -->
<g id="edge2" class="edge">
<title>Node1&#45;&gt;Node2</title>
<path fill="none" stroke="#191970" d="M312.2674,-165.4044C324.3052,-165.465 336.73,-165.5276 348.7973,-165.5884"/>
<polygon fill="#191970" stroke="#191970" points="312.2806,-161.9045 302.263,-165.354 312.2452,-168.9044 312.2806,-161.9045"/>
</g>
<!-- Node4 -->
<g id="node5" class="node">
<title>Node4</title>
<g id="a_node5"><a xlink:href="classgambol_1_1GaitGeneratorBipedFeet3D.html" target="_top" xlink:title="Produces the contact sequence for a variety of two&#45;legged gaits including heel and toe in 3D...">
<polygon fill="none" stroke="#000000" points="360.5,-107 360.5,-137 500.5,-137 500.5,-107 360.5,-107"/>
<text text-anchor="start" x="368.5" y="-125" font-family="Helvetica,sans-Serif" font-size="10.00" fill="#000000">gambol::GaitGeneratorBiped</text>
<text text-anchor="middle" x="430.5" y="-114" font-family="Helvetica,sans-Serif" font-size="10.00" fill="#000000">Feet3D</text>
</a>
</g>
</g>
<!-- Node3&#45;&gt;Node4 -->
<g id="edge4" class="edge">
<title>Node3&#45;&gt;Node4</title>
<path fill="none" stroke="#191970" d="M321.9119,-123.0941C334.8561,-122.9637 348.014,-122.8311 360.4945,-122.7053"/>
<polygon fill="#191970" stroke="#191970" points="321.558,-119.5974 311.5938,-123.198 321.6286,-126.597 321.558,-119.5974"/>
</g>
</g>
</svg>
