<?xml version="1.0" encoding="UTF-8" standalone="no"?>
<!DOCTYPE svg PUBLIC "-//W3C//DTD SVG 1.1//EN"
 "http://www.w3.org/Graphics/SVG/1.1/DTD/svg11.dtd">
<!-- Generated by graphviz version 2.40.1 (20161225.0304)
 -->
<!-- Title: src/main.cpp Pages: 1 -->
<!--zoomable 420 -->
<svg id="main" version="1.1" xmlns="http://www.w3.org/2000/svg" xmlns:xlink="http://www.w3.org/1999/xlink" xml:space="preserve" onload="init(evt)">
<style type="text/css"><![CDATA[
.edge:hover path { stroke: red; }
.edge:hover polygon { stroke: red; fill: red; }
]]></style>
<script type="text/javascript"><![CDATA[
var edges = document.getElementsByTagName('g');
if (edges && edges.length) {
  for (var i=0;i<edges.length;i++) {
    if (edges[i].id.substr(0,4)=='edge') {
      edges[i].setAttribute('class','edge');
    }
  }
}
]]></script>
        <defs>
                <circle id="rim" cx="0" cy="0" r="7"/>
                <circle id="rim2" cx="0" cy="0" r="3.5"/>
                <g id="zoomPlus">
                        <use xlink:href="#rim" fill="#404040">
                                <set attributeName="fill" to="#808080" begin="zoomplus.mouseover" end="zoomplus.mouseout"/>
                        </use>
                        <path d="M-4,0h8M0,-4v8" fill="none" stroke="white" stroke-width="1.5" pointer-events="none"/>
                </g>
                <g id="zoomMin">
                        <use xlink:href="#rim" fill="#404040">
                                <set attributeName="fill" to="#808080" begin="zoomminus.mouseover" end="zoomminus.mouseout"/>
                        </use>
                        <path d="M-4,0h8" fill="none" stroke="white" stroke-width="1.5" pointer-events="none"/>
                </g>
                <g id="dirArrow">
                        <path fill="none" stroke="white" stroke-width="1.5" d="M0,-3.0v7 M-2.5,-0.5L0,-3.0L2.5,-0.5"/>
                </g>
               <g id="resetDef">
                       <use xlink:href="#rim2" fill="#404040">
                               <set attributeName="fill" to="#808080" begin="reset.mouseover" end="reset.mouseout"/>
                       </use>
               </g>
        </defs>

<script type="text/javascript">
var viewWidth = 929;
var viewHeight = 420;
var sectionId = 'dynsection-0';
</script>
<script xlink:href="svgpan.js"/>
<svg id="graph" class="graph">
<g id="viewport">
<title>src/main.cpp</title>
<!-- Node0 -->
<g id="node1" class="node">
<title>Node0</title>
<polygon fill="#bfbfbf" stroke="#000000" points="87.8799,-392.5 87.8799,-411.5 160.8799,-411.5 160.8799,-392.5 87.8799,-392.5"/>
<text text-anchor="middle" x="124.3799" y="-399.5" font-family="Helvetica,sans-Serif" font-size="10.00" fill="#000000">src/main.cpp</text>
</g>
<!-- Node1 -->
<g id="node2" class="node">
<title>Node1</title>
<g id="a_node2"><a xlink:href="main_8h.html" target="_top" xlink:title="main.h">
<polygon fill="none" stroke="#000000" points="101.3799,-336.5 101.3799,-355.5 147.3799,-355.5 147.3799,-336.5 101.3799,-336.5"/>
<text text-anchor="middle" x="124.3799" y="-343.5" font-family="Helvetica,sans-Serif" font-size="10.00" fill="#000000">main.h</text>
</a>
</g>
</g>
<!-- Node0&#45;&gt;Node1 -->
<g id="edge1" class="edge">
<title>Node0&#45;&gt;Node1</title>
<path fill="none" stroke="#191970" d="M124.3799,-392.2455C124.3799,-384.9382 124.3799,-374.6944 124.3799,-365.7046"/>
<polygon fill="#191970" stroke="#191970" points="127.88,-365.6426 124.3799,-355.6427 120.88,-365.6427 127.88,-365.6426"/>
</g>
<!-- Node2 -->
<g id="node3" class="node">
<title>Node2</title>
<g id="a_node3"><a xlink:href="NodesHolder_8h.html" target="_top" xlink:title="Variables/NodesHolder.h">
<polygon fill="none" stroke="#000000" points="56.8799,-168.5 56.8799,-187.5 181.8799,-187.5 181.8799,-168.5 56.8799,-168.5"/>
<text text-anchor="middle" x="119.3799" y="-175.5" font-family="Helvetica,sans-Serif" font-size="10.00" fill="#000000">Variables/NodesHolder.h</text>
</a>
</g>
</g>
<!-- Node1&#45;&gt;Node2 -->
<g id="edge2" class="edge">
<title>Node1&#45;&gt;Node2</title>
<path fill="none" stroke="#191970" d="M106.7185,-336.291C80.5557,-320.7671 32.533,-287.6118 13.3799,-244 1.6487,-217.288 31.5454,-200.4213 62.5447,-190.4306"/>
<polygon fill="#191970" stroke="#191970" points="63.583,-193.7733 72.1557,-187.5475 61.5717,-187.0685 63.583,-193.7733"/>
</g>
<!-- Node9 -->
<g id="node10" class="node">
<title>Node9</title>
<g id="a_node10"><a xlink:href="NlpFormulation_8h.html" target="_top" xlink:title="Problem/NlpFormulation.h">
<polygon fill="none" stroke="#000000" points="227.3799,-280.5 227.3799,-299.5 357.3799,-299.5 357.3799,-280.5 227.3799,-280.5"/>
<text text-anchor="middle" x="292.3799" y="-287.5" font-family="Helvetica,sans-Serif" font-size="10.00" fill="#000000">Problem/NlpFormulation.h</text>
</a>
</g>
</g>
<!-- Node1&#45;&gt;Node9 -->
<g id="edge13" class="edge">
<title>Node1&#45;&gt;Node9</title>
<path fill="none" stroke="#191970" d="M147.3873,-338.3309C174.8327,-329.1824 221.1255,-313.7515 254.0155,-302.7881"/>
<polygon fill="#191970" stroke="#191970" points="255.3768,-306.0238 263.7568,-299.541 253.1632,-299.383 255.3768,-306.0238"/>
</g>
<!-- Node3 -->
<g id="node4" class="node">
<title>Node3</title>
<g id="a_node4"><a xlink:href="NodesVariables_8h.html" target="_top" xlink:title="NodesVariables.h">
<polygon fill="none" stroke="#000000" points="163.3799,-112.5 163.3799,-131.5 257.3799,-131.5 257.3799,-112.5 163.3799,-112.5"/>
<text text-anchor="middle" x="210.3799" y="-119.5" font-family="Helvetica,sans-Serif" font-size="10.00" fill="#000000">NodesVariables.h</text>
</a>
</g>
</g>
<!-- Node2&#45;&gt;Node3 -->
<g id="edge3" class="edge">
<title>Node2&#45;&gt;Node3</title>
<path fill="none" stroke="#191970" d="M135.2309,-168.2455C149.1931,-159.6534 169.7527,-147.0014 185.8395,-137.1018"/>
<polygon fill="#191970" stroke="#191970" points="188.0283,-139.8645 194.7106,-131.6427 184.3596,-133.9029 188.0283,-139.8645"/>
</g>
<!-- Node5 -->
<g id="node6" class="node">
<title>Node5</title>
<g id="a_node6"><a xlink:href="NodeTimes_8h.html" target="_top" xlink:title="NodeTimes.h">
<polygon fill="none" stroke="#000000" points="81.8799,-56.5 81.8799,-75.5 156.8799,-75.5 156.8799,-56.5 81.8799,-56.5"/>
<text text-anchor="middle" x="119.3799" y="-63.5" font-family="Helvetica,sans-Serif" font-size="10.00" fill="#000000">NodeTimes.h</text>
</a>
</g>
</g>
<!-- Node2&#45;&gt;Node5 -->
<g id="edge11" class="edge">
<title>Node2&#45;&gt;Node5</title>
<path fill="none" stroke="#191970" d="M119.3799,-168.4509C119.3799,-150.184 119.3799,-109.9553 119.3799,-85.6976"/>
<polygon fill="#191970" stroke="#191970" points="122.88,-85.5249 119.3799,-75.5249 115.88,-85.5249 122.88,-85.5249"/>
</g>
<!-- Node8 -->
<g id="node9" class="node">
<title>Node8</title>
<g id="a_node9"><a xlink:href="PhaseDurations_8h.html" target="_top" xlink:title="PhaseDurations.h">
<polygon fill="none" stroke="#000000" points="291.8799,-56.5 291.8799,-75.5 386.8799,-75.5 386.8799,-56.5 291.8799,-56.5"/>
<text text-anchor="middle" x="339.3799" y="-63.5" font-family="Helvetica,sans-Serif" font-size="10.00" fill="#000000">PhaseDurations.h</text>
</a>
</g>
</g>
<!-- Node2&#45;&gt;Node8 -->
<g id="edge12" class="edge">
<title>Node2&#45;&gt;Node8</title>
<path fill="none" stroke="#191970" d="M167.5269,-168.4867C197.3189,-161.2849 235.6168,-149.5802 266.3799,-132 288.9092,-119.1252 310.4,-98.2973 324.1551,-83.4843"/>
<polygon fill="#191970" stroke="#191970" points="326.8462,-85.7266 330.9584,-75.9624 321.6547,-81.031 326.8462,-85.7266"/>
</g>
<!-- Node4 -->
<g id="node5" class="node">
<title>Node4</title>
<polygon fill="none" stroke="#bfbfbf" points="174.8799,-56.5 174.8799,-75.5 273.8799,-75.5 273.8799,-56.5 174.8799,-56.5"/>
<text text-anchor="middle" x="224.3799" y="-63.5" font-family="Helvetica,sans-Serif" font-size="10.00" fill="#000000">ifopt/variable_set.h</text>
</g>
<!-- Node3&#45;&gt;Node4 -->
<g id="edge4" class="edge">
<title>Node3&#45;&gt;Node4</title>
<path fill="none" stroke="#191970" d="M212.8185,-112.2455C214.6654,-104.8579 217.2627,-94.4689 219.5277,-85.4087"/>
<polygon fill="#191970" stroke="#191970" points="222.9393,-86.193 221.9692,-75.6427 216.1483,-84.4952 222.9393,-86.193"/>
</g>
<!-- Node3&#45;&gt;Node5 -->
<g id="edge5" class="edge">
<title>Node3&#45;&gt;Node5</title>
<path fill="none" stroke="#191970" d="M194.5289,-112.2455C180.5667,-103.6534 160.0071,-91.0014 143.9203,-81.1018"/>
<polygon fill="#191970" stroke="#191970" points="145.4002,-77.9029 135.0492,-75.6427 141.7315,-83.8645 145.4002,-77.9029"/>
</g>
<!-- Node3&#45;&gt;Node8 -->
<g id="edge8" class="edge">
<title>Node3&#45;&gt;Node8</title>
<path fill="none" stroke="#191970" d="M232.5558,-112.3733C253.3565,-103.3435 284.6716,-89.7494 308.0257,-79.6111"/>
<polygon fill="#191970" stroke="#191970" points="309.7142,-82.6938 317.4934,-75.5011 306.9267,-76.2727 309.7142,-82.6938"/>
</g>
<!-- Node6 -->
<g id="node7" class="node">
<title>Node6</title>
<polygon fill="none" stroke="#bfbfbf" points="374.3799,-.5 374.3799,-19.5 418.3799,-19.5 418.3799,-.5 374.3799,-.5"/>
<text text-anchor="middle" x="396.3799" y="-7.5" font-family="Helvetica,sans-Serif" font-size="10.00" fill="#000000">vector</text>
</g>
<!-- Node5&#45;&gt;Node6 -->
<g id="edge6" class="edge">
<title>Node5&#45;&gt;Node6</title>
<path fill="none" stroke="#191970" d="M157.024,-57.7604C159.8504,-57.1589 162.6596,-56.5665 165.3799,-56 236.3528,-41.2202 319.8107,-24.8499 364.4229,-16.1803"/>
<polygon fill="#191970" stroke="#191970" points="365.227,-19.5897 374.377,-14.2485 363.8933,-12.7179 365.227,-19.5897"/>
</g>
<!-- Node7 -->
<g id="node8" class="node">
<title>Node7</title>
<polygon fill="none" stroke="#bfbfbf" points="227.3799,-.5 227.3799,-19.5 279.3799,-19.5 279.3799,-.5 227.3799,-.5"/>
<text text-anchor="middle" x="253.3799" y="-7.5" font-family="Helvetica,sans-Serif" font-size="10.00" fill="#000000">memory</text>
</g>
<!-- Node5&#45;&gt;Node7 -->
<g id="edge7" class="edge">
<title>Node5&#45;&gt;Node7</title>
<path fill="none" stroke="#191970" d="M142.4153,-56.3733C164.1187,-47.3032 196.8417,-33.6279 221.1349,-23.4755"/>
<polygon fill="#191970" stroke="#191970" points="222.768,-26.5865 230.6451,-19.5011 220.0688,-20.1278 222.768,-26.5865"/>
</g>
<!-- Node8&#45;&gt;Node6 -->
<g id="edge10" class="edge">
<title>Node8&#45;&gt;Node6</title>
<path fill="none" stroke="#191970" d="M349.3085,-56.2455C357.5637,-48.1352 369.5008,-36.4075 379.2881,-26.7919"/>
<polygon fill="#191970" stroke="#191970" points="381.8845,-29.1476 386.565,-19.6427 376.9788,-24.1542 381.8845,-29.1476"/>
</g>
<!-- Node8&#45;&gt;Node7 -->
<g id="edge9" class="edge">
<title>Node8&#45;&gt;Node7</title>
<path fill="none" stroke="#191970" d="M324.3998,-56.2455C311.2048,-47.6534 291.7748,-35.0014 276.572,-25.1018"/>
<polygon fill="#191970" stroke="#191970" points="278.4782,-22.1665 268.1883,-19.6427 274.6584,-28.0325 278.4782,-22.1665"/>
</g>
<!-- Node9&#45;&gt;Node2 -->
<g id="edge19" class="edge">
<title>Node9&#45;&gt;Node2</title>
<path fill="none" stroke="#191970" d="M268.1761,-280.4911C248.1842,-272.1544 219.4477,-259.0387 196.3799,-244 174.2284,-229.5587 151.5662,-209.3459 136.6166,-195.1041"/>
<polygon fill="#191970" stroke="#191970" points="138.7757,-192.3228 129.157,-187.8808 133.9062,-197.3515 138.7757,-192.3228"/>
</g>
<!-- Node9&#45;&gt;Node3 -->
<g id="edge20" class="edge">
<title>Node9&#45;&gt;Node3</title>
<path fill="none" stroke="#191970" d="M271.678,-280.3634C257.4193,-272.6045 239.3169,-260.3061 229.3799,-244 210.033,-212.2527 208.1799,-167.5252 208.9969,-141.9773"/>
<polygon fill="#191970" stroke="#191970" points="212.5067,-141.8654 209.507,-131.7041 205.5153,-141.5182 212.5067,-141.8654"/>
</g>
<!-- Node9&#45;&gt;Node5 -->
<g id="edge21" class="edge">
<title>Node9&#45;&gt;Node5</title>
<path fill="none" stroke="#191970" d="M227.0681,-283.6628C148.9943,-275.416 27.0782,-260.1417 13.3799,-244 -32.3419,-190.1226 54.5442,-114.1048 97.4293,-81.6614"/>
<polygon fill="#191970" stroke="#191970" points="99.6596,-84.3649 105.6085,-75.5979 95.4908,-78.7416 99.6596,-84.3649"/>
</g>
<!-- Node9&#45;&gt;Node8 -->
<g id="edge22" class="edge">
<title>Node9&#45;&gt;Node8</title>
<path fill="none" stroke="#191970" d="M357.5751,-284.0735C438.3093,-276.0639 567.0127,-260.8348 581.3799,-244 615.9691,-203.4699 441.1794,-114.2444 369.2073,-79.8753"/>
<polygon fill="#191970" stroke="#191970" points="370.6984,-76.7089 360.1631,-75.5871 367.6994,-83.0339 370.6984,-76.7089"/>
</g>
<!-- Node10 -->
<g id="node11" class="node">
<title>Node10</title>
<polygon fill="none" stroke="#bfbfbf" points="238.3799,-224.5 238.3799,-243.5 346.3799,-243.5 346.3799,-224.5 238.3799,-224.5"/>
<text text-anchor="middle" x="292.3799" y="-231.5" font-family="Helvetica,sans-Serif" font-size="10.00" fill="#000000">ifopt/constraint_set.h</text>
</g>
<!-- Node9&#45;&gt;Node10 -->
<g id="edge14" class="edge">
<title>Node9&#45;&gt;Node10</title>
<path fill="none" stroke="#191970" d="M292.3799,-280.2455C292.3799,-272.9382 292.3799,-262.6944 292.3799,-253.7046"/>
<polygon fill="#191970" stroke="#191970" points="295.88,-253.6426 292.3799,-243.6427 288.88,-253.6427 295.88,-253.6426"/>
</g>
<!-- Node11 -->
<g id="node12" class="node">
<title>Node11</title>
<polygon fill="none" stroke="#bfbfbf" points="364.3799,-224.5 364.3799,-243.5 454.3799,-243.5 454.3799,-224.5 364.3799,-224.5"/>
<text text-anchor="middle" x="409.3799" y="-231.5" font-family="Helvetica,sans-Serif" font-size="10.00" fill="#000000">ifopt/cost_term.h</text>
</g>
<!-- Node9&#45;&gt;Node11 -->
<g id="edge15" class="edge">
<title>Node9&#45;&gt;Node11</title>
<path fill="none" stroke="#191970" d="M312.4929,-280.3733C331.1902,-271.4241 359.2543,-257.9917 380.3733,-247.8835"/>
<polygon fill="#191970" stroke="#191970" points="382.0204,-250.9755 389.5293,-243.5011 378.9982,-244.6614 382.0204,-250.9755"/>
</g>
<!-- Node12 -->
<g id="node13" class="node">
<title>Node12</title>
<polygon fill="none" stroke="#bfbfbf" points="472.8799,-224.5 472.8799,-243.5 571.8799,-243.5 571.8799,-224.5 472.8799,-224.5"/>
<text text-anchor="middle" x="522.3799" y="-231.5" font-family="Helvetica,sans-Serif" font-size="10.00" fill="#000000">ifopt/ipopt_solver.h</text>
</g>
<!-- Node9&#45;&gt;Node12 -->
<g id="edge16" class="edge">
<title>Node9&#45;&gt;Node12</title>
<path fill="none" stroke="#191970" d="M331.657,-280.4369C370.8543,-270.8932 431.1799,-256.2052 473.4634,-245.9101"/>
<polygon fill="#191970" stroke="#191970" points="474.3767,-249.2901 483.2648,-243.5237 472.7207,-242.4888 474.3767,-249.2901"/>
</g>
<!-- Node13 -->
<g id="node14" class="node">
<title>Node13</title>
<g id="a_node14"><a xlink:href="Parameters_8h.html" target="_top" xlink:title="Parameters.h">
<polygon fill="none" stroke="#000000" points="586.8799,-168.5 586.8799,-187.5 661.8799,-187.5 661.8799,-168.5 586.8799,-168.5"/>
<text text-anchor="middle" x="624.3799" y="-175.5" font-family="Helvetica,sans-Serif" font-size="10.00" fill="#000000">Parameters.h</text>
</a>
</g>
</g>
<!-- Node9&#45;&gt;Node13 -->
<g id="edge17" class="edge">
<title>Node9&#45;&gt;Node13</title>
<path fill="none" stroke="#191970" d="M357.7512,-284.8157C446.5767,-277.1503 596.4605,-261.7682 614.3799,-244 626.3151,-232.1655 627.9366,-212.5572 627.0997,-197.7816"/>
<polygon fill="#191970" stroke="#191970" points="630.5643,-197.2467 626.1107,-187.6333 623.5973,-197.9257 630.5643,-197.2467"/>
</g>
<!-- Node14 -->
<g id="node15" class="node">
<title>Node14</title>
<g id="a_node15"><a xlink:href="RobotModel_8h.html" target="_top" xlink:title="../Robots/RobotModel.h">
<polygon fill="none" stroke="#000000" points="22.8799,-224.5 22.8799,-243.5 143.8799,-243.5 143.8799,-224.5 22.8799,-224.5"/>
<text text-anchor="middle" x="83.3799" y="-231.5" font-family="Helvetica,sans-Serif" font-size="10.00" fill="#000000">../Robots/RobotModel.h</text>
</a>
</g>
</g>
<!-- Node9&#45;&gt;Node14 -->
<g id="edge23" class="edge">
<title>Node9&#45;&gt;Node14</title>
<path fill="none" stroke="#191970" d="M256.4515,-280.3733C221.0962,-270.9001 166.9919,-256.4032 128.7011,-246.1435"/>
<polygon fill="#191970" stroke="#191970" points="129.4046,-242.7086 118.8394,-243.5011 127.5929,-249.4701 129.4046,-242.7086"/>
</g>
<!-- Node15 -->
<g id="node16" class="node">
<title>Node15</title>
<g id="a_node16"><a xlink:href="HeightMap_8h.html" target="_top" xlink:title="../Terrain/HeightMap.h">
<polygon fill="none" stroke="#000000" points="624.3799,-56.5 624.3799,-75.5 738.3799,-75.5 738.3799,-56.5 624.3799,-56.5"/>
<text text-anchor="middle" x="681.3799" y="-63.5" font-family="Helvetica,sans-Serif" font-size="10.00" fill="#000000">../Terrain/HeightMap.h</text>
</a>
</g>
</g>
<!-- Node9&#45;&gt;Node15 -->
<g id="edge26" class="edge">
<title>Node9&#45;&gt;Node15</title>
<path fill="none" stroke="#191970" d="M357.6439,-287.4753C443.4473,-283.1014 588.5562,-271.7502 633.3799,-244 686.3847,-211.1849 686.5195,-125.265 683.552,-86.0437"/>
<polygon fill="#191970" stroke="#191970" points="687.0201,-85.5326 682.6305,-75.89 680.0488,-86.1654 687.0201,-85.5326"/>
</g>
<!-- Node13&#45;&gt;Node6 -->
<g id="edge18" class="edge">
<title>Node13&#45;&gt;Node6</title>
<path fill="none" stroke="#191970" d="M618.3029,-168.0901C609.4741,-154.2745 591.9972,-129.0111 572.3799,-112 527.313,-72.9202 465.0987,-41.0064 427.9829,-23.8148"/>
<polygon fill="#191970" stroke="#191970" points="429.2149,-20.5299 418.6642,-19.5641 426.3098,-26.8986 429.2149,-20.5299"/>
</g>
<!-- Node14&#45;&gt;Node2 -->
<g id="edge25" class="edge">
<title>Node14&#45;&gt;Node2</title>
<path fill="none" stroke="#191970" d="M89.6506,-224.2455C94.6063,-216.5367 101.6629,-205.5598 107.6575,-196.2348"/>
<polygon fill="#191970" stroke="#191970" points="110.7175,-197.9471 113.181,-187.6427 104.8293,-194.1618 110.7175,-197.9471"/>
</g>
<!-- Node14&#45;&gt;Node7 -->
<g id="edge24" class="edge">
<title>Node14&#45;&gt;Node7</title>
<path fill="none" stroke="#191970" d="M72.5251,-224.2679C63.8456,-215.7019 52.3382,-202.3808 47.3799,-188 33.0134,-146.3323 25.2176,-104.5629 72.3799,-56 92.225,-35.5656 170.0979,-21.5115 216.9923,-14.706"/>
<polygon fill="#191970" stroke="#191970" points="217.6485,-18.1482 227.0621,-13.2866 216.6715,-11.2167 217.6485,-18.1482"/>
</g>
<!-- Node15&#45;&gt;Node6 -->
<g id="edge28" class="edge">
<title>Node15&#45;&gt;Node6</title>
<path fill="none" stroke="#191970" d="M632.7105,-56.4369C574.3792,-44.9753 478.2875,-26.0941 428.5086,-16.313"/>
<polygon fill="#191970" stroke="#191970" points="429.1068,-12.8637 418.6196,-14.3699 427.7571,-19.7324 429.1068,-12.8637"/>
</g>
<!-- Node15&#45;&gt;Node7 -->
<g id="edge27" class="edge">
<title>Node15&#45;&gt;Node7</title>
<path fill="none" stroke="#191970" d="M624.102,-58.5057C534.6536,-46.8022 364.3399,-24.5181 289.8201,-14.7679"/>
<polygon fill="#191970" stroke="#191970" points="289.9111,-11.25 279.5415,-13.423 289.0029,-18.1909 289.9111,-11.25"/>
</g>
<!-- Node16 -->
<g id="node17" class="node">
<title>Node16</title>
<polygon fill="none" stroke="#bfbfbf" points="885.8799,-.5 885.8799,-19.5 920.8799,-19.5 920.8799,-.5 885.8799,-.5"/>
<text text-anchor="middle" x="903.3799" y="-7.5" font-family="Helvetica,sans-Serif" font-size="10.00" fill="#000000">map</text>
</g>
<!-- Node15&#45;&gt;Node16 -->
<g id="edge29" class="edge">
<title>Node15&#45;&gt;Node16</title>
<path fill="none" stroke="#191970" d="M729.0978,-56.4593C766.6723,-48.5607 820.4838,-36.3995 876.0993,-19.8024"/>
<polygon fill="#191970" stroke="#191970" points="877.209,-23.1234 885.7669,-16.8773 875.1817,-16.4233 877.209,-23.1234"/>
</g>
<!-- Node17 -->
<g id="node18" class="node">
<title>Node17</title>
<polygon fill="none" stroke="#bfbfbf" points="493.8799,-.5 493.8799,-19.5 534.8799,-19.5 534.8799,-.5 493.8799,-.5"/>
<text text-anchor="middle" x="514.3799" y="-7.5" font-family="Helvetica,sans-Serif" font-size="10.00" fill="#000000">string</text>
</g>
<!-- Node15&#45;&gt;Node17 -->
<g id="edge30" class="edge">
<title>Node15&#45;&gt;Node17</title>
<path fill="none" stroke="#191970" d="M652.6716,-56.3733C622.6762,-46.3149 575.7918,-30.5932 545.0752,-20.293"/>
<polygon fill="#191970" stroke="#191970" points="545.9198,-16.8848 535.3259,-17.0238 543.6942,-23.5216 545.9198,-16.8848"/>
</g>
<!-- Node18 -->
<g id="node19" class="node">
<title>Node18</title>
<polygon fill="none" stroke="#bfbfbf" points="552.8799,-.5 552.8799,-19.5 625.8799,-19.5 625.8799,-.5 552.8799,-.5"/>
<text text-anchor="middle" x="589.3799" y="-7.5" font-family="Helvetica,sans-Serif" font-size="10.00" fill="#000000">Eigen/Dense</text>
</g>
<!-- Node15&#45;&gt;Node18 -->
<g id="edge31" class="edge">
<title>Node15&#45;&gt;Node18</title>
<path fill="none" stroke="#191970" d="M665.3547,-56.2455C651.2391,-47.6534 630.4536,-35.0014 614.19,-25.1018"/>
<polygon fill="#191970" stroke="#191970" points="615.5833,-21.8525 605.2214,-19.6427 611.9436,-27.8319 615.5833,-21.8525"/>
</g>
<!-- Node19 -->
<g id="node20" class="node">
<title>Node19</title>
<polygon fill="none" stroke="#bfbfbf" points="643.8799,-.5 643.8799,-19.5 718.8799,-19.5 718.8799,-.5 643.8799,-.5"/>
<text text-anchor="middle" x="681.3799" y="-7.5" font-family="Helvetica,sans-Serif" font-size="10.00" fill="#000000">Eigen/Sparse</text>
</g>
<!-- Node15&#45;&gt;Node19 -->
<g id="edge32" class="edge">
<title>Node15&#45;&gt;Node19</title>
<path fill="none" stroke="#191970" d="M681.3799,-56.2455C681.3799,-48.9382 681.3799,-38.6944 681.3799,-29.7046"/>
<polygon fill="#191970" stroke="#191970" points="684.88,-29.6426 681.3799,-19.6427 677.88,-29.6427 684.88,-29.6426"/>
</g>
<!-- Node20 -->
<g id="node21" class="node">
<title>Node20</title>
<g id="a_node21"><a xlink:href="Coordinates_8h.html" target="_top" xlink:title="../Variables/Coordinates.h">
<polygon fill="none" stroke="#000000" points="737.3799,-.5 737.3799,-19.5 867.3799,-19.5 867.3799,-.5 737.3799,-.5"/>
<text text-anchor="middle" x="802.3799" y="-7.5" font-family="Helvetica,sans-Serif" font-size="10.00" fill="#000000">../Variables/Coordinates.h</text>
</a>
</g>
</g>
<!-- Node15&#45;&gt;Node20 -->
<g id="edge33" class="edge">
<title>Node15&#45;&gt;Node20</title>
<path fill="none" stroke="#191970" d="M702.1805,-56.3733C721.6042,-47.3838 750.8023,-33.8706 772.6763,-23.7471"/>
<polygon fill="#191970" stroke="#191970" points="774.2455,-26.8776 781.8507,-19.5011 771.3054,-20.5249 774.2455,-26.8776"/>
</g>
</g>
</svg>
        <g id="navigator" transform="translate(0 0)" fill="#404254">
                <rect fill="#f2f5e9" fill-opacity="0.5" stroke="#606060" stroke-width=".5" x="0" y="0" width="60" height="60"/>
                <use id="zoomplus" xlink:href="#zoomPlus" x="17" y="9" onmousedown="handleZoom(evt,'in')"/>
                <use id="zoomminus" xlink:href="#zoomMin" x="42" y="9" onmousedown="handleZoom(evt,'out')"/>
                <use id="reset" xlink:href="#resetDef" x="30" y="36" onmousedown="handleReset()"/>
                <g id="arrowUp" xlink:href="#dirArrow" transform="translate(30 24)" onmousedown="handlePan(0,-1)">
                  <use xlink:href="#rim" fill="#404040">
                        <set attributeName="fill" to="#808080" begin="arrowUp.mouseover" end="arrowUp.mouseout"/>
                  </use>
                  <path fill="none" stroke="white" stroke-width="1.5" d="M0,-3.0v7 M-2.5,-0.5L0,-3.0L2.5,-0.5"/>
                </g>
                <g id="arrowRight" xlink:href="#dirArrow" transform="rotate(90) translate(36 -43)" onmousedown="handlePan(1,0)">
                  <use xlink:href="#rim" fill="#404040">
                        <set attributeName="fill" to="#808080" begin="arrowRight.mouseover" end="arrowRight.mouseout"/>
                  </use>
                  <path fill="none" stroke="white" stroke-width="1.5" d="M0,-3.0v7 M-2.5,-0.5L0,-3.0L2.5,-0.5"/>
                </g>
                <g id="arrowDown" xlink:href="#dirArrow" transform="rotate(180) translate(-30 -48)" onmousedown="handlePan(0,1)">
                  <use xlink:href="#rim" fill="#404040">
                        <set attributeName="fill" to="#808080" begin="arrowDown.mouseover" end="arrowDown.mouseout"/>
                  </use>
                  <path fill="none" stroke="white" stroke-width="1.5" d="M0,-3.0v7 M-2.5,-0.5L0,-3.0L2.5,-0.5"/>
                </g>
                <g id="arrowLeft" xlink:href="#dirArrow" transform="rotate(270) translate(-36 17)" onmousedown="handlePan(-1,0)">
                  <use xlink:href="#rim" fill="#404040">
                        <set attributeName="fill" to="#808080" begin="arrowLeft.mouseover" end="arrowLeft.mouseout"/>
                  </use>
                  <path fill="none" stroke="white" stroke-width="1.5" d="M0,-3.0v7 M-2.5,-0.5L0,-3.0L2.5,-0.5"/>
                </g>
        </g>
        <svg viewBox="0 0 15 15" width="100%" height="30px" preserveAspectRatio="xMaxYMin meet">
         <g id="arrow_out" transform="scale(0.3 0.3)">
          <a xlink:href="main_8cpp__incl_org.svg" target="_base">
           <rect id="button" ry="5" rx="5" y="6" x="6" height="38" width="38"
                fill="#f2f5e9" fill-opacity="0.5" stroke="#606060" stroke-width="1.0"/>
           <path id="arrow"
             d="M 11.500037,31.436501 C 11.940474,20.09759 22.043105,11.32322 32.158766,21.979434 L 37.068811,17.246167 C 37.068811,17.246167 37.088388,32 37.088388,32 L 22.160133,31.978069 C 22.160133,31.978069 26.997745,27.140456 26.997745,27.140456 C 18.528582,18.264221 13.291696,25.230495 11.500037,31.436501 z"
             style="fill:#404040;"/>
          </a>
         </g>
        </svg>
</svg>
