<?xml version="1.0" encoding="UTF-8" standalone="no"?>
<!DOCTYPE svg PUBLIC "-//W3C//DTD SVG 1.1//EN"
 "http://www.w3.org/Graphics/SVG/1.1/DTD/svg11.dtd">
<!-- Generated by graphviz version 2.40.1 (20161225.0304)
 -->
<!-- Title: src/Problem/NlpFormulation.h Pages: 1 -->
<svg width="1095pt" height="308pt"
 viewBox="0.00 0.00 1094.50 308.00" xmlns="http://www.w3.org/2000/svg" xmlns:xlink="http://www.w3.org/1999/xlink">
<g id="graph0" class="graph" transform="scale(1 1) rotate(0) translate(4 304)">
<title>src/Problem/NlpFormulation.h</title>
<!-- Node0 -->
<g id="node1" class="node">
<title>Node0</title>
<polygon fill="#bfbfbf" stroke="#000000" points="346,-280.5 346,-299.5 492,-299.5 492,-280.5 346,-280.5"/>
<text text-anchor="middle" x="419" y="-287.5" font-family="Helvetica,sans-Serif" font-size="10.00" fill="#000000">src/Problem/NlpFormulation.h</text>
</g>
<!-- Node1 -->
<g id="node2" class="node">
<title>Node1</title>
<polygon fill="none" stroke="#bfbfbf" points="0,-224.5 0,-243.5 108,-243.5 108,-224.5 0,-224.5"/>
<text text-anchor="middle" x="54" y="-231.5" font-family="Helvetica,sans-Serif" font-size="10.00" fill="#000000">ifopt/constraint_set.h</text>
</g>
<!-- Node0&#45;&gt;Node1 -->
<g id="edge1" class="edge">
<title>Node0&#45;&gt;Node1</title>
<path fill="none" stroke="#191970" d="M355.6438,-280.4676C296.7328,-271.5772 206.2366,-257.852 118.1833,-244.1774"/>
<polygon fill="#191970" stroke="#191970" points="118.7117,-240.7176 108.2927,-242.64 117.6365,-247.6345 118.7117,-240.7176"/>
</g>
<!-- Node2 -->
<g id="node3" class="node">
<title>Node2</title>
<polygon fill="none" stroke="#bfbfbf" points="126,-224.5 126,-243.5 216,-243.5 216,-224.5 126,-224.5"/>
<text text-anchor="middle" x="171" y="-231.5" font-family="Helvetica,sans-Serif" font-size="10.00" fill="#000000">ifopt/cost_term.h</text>
</g>
<!-- Node0&#45;&gt;Node2 -->
<g id="edge2" class="edge">
<title>Node0&#45;&gt;Node2</title>
<path fill="none" stroke="#191970" d="M376.6491,-280.4369C334.2058,-270.8529 268.7881,-256.0812 223.1687,-245.78"/>
<polygon fill="#191970" stroke="#191970" points="223.7016,-242.3123 213.1763,-243.5237 222.1597,-249.1404 223.7016,-242.3123"/>
</g>
<!-- Node3 -->
<g id="node4" class="node">
<title>Node3</title>
<polygon fill="none" stroke="#bfbfbf" points="234.5,-224.5 234.5,-243.5 333.5,-243.5 333.5,-224.5 234.5,-224.5"/>
<text text-anchor="middle" x="284" y="-231.5" font-family="Helvetica,sans-Serif" font-size="10.00" fill="#000000">ifopt/ipopt_solver.h</text>
</g>
<!-- Node0&#45;&gt;Node3 -->
<g id="edge3" class="edge">
<title>Node0&#45;&gt;Node3</title>
<path fill="none" stroke="#191970" d="M395.7927,-280.3733C373.8301,-271.2629 340.6668,-257.5062 316.1599,-247.3404"/>
<polygon fill="#191970" stroke="#191970" points="317.4824,-244.0999 306.9045,-243.5011 314.8003,-250.5657 317.4824,-244.0999"/>
</g>
<!-- Node4 -->
<g id="node5" class="node">
<title>Node4</title>
<g id="a_node5"><a xlink:href="Parameters_8h.html" target="_top" xlink:title="Parameters.h">
<polygon fill="none" stroke="#000000" points="296.5,-168.5 296.5,-187.5 371.5,-187.5 371.5,-168.5 296.5,-168.5"/>
<text text-anchor="middle" x="334" y="-175.5" font-family="Helvetica,sans-Serif" font-size="10.00" fill="#000000">Parameters.h</text>
</a>
</g>
</g>
<!-- Node0&#45;&gt;Node4 -->
<g id="edge4" class="edge">
<title>Node0&#45;&gt;Node4</title>
<path fill="none" stroke="#191970" d="M411.7529,-280.4509C397.5132,-261.688 365.6889,-219.7548 347.477,-195.758"/>
<polygon fill="#191970" stroke="#191970" points="350.0622,-193.3747 341.2287,-187.5249 344.4862,-197.6065 350.0622,-193.3747"/>
</g>
<!-- Node6 -->
<g id="node7" class="node">
<title>Node6</title>
<g id="a_node7"><a xlink:href="NodesHolder_8h.html" target="_top" xlink:title="../Variables/NodesHolder.h">
<polygon fill="none" stroke="#000000" points="452,-168.5 452,-187.5 586,-187.5 586,-168.5 452,-168.5"/>
<text text-anchor="middle" x="519" y="-175.5" font-family="Helvetica,sans-Serif" font-size="10.00" fill="#000000">../Variables/NodesHolder.h</text>
</a>
</g>
</g>
<!-- Node0&#45;&gt;Node6 -->
<g id="edge6" class="edge">
<title>Node0&#45;&gt;Node6</title>
<path fill="none" stroke="#191970" d="M423.2594,-280.2726C429.5265,-266.6738 442.2157,-241.6663 458,-224 468.493,-212.2559 482.3746,-201.5104 494.2443,-193.3636"/>
<polygon fill="#191970" stroke="#191970" points="496.4378,-196.1088 502.8396,-187.6667 492.5706,-190.274 496.4378,-196.1088"/>
</g>
<!-- Node7 -->
<g id="node8" class="node">
<title>Node7</title>
<g id="a_node8"><a xlink:href="NodesVariables_8h.html" target="_top" xlink:title="NodesVariables.h">
<polygon fill="none" stroke="#000000" points="472,-112.5 472,-131.5 566,-131.5 566,-112.5 472,-112.5"/>
<text text-anchor="middle" x="519" y="-119.5" font-family="Helvetica,sans-Serif" font-size="10.00" fill="#000000">NodesVariables.h</text>
</a>
</g>
</g>
<!-- Node0&#45;&gt;Node7 -->
<g id="edge17" class="edge">
<title>Node0&#45;&gt;Node7</title>
<path fill="none" stroke="#191970" d="M490.9071,-280.4651C534.305,-273.0701 583.7108,-261.1601 597,-244 604.8713,-233.8359 614.0699,-200.4646 595,-168 586.5415,-153.6002 571.6415,-143.1522 557.2625,-135.8891"/>
<polygon fill="#191970" stroke="#191970" points="558.5052,-132.6072 547.9616,-131.5667 555.5551,-138.9552 558.5052,-132.6072"/>
</g>
<!-- Node9 -->
<g id="node10" class="node">
<title>Node9</title>
<g id="a_node10"><a xlink:href="NodeTimes_8h.html" target="_top" xlink:title="NodeTimes.h">
<polygon fill="none" stroke="#000000" points="357.5,-56.5 357.5,-75.5 432.5,-75.5 432.5,-56.5 357.5,-56.5"/>
<text text-anchor="middle" x="395" y="-63.5" font-family="Helvetica,sans-Serif" font-size="10.00" fill="#000000">NodeTimes.h</text>
</a>
</g>
</g>
<!-- Node0&#45;&gt;Node9 -->
<g id="edge18" class="edge">
<title>Node0&#45;&gt;Node9</title>
<path fill="none" stroke="#191970" d="M417.9688,-280.375C414.33,-246.4133 402.0443,-131.7472 397.0935,-85.5392"/>
<polygon fill="#191970" stroke="#191970" points="400.5729,-85.1593 396.0274,-75.5891 393.6127,-85.9051 400.5729,-85.1593"/>
</g>
<!-- Node11 -->
<g id="node12" class="node">
<title>Node11</title>
<g id="a_node12"><a xlink:href="PhaseDurations_8h.html" target="_top" xlink:title="PhaseDurations.h">
<polygon fill="none" stroke="#000000" points="567.5,-56.5 567.5,-75.5 662.5,-75.5 662.5,-56.5 567.5,-56.5"/>
<text text-anchor="middle" x="615" y="-63.5" font-family="Helvetica,sans-Serif" font-size="10.00" fill="#000000">PhaseDurations.h</text>
</a>
</g>
</g>
<!-- Node0&#45;&gt;Node11 -->
<g id="edge19" class="edge">
<title>Node0&#45;&gt;Node11</title>
<path fill="none" stroke="#191970" d="M492.1922,-282.143C540.918,-275.2335 598.6993,-263.2189 614,-244 650.8058,-197.7691 633.1855,-121.2905 621.9109,-85.5449"/>
<polygon fill="#191970" stroke="#191970" points="625.1596,-84.2224 618.6829,-75.8377 618.5173,-86.4312 625.1596,-84.2224"/>
</g>
<!-- Node12 -->
<g id="node13" class="node">
<title>Node12</title>
<g id="a_node13"><a xlink:href="RobotModel_8h.html" target="_top" xlink:title="../Robots/RobotModel.h">
<polygon fill="none" stroke="#000000" points="466.5,-224.5 466.5,-243.5 587.5,-243.5 587.5,-224.5 466.5,-224.5"/>
<text text-anchor="middle" x="527" y="-231.5" font-family="Helvetica,sans-Serif" font-size="10.00" fill="#000000">../Robots/RobotModel.h</text>
</a>
</g>
</g>
<!-- Node0&#45;&gt;Node12 -->
<g id="edge20" class="edge">
<title>Node0&#45;&gt;Node12</title>
<path fill="none" stroke="#191970" d="M437.8122,-280.2455C454.8473,-271.4125 480.1575,-258.2887 499.4681,-248.2758"/>
<polygon fill="#191970" stroke="#191970" points="501.137,-251.353 508.4034,-243.6427 497.9147,-245.1388 501.137,-251.353"/>
</g>
<!-- Node13 -->
<g id="node14" class="node">
<title>Node13</title>
<g id="a_node14"><a xlink:href="HeightMap_8h.html" target="_top" xlink:title="../Terrain/HeightMap.h">
<polygon fill="none" stroke="#000000" points="719,-56.5 719,-75.5 833,-75.5 833,-56.5 719,-56.5"/>
<text text-anchor="middle" x="776" y="-63.5" font-family="Helvetica,sans-Serif" font-size="10.00" fill="#000000">../Terrain/HeightMap.h</text>
</a>
</g>
</g>
<!-- Node0&#45;&gt;Node13 -->
<g id="edge23" class="edge">
<title>Node0&#45;&gt;Node13</title>
<path fill="none" stroke="#191970" d="M486.7431,-280.4854C539.9042,-272.099 608.8258,-258.9169 633,-244 698.6796,-203.4719 747.1685,-121.6335 766.6254,-84.7617"/>
<polygon fill="#191970" stroke="#191970" points="769.8636,-86.1185 771.3336,-75.6261 763.6413,-82.9117 769.8636,-86.1185"/>
</g>
<!-- Node5 -->
<g id="node6" class="node">
<title>Node5</title>
<polygon fill="none" stroke="#bfbfbf" points="450,-.5 450,-19.5 494,-19.5 494,-.5 450,-.5"/>
<text text-anchor="middle" x="472" y="-7.5" font-family="Helvetica,sans-Serif" font-size="10.00" fill="#000000">vector</text>
</g>
<!-- Node4&#45;&gt;Node5 -->
<g id="edge5" class="edge">
<title>Node4&#45;&gt;Node5</title>
<path fill="none" stroke="#191970" d="M332.1022,-168.1902C328.342,-145.683 322.4436,-89.684 349,-56 370.8741,-28.255 411.3381,-17.2442 439.8696,-12.8747"/>
<polygon fill="#191970" stroke="#191970" points="440.338,-16.3433 449.7848,-11.5466 439.4087,-9.4052 440.338,-16.3433"/>
</g>
<!-- Node6&#45;&gt;Node7 -->
<g id="edge7" class="edge">
<title>Node6&#45;&gt;Node7</title>
<path fill="none" stroke="#191970" d="M519,-168.2455C519,-160.9382 519,-150.6944 519,-141.7046"/>
<polygon fill="#191970" stroke="#191970" points="522.5001,-141.6426 519,-131.6427 515.5001,-141.6427 522.5001,-141.6426"/>
</g>
<!-- Node6&#45;&gt;Node9 -->
<g id="edge15" class="edge">
<title>Node6&#45;&gt;Node9</title>
<path fill="none" stroke="#191970" d="M506.7417,-168.4119C495.2309,-159.2967 477.638,-145.0754 463,-132 444.9482,-115.8753 425.1858,-96.4855 411.6413,-82.9094"/>
<polygon fill="#191970" stroke="#191970" points="413.9728,-80.29 404.4449,-75.6564 409.0037,-85.2203 413.9728,-80.29"/>
</g>
<!-- Node6&#45;&gt;Node11 -->
<g id="edge16" class="edge">
<title>Node6&#45;&gt;Node11</title>
<path fill="none" stroke="#191970" d="M533.4956,-168.2074C545.5393,-159.6044 562.6411,-146.263 575,-132 587.5675,-117.4962 598.5938,-98.5611 605.8692,-84.6938"/>
<polygon fill="#191970" stroke="#191970" points="609.0658,-86.1288 610.4723,-75.6278 602.8243,-82.9597 609.0658,-86.1288"/>
</g>
<!-- Node8 -->
<g id="node9" class="node">
<title>Node8</title>
<polygon fill="none" stroke="#bfbfbf" points="450.5,-56.5 450.5,-75.5 549.5,-75.5 549.5,-56.5 450.5,-56.5"/>
<text text-anchor="middle" x="500" y="-63.5" font-family="Helvetica,sans-Serif" font-size="10.00" fill="#000000">ifopt/variable_set.h</text>
</g>
<!-- Node7&#45;&gt;Node8 -->
<g id="edge8" class="edge">
<title>Node7&#45;&gt;Node8</title>
<path fill="none" stroke="#191970" d="M515.6905,-112.2455C513.1567,-104.7776 509.5823,-94.2427 506.485,-85.1137"/>
<polygon fill="#191970" stroke="#191970" points="509.7991,-83.9879 503.2716,-75.6427 503.1702,-86.237 509.7991,-83.9879"/>
</g>
<!-- Node7&#45;&gt;Node9 -->
<g id="edge9" class="edge">
<title>Node7&#45;&gt;Node9</title>
<path fill="none" stroke="#191970" d="M497.6836,-112.3733C477.7784,-103.3838 447.8564,-89.8706 425.44,-79.7471"/>
<polygon fill="#191970" stroke="#191970" points="426.5925,-76.4272 416.0382,-75.5011 423.7113,-82.8068 426.5925,-76.4272"/>
</g>
<!-- Node7&#45;&gt;Node11 -->
<g id="edge12" class="edge">
<title>Node7&#45;&gt;Node11</title>
<path fill="none" stroke="#191970" d="M535.7219,-112.2455C550.5889,-103.5731 572.5466,-90.7645 589.5858,-80.825"/>
<polygon fill="#191970" stroke="#191970" points="591.5955,-83.7047 598.4697,-75.6427 588.0683,-77.6582 591.5955,-83.7047"/>
</g>
<!-- Node9&#45;&gt;Node5 -->
<g id="edge10" class="edge">
<title>Node9&#45;&gt;Node5</title>
<path fill="none" stroke="#191970" d="M408.4124,-56.2455C420.0057,-47.814 436.9748,-35.4729 450.4678,-25.6598"/>
<polygon fill="#191970" stroke="#191970" points="452.7126,-28.355 458.7413,-19.6427 448.5953,-22.6938 452.7126,-28.355"/>
</g>
<!-- Node10 -->
<g id="node11" class="node">
<title>Node10</title>
<polygon fill="none" stroke="#bfbfbf" points="589,-.5 589,-19.5 641,-19.5 641,-.5 589,-.5"/>
<text text-anchor="middle" x="615" y="-7.5" font-family="Helvetica,sans-Serif" font-size="10.00" fill="#000000">memory</text>
</g>
<!-- Node9&#45;&gt;Node10 -->
<g id="edge11" class="edge">
<title>Node9&#45;&gt;Node10</title>
<path fill="none" stroke="#191970" d="M432.8193,-56.3733C473.7312,-45.9593 538.4931,-29.4745 578.773,-19.2214"/>
<polygon fill="#191970" stroke="#191970" points="579.876,-22.5524 588.7035,-16.6936 578.1492,-15.7687 579.876,-22.5524"/>
</g>
<!-- Node11&#45;&gt;Node5 -->
<g id="edge14" class="edge">
<title>Node11&#45;&gt;Node5</title>
<path fill="none" stroke="#191970" d="M590.4174,-56.3733C566.484,-47.0007 529.9934,-32.7107 503.848,-22.472"/>
<polygon fill="#191970" stroke="#191970" points="504.9696,-19.1524 494.3818,-18.7649 502.417,-25.6704 504.9696,-19.1524"/>
</g>
<!-- Node11&#45;&gt;Node10 -->
<g id="edge13" class="edge">
<title>Node11&#45;&gt;Node10</title>
<path fill="none" stroke="#191970" d="M615,-56.2455C615,-48.9382 615,-38.6944 615,-29.7046"/>
<polygon fill="#191970" stroke="#191970" points="618.5001,-29.6426 615,-19.6427 611.5001,-29.6427 618.5001,-29.6426"/>
</g>
<!-- Node12&#45;&gt;Node6 -->
<g id="edge22" class="edge">
<title>Node12&#45;&gt;Node6</title>
<path fill="none" stroke="#191970" d="M525.6065,-224.2455C524.5626,-216.9382 523.0992,-206.6944 521.8149,-197.7046"/>
<polygon fill="#191970" stroke="#191970" points="525.2566,-197.0472 520.3775,-187.6427 518.327,-198.0372 525.2566,-197.0472"/>
</g>
<!-- Node12&#45;&gt;Node10 -->
<g id="edge21" class="edge">
<title>Node12&#45;&gt;Node10</title>
<path fill="none" stroke="#191970" d="M544.8081,-224.4499C559.364,-216.0888 579.9267,-202.9602 595,-188 637.8746,-145.447 654.0826,-133.6884 672,-76 674.6366,-67.5111 675.8335,-64.0198 672,-56 665.8552,-43.1449 654.1701,-32.7306 642.9715,-25.0832"/>
<polygon fill="#191970" stroke="#191970" points="644.5339,-21.9304 634.21,-19.5495 640.7959,-27.8488 644.5339,-21.9304"/>
</g>
<!-- Node13&#45;&gt;Node5 -->
<g id="edge25" class="edge">
<title>Node13&#45;&gt;Node5</title>
<path fill="none" stroke="#191970" d="M724.086,-56.4369C661.1011,-44.8344 556.8423,-25.6289 504.3353,-15.9565"/>
<polygon fill="#191970" stroke="#191970" points="504.719,-12.4684 494.2504,-14.0988 503.4508,-19.3525 504.719,-12.4684"/>
</g>
<!-- Node13&#45;&gt;Node10 -->
<g id="edge24" class="edge">
<title>Node13&#45;&gt;Node10</title>
<path fill="none" stroke="#191970" d="M748.3231,-56.3733C721.3441,-46.9892 680.1926,-32.6757 650.7487,-22.4343"/>
<polygon fill="#191970" stroke="#191970" points="651.8444,-19.1098 641.2496,-19.1303 649.5447,-25.7213 651.8444,-19.1098"/>
</g>
<!-- Node14 -->
<g id="node15" class="node">
<title>Node14</title>
<polygon fill="none" stroke="#bfbfbf" points="1051.5,-.5 1051.5,-19.5 1086.5,-19.5 1086.5,-.5 1051.5,-.5"/>
<text text-anchor="middle" x="1069" y="-7.5" font-family="Helvetica,sans-Serif" font-size="10.00" fill="#000000">map</text>
</g>
<!-- Node13&#45;&gt;Node14 -->
<g id="edge26" class="edge">
<title>Node13&#45;&gt;Node14</title>
<path fill="none" stroke="#191970" d="M833.217,-59.1955C885.3076,-52.3069 964.3644,-40.1185 1041.5417,-19.6995"/>
<polygon fill="#191970" stroke="#191970" points="1042.687,-23.0158 1051.4317,-17.0341 1040.8654,-16.2569 1042.687,-23.0158"/>
</g>
<!-- Node15 -->
<g id="node16" class="node">
<title>Node15</title>
<polygon fill="none" stroke="#bfbfbf" points="659.5,-.5 659.5,-19.5 700.5,-19.5 700.5,-.5 659.5,-.5"/>
<text text-anchor="middle" x="680" y="-7.5" font-family="Helvetica,sans-Serif" font-size="10.00" fill="#000000">string</text>
</g>
<!-- Node13&#45;&gt;Node15 -->
<g id="edge27" class="edge">
<title>Node13&#45;&gt;Node15</title>
<path fill="none" stroke="#191970" d="M759.2781,-56.2455C744.4111,-47.5731 722.4534,-34.7645 705.4142,-24.825"/>
<polygon fill="#191970" stroke="#191970" points="706.9317,-21.6582 696.5303,-19.6427 703.4045,-27.7047 706.9317,-21.6582"/>
</g>
<!-- Node16 -->
<g id="node17" class="node">
<title>Node16</title>
<polygon fill="none" stroke="#bfbfbf" points="718.5,-.5 718.5,-19.5 791.5,-19.5 791.5,-.5 718.5,-.5"/>
<text text-anchor="middle" x="755" y="-7.5" font-family="Helvetica,sans-Serif" font-size="10.00" fill="#000000">Eigen/Dense</text>
</g>
<!-- Node13&#45;&gt;Node16 -->
<g id="edge28" class="edge">
<title>Node13&#45;&gt;Node16</title>
<path fill="none" stroke="#191970" d="M772.3421,-56.2455C769.5416,-48.7776 765.591,-38.2427 762.1676,-29.1137"/>
<polygon fill="#191970" stroke="#191970" points="765.4045,-27.777 758.616,-19.6427 758.8501,-30.2349 765.4045,-27.777"/>
</g>
<!-- Node17 -->
<g id="node18" class="node">
<title>Node17</title>
<polygon fill="none" stroke="#bfbfbf" points="809.5,-.5 809.5,-19.5 884.5,-19.5 884.5,-.5 809.5,-.5"/>
<text text-anchor="middle" x="847" y="-7.5" font-family="Helvetica,sans-Serif" font-size="10.00" fill="#000000">Eigen/Sparse</text>
</g>
<!-- Node13&#45;&gt;Node17 -->
<g id="edge29" class="edge">
<title>Node13&#45;&gt;Node17</title>
<path fill="none" stroke="#191970" d="M788.3673,-56.2455C798.9554,-47.8943 814.4064,-35.7076 826.7893,-25.9408"/>
<polygon fill="#191970" stroke="#191970" points="829.0903,-28.5837 834.7745,-19.6427 824.7553,-23.0875 829.0903,-28.5837"/>
</g>
<!-- Node18 -->
<g id="node19" class="node">
<title>Node18</title>
<g id="a_node19"><a xlink:href="Coordinates_8h.html" target="_top" xlink:title="../Variables/Coordinates.h">
<polygon fill="none" stroke="#000000" points="903,-.5 903,-19.5 1033,-19.5 1033,-.5 903,-.5"/>
<text text-anchor="middle" x="968" y="-7.5" font-family="Helvetica,sans-Serif" font-size="10.00" fill="#000000">../Variables/Coordinates.h</text>
</a>
</g>
</g>
<!-- Node13&#45;&gt;Node18 -->
<g id="edge30" class="edge">
<title>Node13&#45;&gt;Node18</title>
<path fill="none" stroke="#191970" d="M809.006,-56.3733C841.2091,-46.9807 890.3442,-32.6496 925.4639,-22.4064"/>
<polygon fill="#191970" stroke="#191970" points="926.8047,-25.6612 935.4247,-19.5011 924.8447,-18.9412 926.8047,-25.6612"/>
</g>
</g>
</svg>
