<?xml version="1.0" encoding="UTF-8" standalone="no"?>
<!DOCTYPE svg PUBLIC "-//W3C//DTD SVG 1.1//EN"
 "http://www.w3.org/Graphics/SVG/1.1/DTD/svg11.dtd">
<!-- Generated by graphviz version 2.40.1 (20161225.0304)
 -->
<!-- Title: src/Problem/NlpFormulation.cpp Pages: 1 -->
<svg width="1607pt" height="375pt"
 viewBox="0.00 0.00 1607.00 375.00" xmlns="http://www.w3.org/2000/svg" xmlns:xlink="http://www.w3.org/1999/xlink">
<g id="graph0" class="graph" transform="scale(1 1) rotate(0) translate(4 371)">
<title>src/Problem/NlpFormulation.cpp</title>
<!-- Node0 -->
<g id="node1" class="node">
<title>Node0</title>
<polygon fill="#bfbfbf" stroke="#000000" points="754,-347.5 754,-366.5 911,-366.5 911,-347.5 754,-347.5"/>
<text text-anchor="middle" x="832.5" y="-354.5" font-family="Helvetica,sans-Serif" font-size="10.00" fill="#000000">src/Problem/NlpFormulation.cpp</text>
</g>
<!-- Node1 -->
<g id="node2" class="node">
<title>Node1</title>
<polygon fill="none" stroke="#bfbfbf" points="133.5,-286 133.5,-305 187.5,-305 187.5,-286 133.5,-286"/>
<text text-anchor="middle" x="160.5" y="-293" font-family="Helvetica,sans-Serif" font-size="10.00" fill="#000000">iostream</text>
</g>
<!-- Node0&#45;&gt;Node1 -->
<g id="edge1" class="edge">
<title>Node0&#45;&gt;Node1</title>
<path fill="none" stroke="#191970" d="M753.7799,-354.094C608.7133,-348.2695 304.6045,-333.7431 201.5,-311 198.3046,-310.2952 195.026,-309.3898 191.7821,-308.3711"/>
<polygon fill="#191970" stroke="#191970" points="192.868,-305.0432 182.2732,-305.0626 190.5677,-311.6545 192.868,-305.0432"/>
</g>
<!-- Node2 -->
<g id="node3" class="node">
<title>Node2</title>
<g id="a_node3"><a xlink:href="NlpFormulation_8h.html" target="_top" xlink:title="NlpFormulation.h">
<polygon fill="none" stroke="#000000" points="244,-286 244,-305 335,-305 335,-286 244,-286"/>
<text text-anchor="middle" x="289.5" y="-293" font-family="Helvetica,sans-Serif" font-size="10.00" fill="#000000">NlpFormulation.h</text>
</a>
</g>
</g>
<!-- Node0&#45;&gt;Node2 -->
<g id="edge2" class="edge">
<title>Node0&#45;&gt;Node2</title>
<path fill="none" stroke="#191970" d="M753.7145,-353.9547C656.7362,-349.203 487.3427,-337.6339 344.5,-311 339.508,-310.0692 334.3133,-308.8909 329.1967,-307.6014"/>
<polygon fill="#191970" stroke="#191970" points="330.0915,-304.2177 319.5271,-305.0201 328.286,-310.9809 330.0915,-304.2177"/>
</g>
<!-- Node21 -->
<g id="node22" class="node">
<title>Node21</title>
<g id="a_node22"><a xlink:href="VariablesNames_8h.html" target="_top" xlink:title="../Variables/VariablesNames.h">
<polygon fill="none" stroke="#000000" points="1450,-224.5 1450,-243.5 1599,-243.5 1599,-224.5 1450,-224.5"/>
<text text-anchor="middle" x="1524.5" y="-231.5" font-family="Helvetica,sans-Serif" font-size="10.00" fill="#000000">../Variables/VariablesNames.h</text>
</a>
</g>
</g>
<!-- Node0&#45;&gt;Node21 -->
<g id="edge33" class="edge">
<title>Node0&#45;&gt;Node21</title>
<path fill="none" stroke="#191970" d="M911.1005,-354.7152C1090.3099,-349.1238 1515.3825,-333.5424 1536.5,-311 1550.959,-295.5654 1543.2855,-270.2698 1535.1177,-252.911"/>
<polygon fill="#191970" stroke="#191970" points="1538.093,-251.0427 1530.415,-243.742 1531.8645,-254.2373 1538.093,-251.0427"/>
</g>
<!-- Node22 -->
<g id="node23" class="node">
<title>Node22</title>
<g id="a_node23"><a xlink:href="IntegrationConstraint_8h.html" target="_top" xlink:title="../Constraints/Integration\lConstraint.h">
<polygon fill="none" stroke="#000000" points="691,-280.5 691,-310.5 816,-310.5 816,-280.5 691,-280.5"/>
<text text-anchor="start" x="699" y="-298.5" font-family="Helvetica,sans-Serif" font-size="10.00" fill="#000000">../Constraints/Integration</text>
<text text-anchor="middle" x="753.5" y="-287.5" font-family="Helvetica,sans-Serif" font-size="10.00" fill="#000000">Constraint.h</text>
</a>
</g>
</g>
<!-- Node0&#45;&gt;Node22 -->
<g id="edge35" class="edge">
<title>Node0&#45;&gt;Node22</title>
<path fill="none" stroke="#191970" d="M820.1563,-347.3906C809.6626,-339.2215 794.2128,-327.1941 780.8291,-316.7752"/>
<polygon fill="#191970" stroke="#191970" points="782.8664,-313.9257 772.8256,-310.5446 778.5664,-319.4493 782.8664,-313.9257"/>
</g>
<!-- Node24 -->
<g id="node25" class="node">
<title>Node24</title>
<g id="a_node25"><a xlink:href="QuaternionConstraint_8h.html" target="_top" xlink:title="../Constraints/Quaternion\lConstraint.h">
<polygon fill="none" stroke="#000000" points="353.5,-280.5 353.5,-310.5 479.5,-310.5 479.5,-280.5 353.5,-280.5"/>
<text text-anchor="start" x="361.5" y="-298.5" font-family="Helvetica,sans-Serif" font-size="10.00" fill="#000000">../Constraints/Quaternion</text>
<text text-anchor="middle" x="416.5" y="-287.5" font-family="Helvetica,sans-Serif" font-size="10.00" fill="#000000">Constraint.h</text>
</a>
</g>
</g>
<!-- Node0&#45;&gt;Node24 -->
<g id="edge40" class="edge">
<title>Node0&#45;&gt;Node24</title>
<path fill="none" stroke="#191970" d="M753.6696,-348.2564C686.0903,-340.3475 585.9409,-327.6487 489.5746,-311.1103"/>
<polygon fill="#191970" stroke="#191970" points="490.1116,-307.6512 479.6608,-309.3928 488.9166,-314.5485 490.1116,-307.6512"/>
</g>
<!-- Node25 -->
<g id="node26" class="node">
<title>Node25</title>
<g id="a_node26"><a xlink:href="DynamicsConstraint_8h.html" target="_top" xlink:title="../Constraints/DynamicsConstraint.h">
<polygon fill="none" stroke="#000000" points="497.5,-286 497.5,-305 673.5,-305 673.5,-286 497.5,-286"/>
<text text-anchor="middle" x="585.5" y="-293" font-family="Helvetica,sans-Serif" font-size="10.00" fill="#000000">../Constraints/DynamicsConstraint.h</text>
</a>
</g>
</g>
<!-- Node0&#45;&gt;Node25 -->
<g id="edge43" class="edge">
<title>Node0&#45;&gt;Node25</title>
<path fill="none" stroke="#191970" d="M794.1773,-347.4581C751.003,-336.7082 680.7505,-319.2162 633.8416,-307.5365"/>
<polygon fill="#191970" stroke="#191970" points="634.462,-304.0842 623.9126,-305.0643 632.7707,-310.8768 634.462,-304.0842"/>
</g>
<!-- Node26 -->
<g id="node27" class="node">
<title>Node26</title>
<g id="a_node27"><a xlink:href="TerrainConstraint_8h.html" target="_top" xlink:title="../Constraints/TerrainConstraint.h">
<polygon fill="none" stroke="#000000" points="1009.5,-286 1009.5,-305 1171.5,-305 1171.5,-286 1009.5,-286"/>
<text text-anchor="middle" x="1090.5" y="-293" font-family="Helvetica,sans-Serif" font-size="10.00" fill="#000000">../Constraints/TerrainConstraint.h</text>
</a>
</g>
</g>
<!-- Node0&#45;&gt;Node26 -->
<g id="edge46" class="edge">
<title>Node0&#45;&gt;Node26</title>
<path fill="none" stroke="#191970" d="M872.5294,-347.4581C917.8155,-336.6632 991.6234,-319.0694 1040.6206,-307.3899"/>
<polygon fill="#191970" stroke="#191970" points="1041.4608,-310.7877 1050.3767,-305.0643 1039.8376,-303.9785 1041.4608,-310.7877"/>
</g>
<!-- Node27 -->
<g id="node28" class="node">
<title>Node27</title>
<g id="a_node28"><a xlink:href="ForceConstraint_8h.html" target="_top" xlink:title="../Constraints/ForceConstraint.h">
<polygon fill="none" stroke="#000000" points="834,-286 834,-305 991,-305 991,-286 834,-286"/>
<text text-anchor="middle" x="912.5" y="-293" font-family="Helvetica,sans-Serif" font-size="10.00" fill="#000000">../Constraints/ForceConstraint.h</text>
</a>
</g>
</g>
<!-- Node0&#45;&gt;Node27 -->
<g id="edge50" class="edge">
<title>Node0&#45;&gt;Node27</title>
<path fill="none" stroke="#191970" d="M845,-347.3906C857.5636,-337.7324 877.1423,-322.6812 891.9849,-311.271"/>
<polygon fill="#191970" stroke="#191970" points="894.2928,-313.9115 900.0878,-305.0419 890.0265,-308.3618 894.2928,-313.9115"/>
</g>
<!-- Node28 -->
<g id="node29" class="node">
<title>Node28</title>
<g id="a_node29"><a xlink:href="SymmetryConstraint_8h.html" target="_top" xlink:title="../Constraints/SymmetryConstraint.h">
<polygon fill="none" stroke="#000000" points="0,-224.5 0,-243.5 177,-243.5 177,-224.5 0,-224.5"/>
<text text-anchor="middle" x="88.5" y="-231.5" font-family="Helvetica,sans-Serif" font-size="10.00" fill="#000000">../Constraints/SymmetryConstraint.h</text>
</a>
</g>
</g>
<!-- Node0&#45;&gt;Node28 -->
<g id="edge54" class="edge">
<title>Node0&#45;&gt;Node28</title>
<path fill="none" stroke="#191970" d="M753.8369,-353.5106C602.7198,-346.4318 282.5483,-329.4789 235.5,-311 214.8906,-302.9054 215.524,-291.3295 196.5,-280 174.1788,-266.707 147.3079,-255.2465 125.9532,-247.0896"/>
<polygon fill="#191970" stroke="#191970" points="127.1583,-243.8036 116.5658,-243.5796 124.7067,-250.3603 127.1583,-243.8036"/>
</g>
<!-- Node29 -->
<g id="node30" class="node">
<title>Node29</title>
<g id="a_node30"><a xlink:href="NodeCost_8h.html" target="_top" xlink:title="../Costs/NodeCost.h">
<polygon fill="none" stroke="#000000" points="1294,-224.5 1294,-243.5 1401,-243.5 1401,-224.5 1294,-224.5"/>
<text text-anchor="middle" x="1347.5" y="-231.5" font-family="Helvetica,sans-Serif" font-size="10.00" fill="#000000">../Costs/NodeCost.h</text>
</a>
</g>
</g>
<!-- Node0&#45;&gt;Node29 -->
<g id="edge57" class="edge">
<title>Node0&#45;&gt;Node29</title>
<path fill="none" stroke="#191970" d="M911.0607,-354.6466C1042.953,-349.9765 1297.5912,-337.6034 1328.5,-311 1344.7566,-297.0078 1348.2641,-271.5328 1348.5187,-253.7307"/>
<polygon fill="#191970" stroke="#191970" points="1352.0153,-253.5067 1348.3299,-243.5735 1345.0165,-253.6369 1352.0153,-253.5067"/>
</g>
<!-- Node30 -->
<g id="node31" class="node">
<title>Node30</title>
<g id="a_node31"><a xlink:href="NodeDerivativeCost_8h.html" target="_top" xlink:title="../Costs/NodeDerivativeCost.h">
<polygon fill="none" stroke="#000000" points="1375.5,-286 1375.5,-305 1527.5,-305 1527.5,-286 1375.5,-286"/>
<text text-anchor="middle" x="1451.5" y="-293" font-family="Helvetica,sans-Serif" font-size="10.00" fill="#000000">../Costs/NodeDerivativeCost.h</text>
</a>
</g>
</g>
<!-- Node0&#45;&gt;Node30 -->
<g id="edge61" class="edge">
<title>Node0&#45;&gt;Node30</title>
<path fill="none" stroke="#191970" d="M911.1453,-352.2278C1014.6667,-345.4736 1202.1918,-331.6078 1361.5,-311 1370.9528,-309.7772 1380.9292,-308.2739 1390.6619,-306.6894"/>
<polygon fill="#191970" stroke="#191970" points="1391.3965,-310.1153 1400.684,-305.017 1390.2443,-303.2107 1391.3965,-310.1153"/>
</g>
<!-- Node31 -->
<g id="node32" class="node">
<title>Node31</title>
<g id="a_node32"><a xlink:href="FootLiftReward_8h.html" target="_top" xlink:title="../Costs/FootLiftReward.h">
<polygon fill="none" stroke="#000000" points="1189.5,-286 1189.5,-305 1319.5,-305 1319.5,-286 1189.5,-286"/>
<text text-anchor="middle" x="1254.5" y="-293" font-family="Helvetica,sans-Serif" font-size="10.00" fill="#000000">../Costs/FootLiftReward.h</text>
</a>
</g>
</g>
<!-- Node0&#45;&gt;Node31 -->
<g id="edge63" class="edge">
<title>Node0&#45;&gt;Node31</title>
<path fill="none" stroke="#191970" d="M911.1881,-348.3068C981.8872,-340.0906 1088.4358,-326.7038 1180.5,-311 1187.2809,-309.8434 1194.3867,-308.5107 1201.4001,-307.1226"/>
<polygon fill="#191970" stroke="#191970" points="1202.4555,-310.4799 1211.561,-305.0632 1201.065,-303.6194 1202.4555,-310.4799"/>
</g>
<!-- Node3 -->
<g id="node4" class="node">
<title>Node3</title>
<polygon fill="none" stroke="#bfbfbf" points="111.5,-168.5 111.5,-187.5 219.5,-187.5 219.5,-168.5 111.5,-168.5"/>
<text text-anchor="middle" x="165.5" y="-175.5" font-family="Helvetica,sans-Serif" font-size="10.00" fill="#000000">ifopt/constraint_set.h</text>
</g>
<!-- Node2&#45;&gt;Node3 -->
<g id="edge3" class="edge">
<title>Node2&#45;&gt;Node3</title>
<path fill="none" stroke="#191970" d="M277.4811,-285.9914C264.937,-275.9217 244.8533,-259.3851 228.5,-244 211.6844,-228.18 193.5952,-208.9803 181.1333,-195.3773"/>
<polygon fill="#191970" stroke="#191970" points="183.4798,-192.7553 174.1629,-187.7109 178.3006,-197.4644 183.4798,-192.7553"/>
</g>
<!-- Node4 -->
<g id="node5" class="node">
<title>Node4</title>
<polygon fill="none" stroke="#bfbfbf" points="1197.5,-168.5 1197.5,-187.5 1287.5,-187.5 1287.5,-168.5 1197.5,-168.5"/>
<text text-anchor="middle" x="1242.5" y="-175.5" font-family="Helvetica,sans-Serif" font-size="10.00" fill="#000000">ifopt/cost_term.h</text>
</g>
<!-- Node2&#45;&gt;Node4 -->
<g id="edge4" class="edge">
<title>Node2&#45;&gt;Node4</title>
<path fill="none" stroke="#191970" d="M321.6753,-285.9952C329.1407,-283.9117 337.0749,-281.7944 344.5,-280 422.9543,-261.0398 445.4145,-267.9246 522.5,-244 544.1813,-237.2709 547.3986,-229.1852 569.5,-224 835.6314,-161.5627 911.893,-218.8863 1183.5,-188 1184.7774,-187.8547 1186.0692,-187.7001 1187.371,-187.5375"/>
<polygon fill="#191970" stroke="#191970" points="1188.0421,-190.9783 1197.4741,-186.1527 1187.0914,-184.0432 1188.0421,-190.9783"/>
</g>
<!-- Node5 -->
<g id="node6" class="node">
<title>Node5</title>
<polygon fill="none" stroke="#bfbfbf" points="271,-224.5 271,-243.5 370,-243.5 370,-224.5 271,-224.5"/>
<text text-anchor="middle" x="320.5" y="-231.5" font-family="Helvetica,sans-Serif" font-size="10.00" fill="#000000">ifopt/ipopt_solver.h</text>
</g>
<!-- Node2&#45;&gt;Node5 -->
<g id="edge5" class="edge">
<title>Node2&#45;&gt;Node5</title>
<path fill="none" stroke="#191970" d="M294.3438,-285.8906C298.7766,-277.0965 305.4631,-263.8312 310.9659,-252.9145"/>
<polygon fill="#191970" stroke="#191970" points="314.2122,-254.25 315.588,-243.7449 307.9614,-251.0992 314.2122,-254.25"/>
</g>
<!-- Node6 -->
<g id="node7" class="node">
<title>Node6</title>
<g id="a_node7"><a xlink:href="Parameters_8h.html" target="_top" xlink:title="Parameters.h">
<polygon fill="none" stroke="#000000" points="253,-112.5 253,-131.5 328,-131.5 328,-112.5 253,-112.5"/>
<text text-anchor="middle" x="290.5" y="-119.5" font-family="Helvetica,sans-Serif" font-size="10.00" fill="#000000">Parameters.h</text>
</a>
</g>
</g>
<!-- Node2&#45;&gt;Node6 -->
<g id="edge6" class="edge">
<title>Node2&#45;&gt;Node6</title>
<path fill="none" stroke="#191970" d="M282.5863,-285.8217C275.9434,-275.8801 266.362,-259.6839 262.5,-244 253.4981,-207.4427 269.5044,-164.4901 280.7929,-140.5417"/>
<polygon fill="#191970" stroke="#191970" points="283.9608,-142.0311 285.2552,-131.5156 277.6858,-138.9288 283.9608,-142.0311"/>
</g>
<!-- Node8 -->
<g id="node9" class="node">
<title>Node8</title>
<g id="a_node9"><a xlink:href="NodesHolder_8h.html" target="_top" xlink:title="../Variables/NodesHolder.h">
<polygon fill="none" stroke="#000000" points="539.5,-168.5 539.5,-187.5 673.5,-187.5 673.5,-168.5 539.5,-168.5"/>
<text text-anchor="middle" x="606.5" y="-175.5" font-family="Helvetica,sans-Serif" font-size="10.00" fill="#000000">../Variables/NodesHolder.h</text>
</a>
</g>
</g>
<!-- Node2&#45;&gt;Node8 -->
<g id="edge8" class="edge">
<title>Node2&#45;&gt;Node8</title>
<path fill="none" stroke="#191970" d="M322.6121,-285.9966C329.8165,-283.977 337.4052,-281.8861 344.5,-280 408.2552,-263.0509 427.1747,-268.3148 488.5,-244 523.3665,-230.1759 560.6796,-207.8958 583.8013,-193.1016"/>
<polygon fill="#191970" stroke="#191970" points="585.7334,-196.0202 592.2199,-187.6431 581.9251,-190.1468 585.7334,-196.0202"/>
</g>
<!-- Node9 -->
<g id="node10" class="node">
<title>Node9</title>
<g id="a_node10"><a xlink:href="NodesVariables_8h.html" target="_top" xlink:title="NodesVariables.h">
<polygon fill="none" stroke="#000000" points="464.5,-112.5 464.5,-131.5 558.5,-131.5 558.5,-112.5 464.5,-112.5"/>
<text text-anchor="middle" x="511.5" y="-119.5" font-family="Helvetica,sans-Serif" font-size="10.00" fill="#000000">NodesVariables.h</text>
</a>
</g>
</g>
<!-- Node2&#45;&gt;Node9 -->
<g id="edge19" class="edge">
<title>Node2&#45;&gt;Node9</title>
<path fill="none" stroke="#191970" d="M324.4783,-285.9418C350.4813,-277.6846 385.9096,-263.9141 412.5,-244 432.9785,-228.6633 476.605,-170.2923 498.4579,-140.1926"/>
<polygon fill="#191970" stroke="#191970" points="501.4742,-141.9941 504.4911,-131.8378 495.7991,-137.896 501.4742,-141.9941"/>
</g>
<!-- Node11 -->
<g id="node12" class="node">
<title>Node11</title>
<g id="a_node12"><a xlink:href="NodeTimes_8h.html" target="_top" xlink:title="NodeTimes.h">
<polygon fill="none" stroke="#000000" points="368,-56.5 368,-75.5 443,-75.5 443,-56.5 368,-56.5"/>
<text text-anchor="middle" x="405.5" y="-63.5" font-family="Helvetica,sans-Serif" font-size="10.00" fill="#000000">NodeTimes.h</text>
</a>
</g>
</g>
<!-- Node2&#45;&gt;Node11 -->
<g id="edge20" class="edge">
<title>Node2&#45;&gt;Node11</title>
<path fill="none" stroke="#191970" d="M320.3219,-285.8479C340.4524,-277.8926 365.5126,-264.5313 379.5,-244 412.8337,-195.0715 411.0568,-121.0001 407.89,-85.8529"/>
<polygon fill="#191970" stroke="#191970" points="411.3307,-85.1009 406.8115,-75.5182 404.3685,-85.8275 411.3307,-85.1009"/>
</g>
<!-- Node13 -->
<g id="node14" class="node">
<title>Node13</title>
<g id="a_node14"><a xlink:href="PhaseDurations_8h.html" target="_top" xlink:title="PhaseDurations.h">
<polygon fill="none" stroke="#000000" points="578,-56.5 578,-75.5 673,-75.5 673,-56.5 578,-56.5"/>
<text text-anchor="middle" x="625.5" y="-63.5" font-family="Helvetica,sans-Serif" font-size="10.00" fill="#000000">PhaseDurations.h</text>
</a>
</g>
</g>
<!-- Node2&#45;&gt;Node13 -->
<g id="edge21" class="edge">
<title>Node2&#45;&gt;Node13</title>
<path fill="none" stroke="#191970" d="M320.8297,-285.9224C357.4658,-274.4673 415.6308,-255.4123 435.5,-244 468.8585,-224.8398 540.0629,-158.9649 567.5,-132 583.2072,-116.5631 599.6451,-97.5462 610.9937,-83.8971"/>
<polygon fill="#191970" stroke="#191970" points="614.0087,-85.7411 617.6576,-75.7944 608.6023,-81.2947 614.0087,-85.7411"/>
</g>
<!-- Node14 -->
<g id="node15" class="node">
<title>Node14</title>
<g id="a_node15"><a xlink:href="RobotModel_8h.html" target="_top" xlink:title="../Robots/RobotModel.h">
<polygon fill="none" stroke="#000000" points="695,-224.5 695,-243.5 816,-243.5 816,-224.5 695,-224.5"/>
<text text-anchor="middle" x="755.5" y="-231.5" font-family="Helvetica,sans-Serif" font-size="10.00" fill="#000000">../Robots/RobotModel.h</text>
</a>
</g>
</g>
<!-- Node2&#45;&gt;Node14 -->
<g id="edge22" class="edge">
<title>Node2&#45;&gt;Node14</title>
<path fill="none" stroke="#191970" d="M319.8264,-285.9613C327.7898,-283.7304 336.414,-281.5546 344.5,-280 490.9418,-251.8457 532.4898,-262.3016 684.6285,-244.053"/>
<polygon fill="#191970" stroke="#191970" points="685.3102,-247.4958 694.8119,-242.8087 684.4612,-240.5475 685.3102,-247.4958"/>
</g>
<!-- Node15 -->
<g id="node16" class="node">
<title>Node15</title>
<g id="a_node16"><a xlink:href="HeightMap_8h.html" target="_top" xlink:title="../Terrain/HeightMap.h">
<polygon fill="none" stroke="#000000" points="876.5,-224.5 876.5,-243.5 990.5,-243.5 990.5,-224.5 876.5,-224.5"/>
<text text-anchor="middle" x="933.5" y="-231.5" font-family="Helvetica,sans-Serif" font-size="10.00" fill="#000000">../Terrain/HeightMap.h</text>
</a>
</g>
</g>
<!-- Node2&#45;&gt;Node15 -->
<g id="edge25" class="edge">
<title>Node2&#45;&gt;Node15</title>
<path fill="none" stroke="#191970" d="M319.2207,-285.9535C327.3428,-283.6668 336.1959,-281.4657 344.5,-280 555.6126,-242.7389 611.8715,-261.8832 825.5,-244 838.6587,-242.8985 852.7121,-241.6501 866.1828,-240.4179"/>
<polygon fill="#191970" stroke="#191970" points="866.7092,-243.8843 876.3459,-239.4815 866.0669,-236.9138 866.7092,-243.8843"/>
</g>
<!-- Node7 -->
<g id="node8" class="node">
<title>Node7</title>
<polygon fill="none" stroke="#bfbfbf" points="498.5,-.5 498.5,-19.5 542.5,-19.5 542.5,-.5 498.5,-.5"/>
<text text-anchor="middle" x="520.5" y="-7.5" font-family="Helvetica,sans-Serif" font-size="10.00" fill="#000000">vector</text>
</g>
<!-- Node6&#45;&gt;Node7 -->
<g id="edge7" class="edge">
<title>Node6&#45;&gt;Node7</title>
<path fill="none" stroke="#191970" d="M297.9029,-112.4065C309.4951,-98.0363 333.329,-71.0102 359.5,-56 400.4575,-32.5091 454.2521,-20.3094 488.1075,-14.5294"/>
<polygon fill="#191970" stroke="#191970" points="489.0442,-17.9235 498.3574,-12.8721 487.9269,-11.0132 489.0442,-17.9235"/>
</g>
<!-- Node8&#45;&gt;Node9 -->
<g id="edge9" class="edge">
<title>Node8&#45;&gt;Node9</title>
<path fill="none" stroke="#191970" d="M589.9523,-168.2455C575.2401,-159.5731 553.5112,-146.7645 536.6495,-136.825"/>
<polygon fill="#191970" stroke="#191970" points="538.2502,-133.7057 527.8581,-131.6427 534.6954,-139.736 538.2502,-133.7057"/>
</g>
<!-- Node8&#45;&gt;Node11 -->
<g id="edge17" class="edge">
<title>Node8&#45;&gt;Node11</title>
<path fill="none" stroke="#191970" d="M545.2916,-168.4386C516.1764,-161.7196 482.0224,-150.5009 455.5,-132 437.8977,-119.7214 423.8208,-99.317 415.1441,-84.4406"/>
<polygon fill="#191970" stroke="#191970" points="418.1527,-82.6488 410.2393,-75.604 412.0323,-86.046 418.1527,-82.6488"/>
</g>
<!-- Node8&#45;&gt;Node13 -->
<g id="edge18" class="edge">
<title>Node8&#45;&gt;Node13</title>
<path fill="none" stroke="#191970" d="M608.1199,-168.4509C611.2188,-150.184 618.0433,-109.9553 622.1584,-85.6976"/>
<polygon fill="#191970" stroke="#191970" points="625.6623,-85.9694 623.8842,-75.5249 618.7609,-84.7986 625.6623,-85.9694"/>
</g>
<!-- Node10 -->
<g id="node11" class="node">
<title>Node10</title>
<polygon fill="none" stroke="#bfbfbf" points="461,-56.5 461,-75.5 560,-75.5 560,-56.5 461,-56.5"/>
<text text-anchor="middle" x="510.5" y="-63.5" font-family="Helvetica,sans-Serif" font-size="10.00" fill="#000000">ifopt/variable_set.h</text>
</g>
<!-- Node9&#45;&gt;Node10 -->
<g id="edge10" class="edge">
<title>Node9&#45;&gt;Node10</title>
<path fill="none" stroke="#191970" d="M511.3258,-112.2455C511.1953,-104.9382 511.0124,-94.6944 510.8519,-85.7046"/>
<polygon fill="#191970" stroke="#191970" points="514.3503,-85.5786 510.6722,-75.6427 507.3514,-85.7036 514.3503,-85.5786"/>
</g>
<!-- Node9&#45;&gt;Node11 -->
<g id="edge11" class="edge">
<title>Node9&#45;&gt;Node11</title>
<path fill="none" stroke="#191970" d="M493.0362,-112.2455C476.3926,-103.4527 451.7007,-90.4079 432.7808,-80.4125"/>
<polygon fill="#191970" stroke="#191970" points="434.2291,-77.2193 423.7522,-75.6427 430.9592,-83.4086 434.2291,-77.2193"/>
</g>
<!-- Node9&#45;&gt;Node13 -->
<g id="edge14" class="edge">
<title>Node9&#45;&gt;Node13</title>
<path fill="none" stroke="#191970" d="M531.0973,-112.3733C549.2331,-103.4644 576.4135,-90.1127 596.9587,-80.0203"/>
<polygon fill="#191970" stroke="#191970" points="598.7261,-83.0517 606.1584,-75.5011 595.6397,-76.7688 598.7261,-83.0517"/>
</g>
<!-- Node11&#45;&gt;Node7 -->
<g id="edge12" class="edge">
<title>Node11&#45;&gt;Node7</title>
<path fill="none" stroke="#191970" d="M425.2692,-56.3733C443.6469,-47.4241 471.2312,-33.9917 491.9893,-23.8835"/>
<polygon fill="#191970" stroke="#191970" points="493.5304,-27.026 500.9888,-19.5011 490.4657,-20.7325 493.5304,-27.026"/>
</g>
<!-- Node12 -->
<g id="node13" class="node">
<title>Node12</title>
<polygon fill="none" stroke="#bfbfbf" points="637.5,-.5 637.5,-19.5 689.5,-19.5 689.5,-.5 637.5,-.5"/>
<text text-anchor="middle" x="663.5" y="-7.5" font-family="Helvetica,sans-Serif" font-size="10.00" fill="#000000">memory</text>
</g>
<!-- Node11&#45;&gt;Node12 -->
<g id="edge13" class="edge">
<title>Node11&#45;&gt;Node12</title>
<path fill="none" stroke="#191970" d="M443.0154,-57.8571C492.466,-47.1237 578.8692,-28.3695 627.5336,-17.8067"/>
<polygon fill="#191970" stroke="#191970" points="628.2884,-21.2244 637.3184,-15.6828 626.8035,-14.3837 628.2884,-21.2244"/>
</g>
<!-- Node13&#45;&gt;Node7 -->
<g id="edge16" class="edge">
<title>Node13&#45;&gt;Node7</title>
<path fill="none" stroke="#191970" d="M607.2104,-56.2455C590.7238,-47.4527 566.2648,-34.4079 547.5235,-24.4125"/>
<polygon fill="#191970" stroke="#191970" points="549.0506,-21.2604 538.58,-19.6427 545.7565,-27.4368 549.0506,-21.2604"/>
</g>
<!-- Node13&#45;&gt;Node12 -->
<g id="edge15" class="edge">
<title>Node13&#45;&gt;Node12</title>
<path fill="none" stroke="#191970" d="M632.1191,-56.2455C637.4046,-48.4564 644.9541,-37.3308 651.3238,-27.9439"/>
<polygon fill="#191970" stroke="#191970" points="654.2379,-29.8827 656.9568,-19.6427 648.4455,-25.9522 654.2379,-29.8827"/>
</g>
<!-- Node14&#45;&gt;Node8 -->
<g id="edge24" class="edge">
<title>Node14&#45;&gt;Node8</title>
<path fill="none" stroke="#191970" d="M729.886,-224.3733C705.4313,-215.1822 668.3946,-201.2624 641.2791,-191.0713"/>
<polygon fill="#191970" stroke="#191970" points="642.3719,-187.7431 631.7798,-187.5011 639.9091,-194.2956 642.3719,-187.7431"/>
</g>
<!-- Node14&#45;&gt;Node12 -->
<g id="edge23" class="edge">
<title>Node14&#45;&gt;Node12</title>
<path fill="none" stroke="#191970" d="M748.0265,-224.219C741.4078,-215.2002 731.8391,-201.2441 725.5,-188 698.8619,-132.3455 703.8488,-113.8899 682.5,-56 679.2207,-47.1078 675.2635,-37.3908 671.8113,-29.1882"/>
<polygon fill="#191970" stroke="#191970" points="674.9422,-27.6077 667.7976,-19.7843 668.5041,-30.3556 674.9422,-27.6077"/>
</g>
<!-- Node15&#45;&gt;Node7 -->
<g id="edge27" class="edge">
<title>Node15&#45;&gt;Node7</title>
<path fill="none" stroke="#191970" d="M876.1567,-226.1767C845.0809,-219.7842 807.2679,-208.3319 778.5,-188 719.2606,-146.1321 741.9859,-97.5169 682.5,-56 643.0647,-28.477 587.427,-17.3319 552.6875,-12.8808"/>
<polygon fill="#191970" stroke="#191970" points="552.957,-9.3886 542.6182,-11.7036 552.1441,-16.3412 552.957,-9.3886"/>
</g>
<!-- Node15&#45;&gt;Node12 -->
<g id="edge26" class="edge">
<title>Node15&#45;&gt;Node12</title>
<path fill="none" stroke="#191970" d="M876.3201,-226.6377C849.2855,-220.4372 818.4272,-209.0196 797.5,-188 753.8689,-144.1762 793.8106,-102.8962 753.5,-56 739.344,-39.5314 717.8415,-28.2352 699.4039,-20.9592"/>
<polygon fill="#191970" stroke="#191970" points="700.4135,-17.6011 689.8203,-17.4191 697.988,-24.1674 700.4135,-17.6011"/>
</g>
<!-- Node16 -->
<g id="node17" class="node">
<title>Node16</title>
<polygon fill="none" stroke="#bfbfbf" points="1139,-168.5 1139,-187.5 1174,-187.5 1174,-168.5 1139,-168.5"/>
<text text-anchor="middle" x="1156.5" y="-175.5" font-family="Helvetica,sans-Serif" font-size="10.00" fill="#000000">map</text>
</g>
<!-- Node15&#45;&gt;Node16 -->
<g id="edge28" class="edge">
<title>Node15&#45;&gt;Node16</title>
<path fill="none" stroke="#191970" d="M981.4651,-224.4826C1019.2337,-216.597 1073.3219,-204.443 1129.1787,-187.8117"/>
<polygon fill="#191970" stroke="#191970" points="1130.3263,-191.1213 1138.8878,-184.8803 1128.303,-184.4201 1130.3263,-191.1213"/>
</g>
<!-- Node17 -->
<g id="node18" class="node">
<title>Node17</title>
<polygon fill="none" stroke="#bfbfbf" points="1344,-168.5 1344,-187.5 1385,-187.5 1385,-168.5 1344,-168.5"/>
<text text-anchor="middle" x="1364.5" y="-175.5" font-family="Helvetica,sans-Serif" font-size="10.00" fill="#000000">string</text>
</g>
<!-- Node15&#45;&gt;Node17 -->
<g id="edge29" class="edge">
<title>Node15&#45;&gt;Node17</title>
<path fill="none" stroke="#191970" d="M990.7592,-227.1023C1062.3309,-218.3979 1188.5614,-202.7743 1296.5,-188 1308.7195,-186.3274 1322.1566,-184.3753 1333.8362,-182.6421"/>
<polygon fill="#191970" stroke="#191970" points="1334.6099,-186.0654 1343.9829,-181.1261 1333.5755,-179.1423 1334.6099,-186.0654"/>
</g>
<!-- Node18 -->
<g id="node19" class="node">
<title>Node18</title>
<polygon fill="none" stroke="#bfbfbf" points="806,-168.5 806,-187.5 879,-187.5 879,-168.5 806,-168.5"/>
<text text-anchor="middle" x="842.5" y="-175.5" font-family="Helvetica,sans-Serif" font-size="10.00" fill="#000000">Eigen/Dense</text>
</g>
<!-- Node15&#45;&gt;Node18 -->
<g id="edge30" class="edge">
<title>Node15&#45;&gt;Node18</title>
<path fill="none" stroke="#191970" d="M917.649,-224.2455C903.6868,-215.6534 883.1272,-203.0014 867.0404,-193.1018"/>
<polygon fill="#191970" stroke="#191970" points="868.5203,-189.9029 858.1693,-187.6427 864.8516,-195.8645 868.5203,-189.9029"/>
</g>
<!-- Node19 -->
<g id="node20" class="node">
<title>Node19</title>
<polygon fill="none" stroke="#bfbfbf" points="897,-168.5 897,-187.5 972,-187.5 972,-168.5 897,-168.5"/>
<text text-anchor="middle" x="934.5" y="-175.5" font-family="Helvetica,sans-Serif" font-size="10.00" fill="#000000">Eigen/Sparse</text>
</g>
<!-- Node15&#45;&gt;Node19 -->
<g id="edge31" class="edge">
<title>Node15&#45;&gt;Node19</title>
<path fill="none" stroke="#191970" d="M933.6742,-224.2455C933.8047,-216.9382 933.9876,-206.6944 934.1481,-197.7046"/>
<polygon fill="#191970" stroke="#191970" points="937.6486,-197.7036 934.3278,-187.6427 930.6497,-197.5786 937.6486,-197.7036"/>
</g>
<!-- Node20 -->
<g id="node21" class="node">
<title>Node20</title>
<g id="a_node21"><a xlink:href="Coordinates_8h.html" target="_top" xlink:title="../Variables/Coordinates.h">
<polygon fill="none" stroke="#000000" points="990.5,-168.5 990.5,-187.5 1120.5,-187.5 1120.5,-168.5 990.5,-168.5"/>
<text text-anchor="middle" x="1055.5" y="-175.5" font-family="Helvetica,sans-Serif" font-size="10.00" fill="#000000">../Variables/Coordinates.h</text>
</a>
</g>
</g>
<!-- Node15&#45;&gt;Node20 -->
<g id="edge32" class="edge">
<title>Node15&#45;&gt;Node20</title>
<path fill="none" stroke="#191970" d="M954.4725,-224.3733C974.0567,-215.3838 1003.4961,-201.8706 1025.551,-191.7471"/>
<polygon fill="#191970" stroke="#191970" points="1027.1729,-194.8538 1034.8011,-187.5011 1024.2527,-188.4919 1027.1729,-194.8538"/>
</g>
<!-- Node21&#45;&gt;Node17 -->
<g id="edge34" class="edge">
<title>Node21&#45;&gt;Node17</title>
<path fill="none" stroke="#191970" d="M1496.995,-224.3733C1468.5418,-214.4146 1424.2264,-198.9043 1394.7882,-188.6009"/>
<polygon fill="#191970" stroke="#191970" points="1395.6411,-185.1913 1385.0463,-185.1912 1393.3286,-191.7983 1395.6411,-185.1913"/>
</g>
<!-- Node22&#45;&gt;Node14 -->
<g id="edge39" class="edge">
<title>Node22&#45;&gt;Node14</title>
<path fill="none" stroke="#191970" d="M753.9944,-280.2977C754.2518,-272.3834 754.5698,-262.6043 754.8471,-254.0759"/>
<polygon fill="#191970" stroke="#191970" points="758.3528,-253.9554 755.1798,-243.8469 751.3565,-253.7279 758.3528,-253.9554"/>
</g>
<!-- Node23 -->
<g id="node24" class="node">
<title>Node23</title>
<g id="a_node24"><a xlink:href="NodesConstraint_8h.html" target="_top" xlink:title="NodesConstraint.h">
<polygon fill="none" stroke="#000000" points="578.5,-224.5 578.5,-243.5 676.5,-243.5 676.5,-224.5 578.5,-224.5"/>
<text text-anchor="middle" x="627.5" y="-231.5" font-family="Helvetica,sans-Serif" font-size="10.00" fill="#000000">NodesConstraint.h</text>
</a>
</g>
</g>
<!-- Node22&#45;&gt;Node23 -->
<g id="edge36" class="edge">
<title>Node22&#45;&gt;Node23</title>
<path fill="none" stroke="#191970" d="M722.6769,-280.4554C702.3912,-270.554 676.0212,-257.683 656.1838,-248.0004"/>
<polygon fill="#191970" stroke="#191970" points="657.5474,-244.7714 647.0255,-243.5303 654.477,-251.062 657.5474,-244.7714"/>
</g>
<!-- Node23&#45;&gt;Node3 -->
<g id="edge37" class="edge">
<title>Node23&#45;&gt;Node3</title>
<path fill="none" stroke="#191970" d="M578.4953,-228.06C494.556,-217.8856 323.305,-197.1279 229.8522,-185.8003"/>
<polygon fill="#191970" stroke="#191970" points="230.0276,-182.296 219.679,-184.5672 229.1852,-189.2451 230.0276,-182.296"/>
</g>
<!-- Node23&#45;&gt;Node8 -->
<g id="edge38" class="edge">
<title>Node23&#45;&gt;Node8</title>
<path fill="none" stroke="#191970" d="M623.8421,-224.2455C621.0416,-216.7776 617.091,-206.2427 613.6676,-197.1137"/>
<polygon fill="#191970" stroke="#191970" points="616.9045,-195.777 610.116,-187.6427 610.3501,-198.2349 616.9045,-195.777"/>
</g>
<!-- Node24&#45;&gt;Node14 -->
<g id="edge42" class="edge">
<title>Node24&#45;&gt;Node14</title>
<path fill="none" stroke="#191970" d="M479.6858,-281.7427C482.6632,-281.1431 485.6128,-280.5592 488.5,-280 555.3095,-267.0593 631.8809,-254.0536 685.8426,-245.1894"/>
<polygon fill="#191970" stroke="#191970" points="686.6827,-248.5985 695.9856,-243.5283 685.5513,-241.6906 686.6827,-248.5985"/>
</g>
<!-- Node24&#45;&gt;Node23 -->
<g id="edge41" class="edge">
<title>Node24&#45;&gt;Node23</title>
<path fill="none" stroke="#191970" d="M468.1164,-280.4554C503.9399,-270.0139 551.094,-256.27 584.8009,-246.4455"/>
<polygon fill="#191970" stroke="#191970" points="586.1814,-249.6888 594.8025,-243.5303 584.2226,-242.9685 586.1814,-249.6888"/>
</g>
<!-- Node25&#45;&gt;Node14 -->
<g id="edge45" class="edge">
<title>Node25&#45;&gt;Node14</title>
<path fill="none" stroke="#191970" d="M612.0625,-285.8906C641.0056,-275.42 687.4694,-258.6111 719.6356,-246.9745"/>
<polygon fill="#191970" stroke="#191970" points="720.9111,-250.2351 729.124,-243.5419 718.5298,-243.6526 720.9111,-250.2351"/>
</g>
<!-- Node25&#45;&gt;Node23 -->
<g id="edge44" class="edge">
<title>Node25&#45;&gt;Node23</title>
<path fill="none" stroke="#191970" d="M592.0625,-285.8906C598.1908,-276.917 607.4985,-263.2879 615.0372,-252.2491"/>
<polygon fill="#191970" stroke="#191970" points="618.0956,-253.9768 620.845,-243.7449 612.315,-250.029 618.0956,-253.9768"/>
</g>
<!-- Node26&#45;&gt;Node14 -->
<g id="edge48" class="edge">
<title>Node26&#45;&gt;Node14</title>
<path fill="none" stroke="#191970" d="M1038.5238,-285.9581C978.7756,-274.9894 880.7913,-257.0012 817.2189,-245.3305"/>
<polygon fill="#191970" stroke="#191970" points="817.7901,-241.8769 807.3225,-243.5137 816.5261,-248.7619 817.7901,-241.8769"/>
</g>
<!-- Node26&#45;&gt;Node15 -->
<g id="edge49" class="edge">
<title>Node26&#45;&gt;Node15</title>
<path fill="none" stroke="#191970" d="M1065.9688,-285.8906C1039.4693,-275.5103 997.0669,-258.9004 967.393,-247.2766"/>
<polygon fill="#191970" stroke="#191970" points="968.4467,-243.9304 957.859,-243.5419 965.8935,-250.4482 968.4467,-243.9304"/>
</g>
<!-- Node26&#45;&gt;Node23 -->
<g id="edge47" class="edge">
<title>Node26&#45;&gt;Node23</title>
<path fill="none" stroke="#191970" d="M1038.2292,-285.9846C1025.8789,-283.8788 1012.7418,-281.7545 1000.5,-280 864.71,-260.5386 827.3136,-263.5848 687.0072,-243.9966"/>
<polygon fill="#191970" stroke="#191970" points="687.1154,-240.4773 676.7246,-242.5465 686.1378,-247.4087 687.1154,-240.4773"/>
</g>
<!-- Node27&#45;&gt;Node14 -->
<g id="edge52" class="edge">
<title>Node27&#45;&gt;Node14</title>
<path fill="none" stroke="#191970" d="M887.9688,-285.8906C861.4693,-275.5103 819.0669,-258.9004 789.393,-247.2766"/>
<polygon fill="#191970" stroke="#191970" points="790.4467,-243.9304 779.859,-243.5419 787.8935,-250.4482 790.4467,-243.9304"/>
</g>
<!-- Node27&#45;&gt;Node15 -->
<g id="edge53" class="edge">
<title>Node27&#45;&gt;Node15</title>
<path fill="none" stroke="#191970" d="M915.7813,-285.8906C918.7535,-277.1862 923.2214,-264.1015 926.927,-253.2494"/>
<polygon fill="#191970" stroke="#191970" points="930.2532,-254.3394 930.1725,-243.7449 923.6288,-252.0773 930.2532,-254.3394"/>
</g>
<!-- Node27&#45;&gt;Node23 -->
<g id="edge51" class="edge">
<title>Node27&#45;&gt;Node23</title>
<path fill="none" stroke="#191970" d="M868.2815,-285.9581C818.0473,-275.1181 736.0427,-257.4224 681.9228,-245.7439"/>
<polygon fill="#191970" stroke="#191970" points="682.3356,-242.2524 671.8223,-243.5643 680.859,-249.095 682.3356,-242.2524"/>
</g>
<!-- Node28&#45;&gt;Node3 -->
<g id="edge55" class="edge">
<title>Node28&#45;&gt;Node3</title>
<path fill="none" stroke="#191970" d="M101.9124,-224.2455C113.5057,-215.814 130.4748,-203.4729 143.9678,-193.6598"/>
<polygon fill="#191970" stroke="#191970" points="146.2126,-196.355 152.2413,-187.6427 142.0953,-190.6938 146.2126,-196.355"/>
</g>
<!-- Node28&#45;&gt;Node9 -->
<g id="edge56" class="edge">
<title>Node28&#45;&gt;Node9</title>
<path fill="none" stroke="#191970" d="M87.3756,-224.2349C86.2968,-209.6404 86.7125,-182.3255 102.5,-168 128.0417,-144.8236 347.693,-130.4412 454.1377,-124.7709"/>
<polygon fill="#191970" stroke="#191970" points="454.5806,-128.2525 464.3835,-124.2334 454.2139,-121.2622 454.5806,-128.2525"/>
</g>
<!-- Node29&#45;&gt;Node4 -->
<g id="edge59" class="edge">
<title>Node29&#45;&gt;Node4</title>
<path fill="none" stroke="#191970" d="M1329.2104,-224.2455C1312.7238,-215.4527 1288.2648,-202.4079 1269.5235,-192.4125"/>
<polygon fill="#191970" stroke="#191970" points="1271.0506,-189.2604 1260.58,-187.6427 1267.7565,-195.4368 1271.0506,-189.2604"/>
</g>
<!-- Node29&#45;&gt;Node9 -->
<g id="edge60" class="edge">
<title>Node29&#45;&gt;Node9</title>
<path fill="none" stroke="#191970" d="M1343.2582,-224.2263C1336.1007,-209.0925 1320.0627,-180.4388 1296.5,-168 1232.6805,-134.3095 738.7412,-124.8913 568.7519,-122.6335"/>
<polygon fill="#191970" stroke="#191970" points="568.5521,-119.1307 558.5076,-122.501 568.4614,-126.1302 568.5521,-119.1307"/>
</g>
<!-- Node29&#45;&gt;Node17 -->
<g id="edge58" class="edge">
<title>Node29&#45;&gt;Node17</title>
<path fill="none" stroke="#191970" d="M1350.4612,-224.2455C1352.7038,-216.8579 1355.8577,-206.4689 1358.6081,-197.4087"/>
<polygon fill="#191970" stroke="#191970" points="1362.017,-198.2282 1361.5728,-187.6427 1355.3188,-196.1948 1362.017,-198.2282"/>
</g>
<!-- Node30&#45;&gt;Node29 -->
<g id="edge62" class="edge">
<title>Node30&#45;&gt;Node29</title>
<path fill="none" stroke="#191970" d="M1435.25,-285.8906C1418.3831,-275.9165 1391.7901,-260.1908 1372.2965,-248.6633"/>
<polygon fill="#191970" stroke="#191970" points="1374.0251,-245.6194 1363.6359,-243.5419 1370.462,-251.6447 1374.0251,-245.6194"/>
</g>
<!-- Node31&#45;&gt;Node4 -->
<g id="edge64" class="edge">
<title>Node31&#45;&gt;Node4</title>
<path fill="none" stroke="#191970" d="M1253.518,-285.8845C1251.5578,-266.6913 1247.125,-223.286 1244.5187,-197.7663"/>
<polygon fill="#191970" stroke="#191970" points="1247.9935,-197.341 1243.4956,-187.7484 1241.0298,-198.0523 1247.9935,-197.341"/>
</g>
<!-- Node31&#45;&gt;Node8 -->
<g id="edge66" class="edge">
<title>Node31&#45;&gt;Node8</title>
<path fill="none" stroke="#191970" d="M1212.3616,-285.9744C1201.9796,-283.821 1190.8659,-281.6781 1180.5,-280 1042.2714,-257.6227 1002.0955,-282.6257 867.5,-244 847.6271,-238.297 845.0879,-230.616 825.5,-224 778.8161,-208.2321 724.6347,-196.7972 681.8439,-189.2721"/>
<polygon fill="#191970" stroke="#191970" points="682.231,-185.7873 671.7818,-187.5374 681.0418,-192.6855 682.231,-185.7873"/>
</g>
<!-- Node31&#45;&gt;Node14 -->
<g id="edge65" class="edge">
<title>Node31&#45;&gt;Node14</title>
<path fill="none" stroke="#191970" d="M1212.7639,-285.9711C1202.2706,-283.7926 1191.005,-281.639 1180.5,-280 1026.8667,-256.0292 986.945,-262.0143 832.5,-244 830.4079,-243.756 828.2843,-243.5045 826.1409,-243.2474"/>
<polygon fill="#191970" stroke="#191970" points="826.3598,-239.7482 816.0092,-242.0097 825.5109,-246.6965 826.3598,-239.7482"/>
</g>
</g>
</svg>
