<?xml version="1.0" encoding="UTF-8" standalone="no"?>
<!DOCTYPE svg PUBLIC "-//W3C//DTD SVG 1.1//EN"
 "http://www.w3.org/Graphics/SVG/1.1/DTD/svg11.dtd">
<!-- Generated by graphviz version 2.40.1 (20161225.0304)
 -->
<!-- Title: src/Variables/NodeTimes.h Pages: 1 -->
<!--zoomable 408 -->
<svg id="main" version="1.1" xmlns="http://www.w3.org/2000/svg" xmlns:xlink="http://www.w3.org/1999/xlink" xml:space="preserve" onload="init(evt)">
<style type="text/css"><![CDATA[
.edge:hover path { stroke: red; }
.edge:hover polygon { stroke: red; fill: red; }
]]></style>
<script type="text/javascript"><![CDATA[
var edges = document.getElementsByTagName('g');
if (edges && edges.length) {
  for (var i=0;i<edges.length;i++) {
    if (edges[i].id.substr(0,4)=='edge') {
      edges[i].setAttribute('class','edge');
    }
  }
}
]]></script>
        <defs>
                <circle id="rim" cx="0" cy="0" r="7"/>
                <circle id="rim2" cx="0" cy="0" r="3.5"/>
                <g id="zoomPlus">
                        <use xlink:href="#rim" fill="#404040">
                                <set attributeName="fill" to="#808080" begin="zoomplus.mouseover" end="zoomplus.mouseout"/>
                        </use>
                        <path d="M-4,0h8M0,-4v8" fill="none" stroke="white" stroke-width="1.5" pointer-events="none"/>
                </g>
                <g id="zoomMin">
                        <use xlink:href="#rim" fill="#404040">
                                <set attributeName="fill" to="#808080" begin="zoomminus.mouseover" end="zoomminus.mouseout"/>
                        </use>
                        <path d="M-4,0h8" fill="none" stroke="white" stroke-width="1.5" pointer-events="none"/>
                </g>
                <g id="dirArrow">
                        <path fill="none" stroke="white" stroke-width="1.5" d="M0,-3.0v7 M-2.5,-0.5L0,-3.0L2.5,-0.5"/>
                </g>
               <g id="resetDef">
                       <use xlink:href="#rim2" fill="#404040">
                               <set attributeName="fill" to="#808080" begin="reset.mouseover" end="reset.mouseout"/>
                       </use>
               </g>
        </defs>

<script type="text/javascript">
var viewWidth = 2848;
var viewHeight = 408;
var sectionId = 'dynsection-1';
</script>
<script xlink:href="svgpan.js"/>
<svg id="graph" class="graph">
<g id="viewport">
<title>src/Variables/NodeTimes.h</title>
<!-- Node3 -->
<g id="node1" class="node">
<title>Node3</title>
<polygon fill="#bfbfbf" stroke="#000000" points="2523.5962,-380.5 2523.5962,-399.5 2658.5962,-399.5 2658.5962,-380.5 2523.5962,-380.5"/>
<text text-anchor="middle" x="2591.0962" y="-387.5" font-family="Helvetica,sans-Serif" font-size="10.00" fill="#000000">src/Variables/NodeTimes.h</text>
</g>
<!-- Node4 -->
<g id="node2" class="node">
<title>Node4</title>
<g id="a_node2"><a xlink:href="NodesVariables_8h.html" target="_top" xlink:title="src/Variables/NodesVariables.h">
<polygon fill="none" stroke="#000000" points="2365.0962,-324.5 2365.0962,-343.5 2519.0962,-343.5 2519.0962,-324.5 2365.0962,-324.5"/>
<text text-anchor="middle" x="2442.0962" y="-331.5" font-family="Helvetica,sans-Serif" font-size="10.00" fill="#000000">src/Variables/NodesVariables.h</text>
</a>
</g>
</g>
<!-- Node3&#45;&gt;Node4 -->
<g id="edge1" class="edge">
<title>Node3&#45;&gt;Node4</title>
<path fill="none" stroke="#191970" d="M2555.945,-376.7888C2528.7393,-366.5639 2491.7152,-352.6488 2467.376,-343.5011"/>
<polygon fill="#191970" stroke="#191970" points="2554.8901,-380.1313 2565.4822,-380.3733 2557.3528,-373.5788 2554.8901,-380.1313"/>
</g>
<!-- Node5 -->
<g id="node3" class="node">
<title>Node5</title>
<g id="a_node3"><a xlink:href="NodesHolder_8h.html" target="_top" xlink:title="src/Variables/NodesHolder.h">
<polygon fill="none" stroke="#000000" points="1519.0962,-263 1519.0962,-282 1661.0962,-282 1661.0962,-263 1519.0962,-263"/>
<text text-anchor="middle" x="1590.0962" y="-270" font-family="Helvetica,sans-Serif" font-size="10.00" fill="#000000">src/Variables/NodesHolder.h</text>
</a>
</g>
</g>
<!-- Node3&#45;&gt;Node5 -->
<g id="edge69" class="edge">
<title>Node3&#45;&gt;Node5</title>
<path fill="none" stroke="#191970" d="M2513.3432,-380.8731C2324.3886,-358.6932 1843.2596,-302.217 1661.283,-280.8561"/>
<polygon fill="#191970" stroke="#191970" points="2513.1325,-384.3724 2523.4724,-382.0621 2513.9486,-377.4201 2513.1325,-384.3724"/>
</g>
<!-- Node28 -->
<g id="node26" class="node">
<title>Node28</title>
<g id="a_node26"><a xlink:href="NlpFormulation_8h.html" target="_top" xlink:title="src/Problem/NlpFormulation.h">
<polygon fill="none" stroke="#000000" points="2555.0962,-129 2555.0962,-148 2701.0962,-148 2701.0962,-129 2555.0962,-129"/>
<text text-anchor="middle" x="2628.0962" y="-136" font-family="Helvetica,sans-Serif" font-size="10.00" fill="#000000">src/Problem/NlpFormulation.h</text>
</a>
</g>
</g>
<!-- Node3&#45;&gt;Node28 -->
<g id="edge70" class="edge">
<title>Node3&#45;&gt;Node28</title>
<path fill="none" stroke="#191970" d="M2600.2545,-371.3798C2614.6186,-340.8686 2641.5837,-277.9178 2649.0962,-221 2650.899,-207.3407 2651.7468,-203.5204 2649.0962,-190 2646.0868,-174.6499 2638.4767,-158.104 2633.2938,-148.0227"/>
<polygon fill="#191970" stroke="#191970" points="2597.0835,-369.8979 2595.9126,-380.4278 2603.3945,-372.9264 2597.0835,-369.8979"/>
</g>
<!-- Node48 -->
<g id="node46" class="node">
<title>Node48</title>
<g id="a_node46"><a xlink:href="NodeTimes_8cpp.html" target="_top" xlink:title="src/Variables/NodeTimes.cpp">
<polygon fill="none" stroke="#000000" points="2694.0962,-324.5 2694.0962,-343.5 2840.0962,-343.5 2840.0962,-324.5 2694.0962,-324.5"/>
<text text-anchor="middle" x="2767.0962" y="-331.5" font-family="Helvetica,sans-Serif" font-size="10.00" fill="#000000">src/Variables/NodeTimes.cpp</text>
</a>
</g>
</g>
<!-- Node3&#45;&gt;Node48 -->
<g id="edge71" class="edge">
<title>Node3&#45;&gt;Node48</title>
<path fill="none" stroke="#191970" d="M2630.9366,-377.3235C2663.2135,-367.0536 2707.9814,-352.8093 2737.2355,-343.5011"/>
<polygon fill="#191970" stroke="#191970" points="2629.8197,-374.0059 2621.3517,-380.3733 2631.9422,-380.6764 2629.8197,-374.0059"/>
</g>
<!-- Node4&#45;&gt;Node5 -->
<g id="edge2" class="edge">
<title>Node4&#45;&gt;Node5</title>
<path fill="none" stroke="#191970" d="M2354.8798,-327.7045C2185.86,-315.5041 1816.6952,-288.8566 1661.2939,-277.6393"/>
<polygon fill="#191970" stroke="#191970" points="2354.7581,-331.2047 2364.9842,-328.4338 2355.2621,-324.2228 2354.7581,-331.2047"/>
</g>
<!-- Node4&#45;&gt;Node28 -->
<g id="edge61" class="edge">
<title>Node4&#45;&gt;Node28</title>
<path fill="none" stroke="#191970" d="M2512.2342,-322.5212C2551.5148,-314.6156 2595.147,-302.862 2608.0962,-288 2643.7048,-247.1316 2634.8041,-174.6084 2630.0922,-148.3429"/>
<polygon fill="#191970" stroke="#191970" points="2511.507,-319.097 2502.3626,-324.4477 2512.8479,-325.9674 2511.507,-319.097"/>
</g>
<!-- Node41 -->
<g id="node39" class="node">
<title>Node41</title>
<g id="a_node39"><a xlink:href="SymmetryConstraint_8h.html" target="_top" xlink:title="src/Constraints/Symmetry\lConstraint.h">
<polygon fill="none" stroke="#000000" points="2468.5962,-257.5 2468.5962,-287.5 2599.5962,-287.5 2599.5962,-257.5 2468.5962,-257.5"/>
<text text-anchor="start" x="2476.5962" y="-275.5" font-family="Helvetica,sans-Serif" font-size="10.00" fill="#000000">src/Constraints/Symmetry</text>
<text text-anchor="middle" x="2534.0962" y="-264.5" font-family="Helvetica,sans-Serif" font-size="10.00" fill="#000000">Constraint.h</text>
</a>
</g>
</g>
<!-- Node4&#45;&gt;Node41 -->
<g id="edge58" class="edge">
<title>Node4&#45;&gt;Node41</title>
<path fill="none" stroke="#191970" d="M2465.1577,-318.5839C2479.3626,-309.0882 2497.4896,-296.9707 2511.5904,-287.5446"/>
<polygon fill="#191970" stroke="#191970" points="2462.8396,-315.9234 2456.4712,-324.3906 2466.7299,-321.7429 2462.8396,-315.9234"/>
</g>
<!-- Node43 -->
<g id="node41" class="node">
<title>Node43</title>
<g id="a_node41"><a xlink:href="NodeCost_8h.html" target="_top" xlink:title="src/Costs/NodeCost.h">
<polygon fill="none" stroke="#000000" points="2214.5962,-196 2214.5962,-215 2329.5962,-215 2329.5962,-196 2214.5962,-196"/>
<text text-anchor="middle" x="2272.0962" y="-203" font-family="Helvetica,sans-Serif" font-size="10.00" fill="#000000">src/Costs/NodeCost.h</text>
</a>
</g>
</g>
<!-- Node4&#45;&gt;Node43 -->
<g id="edge62" class="edge">
<title>Node4&#45;&gt;Node43</title>
<path fill="none" stroke="#191970" d="M2370.2637,-322.4454C2331.5358,-314.6418 2289.2364,-303.0213 2277.0962,-288 2260.0492,-266.9075 2265.4478,-231.992 2269.4414,-215.1607"/>
<polygon fill="#191970" stroke="#191970" points="2370.0518,-325.9698 2380.5365,-324.4457 2371.3898,-319.0988 2370.0518,-325.9698"/>
</g>
<!-- Node47 -->
<g id="node45" class="node">
<title>Node47</title>
<g id="a_node45"><a xlink:href="NodesVariables_8cpp.html" target="_top" xlink:title="src/Variables/NodesVariables.cpp">
<polygon fill="none" stroke="#000000" points="2286.0962,-263 2286.0962,-282 2450.0962,-282 2450.0962,-263 2286.0962,-263"/>
<text text-anchor="middle" x="2368.0962" y="-270" font-family="Helvetica,sans-Serif" font-size="10.00" fill="#000000">src/Variables/NodesVariables.cpp</text>
</a>
</g>
</g>
<!-- Node4&#45;&gt;Node47 -->
<g id="edge68" class="edge">
<title>Node4&#45;&gt;Node47</title>
<path fill="none" stroke="#191970" d="M2422.6868,-317.8692C2409.0761,-306.5576 2391.3264,-291.8062 2379.8217,-282.2449"/>
<polygon fill="#191970" stroke="#191970" points="2420.6059,-320.6907 2430.5337,-324.3906 2425.08,-315.3072 2420.6059,-320.6907"/>
</g>
<!-- Node6 -->
<g id="node4" class="node">
<title>Node6</title>
<g id="a_node4"><a xlink:href="NodesConstraint_8h.html" target="_top" xlink:title="src/Constraints/NodesConstraint.h">
<polygon fill="none" stroke="#000000" points="1417.0962,-196 1417.0962,-215 1585.0962,-215 1585.0962,-196 1417.0962,-196"/>
<text text-anchor="middle" x="1501.0962" y="-203" font-family="Helvetica,sans-Serif" font-size="10.00" fill="#000000">src/Constraints/NodesConstraint.h</text>
</a>
</g>
</g>
<!-- Node5&#45;&gt;Node6 -->
<g id="edge3" class="edge">
<title>Node5&#45;&gt;Node6</title>
<path fill="none" stroke="#191970" d="M1569.0496,-256.6559C1551.8919,-243.7395 1528.2214,-225.9201 1513.8241,-215.0817"/>
<polygon fill="#191970" stroke="#191970" points="1567.2504,-259.6824 1577.3446,-262.9005 1571.4605,-254.0899 1567.2504,-259.6824"/>
</g>
<!-- Node23 -->
<g id="node21" class="node">
<title>Node23</title>
<g id="a_node21"><a xlink:href="RobotModel_8h.html" target="_top" xlink:title="src/Robots/RobotModel.h">
<polygon fill="none" stroke="#000000" points="1022.0962,-196 1022.0962,-215 1150.0962,-215 1150.0962,-196 1022.0962,-196"/>
<text text-anchor="middle" x="1086.0962" y="-203" font-family="Helvetica,sans-Serif" font-size="10.00" fill="#000000">src/Robots/RobotModel.h</text>
</a>
</g>
</g>
<!-- Node5&#45;&gt;Node23 -->
<g id="edge24" class="edge">
<title>Node5&#45;&gt;Node23</title>
<path fill="none" stroke="#191970" d="M1508.9053,-261.7068C1408.9906,-248.4245 1241.396,-226.145 1150.1009,-214.0086"/>
<polygon fill="#191970" stroke="#191970" points="1508.5802,-265.1943 1518.9542,-263.0426 1509.5027,-258.2553 1508.5802,-265.1943"/>
</g>
<!-- Node24 -->
<g id="node22" class="node">
<title>Node24</title>
<g id="a_node22"><a xlink:href="MuJoCoRobotModel_8h.html" target="_top" xlink:title="src/Robots/MuJoCoRobotModel.h">
<polygon fill="none" stroke="#000000" points="103.5962,-129 103.5962,-148 268.5962,-148 268.5962,-129 103.5962,-129"/>
<text text-anchor="middle" x="186.0962" y="-136" font-family="Helvetica,sans-Serif" font-size="10.00" fill="#000000">src/Robots/MuJoCoRobotModel.h</text>
</a>
</g>
</g>
<!-- Node5&#45;&gt;Node24 -->
<g id="edge52" class="edge">
<title>Node5&#45;&gt;Node24</title>
<path fill="none" stroke="#191970" d="M1508.7148,-269.3335C1361.3422,-263.1652 1040.5523,-247.7465 771.0962,-221 551.0522,-199.1582 496.7056,-187.2616 278.0962,-154 266.0864,-152.1727 253.2172,-150.0857 241.0229,-148.048"/>
<polygon fill="#191970" stroke="#191970" points="1508.8862,-272.8436 1519.0229,-269.7617 1509.1768,-265.8496 1508.8862,-272.8436"/>
</g>
<!-- Node5&#45;&gt;Node28 -->
<g id="edge53" class="edge">
<title>Node5&#45;&gt;Node28</title>
<path fill="none" stroke="#191970" d="M1671.2758,-269.6763C1837.7343,-263.4334 2212.6094,-246.9238 2338.0962,-221 2378.7056,-212.6107 2386.4105,-202.023 2426.0962,-190 2480.8221,-173.4205 2544.9416,-157.6889 2586.0133,-148.0741"/>
<polygon fill="#191970" stroke="#191970" points="1670.9615,-266.1855 1661.0985,-270.055 1671.2218,-273.1807 1670.9615,-266.1855"/>
</g>
<!-- Node30 -->
<g id="node28" class="node">
<title>Node30</title>
<g id="a_node28"><a xlink:href="MPC_8cpp.html" target="_top" xlink:title="src/Control/MPC.cpp">
<polygon fill="none" stroke="#000000" points="1224.5962,-.5 1224.5962,-19.5 1333.5962,-19.5 1333.5962,-.5 1224.5962,-.5"/>
<text text-anchor="middle" x="1279.0962" y="-7.5" font-family="Helvetica,sans-Serif" font-size="10.00" fill="#000000">src/Control/MPC.cpp</text>
</a>
</g>
</g>
<!-- Node5&#45;&gt;Node30 -->
<g id="edge54" class="edge">
<title>Node5&#45;&gt;Node30</title>
<path fill="none" stroke="#191970" d="M1508.7569,-271.6982C1328.6972,-269.248 882.9877,-259.4636 512.0962,-221 280.6961,-197.0025 109.3832,-295.4554 6.0962,-87 -.0208,-74.6546 -3.4687,-65.9167 6.0962,-56 27.5541,-33.7527 982.9036,-15.2721 1224.1966,-10.9536"/>
<polygon fill="#191970" stroke="#191970" points="1508.895,-275.2002 1518.9404,-271.8327 1508.9875,-268.2008 1508.895,-275.2002"/>
</g>
<!-- Node31 -->
<g id="node29" class="node">
<title>Node31</title>
<g id="a_node29"><a xlink:href="main_8h.html" target="_top" xlink:title="src/main.h">
<polygon fill="none" stroke="#000000" points="2647.0962,-62 2647.0962,-81 2709.0962,-81 2709.0962,-62 2647.0962,-62"/>
<text text-anchor="middle" x="2678.0962" y="-69" font-family="Helvetica,sans-Serif" font-size="10.00" fill="#000000">src/main.h</text>
</a>
</g>
</g>
<!-- Node5&#45;&gt;Node31 -->
<g id="edge56" class="edge">
<title>Node5&#45;&gt;Node31</title>
<path fill="none" stroke="#191970" d="M1671.3812,-271.3362C1847.8672,-268.1555 2261.1001,-256.9905 2396.0962,-221 2426.2492,-212.9611 2429.2825,-199.2181 2459.0962,-190 2512.9302,-173.355 2673.1884,-196.579 2710.0962,-154 2729.0135,-132.1759 2702.8882,-97.9132 2687.6744,-81.2509"/>
<polygon fill="#191970" stroke="#191970" points="1671.0569,-267.8413 1661.1201,-271.5169 1671.1803,-274.8402 1671.0569,-267.8413"/>
</g>
<!-- Node35 -->
<g id="node33" class="node">
<title>Node35</title>
<g id="a_node33"><a xlink:href="FootLiftReward_8h.html" target="_top" xlink:title="src/Costs/FootLiftReward.h">
<polygon fill="none" stroke="#000000" points="407.5962,-129 407.5962,-148 544.5962,-148 544.5962,-129 407.5962,-129"/>
<text text-anchor="middle" x="476.0962" y="-136" font-family="Helvetica,sans-Serif" font-size="10.00" fill="#000000">src/Costs/FootLiftReward.h</text>
</a>
</g>
</g>
<!-- Node5&#45;&gt;Node35 -->
<g id="edge55" class="edge">
<title>Node5&#45;&gt;Node35</title>
<path fill="none" stroke="#191970" d="M1508.7087,-266.6697C1396.846,-258.3293 1189.3857,-241.6896 1013.0962,-221 807.9028,-196.9182 756.662,-189.2872 553.0962,-154 542.7506,-152.2066 531.6624,-150.0898 521.2142,-148.0064"/>
<polygon fill="#191970" stroke="#191970" points="1508.6702,-270.1764 1518.9019,-267.4264 1509.1885,-263.1956 1508.6702,-270.1764"/>
</g>
<!-- Node40 -->
<g id="node38" class="node">
<title>Node40</title>
<g id="a_node38"><a xlink:href="NodesHolder_8cpp.html" target="_top" xlink:title="src/Variables/NodesHolder.cpp">
<polygon fill="none" stroke="#000000" points="1603.0962,-196 1603.0962,-215 1755.0962,-215 1755.0962,-196 1603.0962,-196"/>
<text text-anchor="middle" x="1679.0962" y="-203" font-family="Helvetica,sans-Serif" font-size="10.00" fill="#000000">src/Variables/NodesHolder.cpp</text>
</a>
</g>
</g>
<!-- Node5&#45;&gt;Node40 -->
<g id="edge57" class="edge">
<title>Node5&#45;&gt;Node40</title>
<path fill="none" stroke="#191970" d="M1611.1428,-256.6559C1628.3005,-243.7395 1651.971,-225.9201 1666.3683,-215.0817"/>
<polygon fill="#191970" stroke="#191970" points="1608.7319,-254.0899 1602.8477,-262.9005 1612.942,-259.6824 1608.7319,-254.0899"/>
</g>
<!-- Node7 -->
<g id="node5" class="node">
<title>Node7</title>
<g id="a_node5"><a xlink:href="DynamicsConstraint_8h.html" target="_top" xlink:title="src/Constraints/Dynamics\lConstraint.h">
<polygon fill="none" stroke="#000000" points="870.5962,-123.5 870.5962,-153.5 1001.5962,-153.5 1001.5962,-123.5 870.5962,-123.5"/>
<text text-anchor="start" x="878.5962" y="-141.5" font-family="Helvetica,sans-Serif" font-size="10.00" fill="#000000">src/Constraints/Dynamics</text>
<text text-anchor="middle" x="936.0962" y="-130.5" font-family="Helvetica,sans-Serif" font-size="10.00" fill="#000000">Constraint.h</text>
</a>
</g>
</g>
<!-- Node6&#45;&gt;Node7 -->
<g id="edge4" class="edge">
<title>Node6&#45;&gt;Node7</title>
<path fill="none" stroke="#191970" d="M1406.9276,-198.4929C1307.813,-190.4478 1147.4249,-175.527 1010.0962,-154 1007.373,-153.5731 1004.5986,-153.112 1001.7997,-152.6251"/>
<polygon fill="#191970" stroke="#191970" points="1406.6705,-201.9834 1416.9192,-199.2974 1407.2324,-195.006 1406.6705,-201.9834"/>
</g>
<!-- Node10 -->
<g id="node8" class="node">
<title>Node10</title>
<g id="a_node8"><a xlink:href="ForceConstraint_8h.html" target="_top" xlink:title="src/Constraints/ForceConstraint.h">
<polygon fill="none" stroke="#000000" points="1511.0962,-129 1511.0962,-148 1675.0962,-148 1675.0962,-129 1511.0962,-129"/>
<text text-anchor="middle" x="1593.0962" y="-136" font-family="Helvetica,sans-Serif" font-size="10.00" fill="#000000">src/Constraints/ForceConstraint.h</text>
</a>
</g>
</g>
<!-- Node6&#45;&gt;Node10 -->
<g id="edge7" class="edge">
<title>Node6&#45;&gt;Node10</title>
<path fill="none" stroke="#191970" d="M1522.3658,-190.0102C1540.1385,-177.067 1564.9201,-159.0195 1579.9393,-148.0817"/>
<polygon fill="#191970" stroke="#191970" points="1520.3007,-187.1843 1514.2775,-195.9005 1524.4216,-192.8428 1520.3007,-187.1843"/>
</g>
<!-- Node12 -->
<g id="node10" class="node">
<title>Node12</title>
<g id="a_node10"><a xlink:href="ForceFlatConstraint_8h.html" target="_top" xlink:title="src/Constraints/ForceFlat\lConstraint.h">
<polygon fill="none" stroke="#000000" points="2079.0962,-123.5 2079.0962,-153.5 2207.0962,-153.5 2207.0962,-123.5 2079.0962,-123.5"/>
<text text-anchor="start" x="2087.0962" y="-141.5" font-family="Helvetica,sans-Serif" font-size="10.00" fill="#000000">src/Constraints/ForceFlat</text>
<text text-anchor="middle" x="2143.0962" y="-130.5" font-family="Helvetica,sans-Serif" font-size="10.00" fill="#000000">Constraint.h</text>
</a>
</g>
</g>
<!-- Node6&#45;&gt;Node12 -->
<g id="edge10" class="edge">
<title>Node6&#45;&gt;Node12</title>
<path fill="none" stroke="#191970" d="M1563.6496,-194.3449C1573.8066,-192.744 1584.2282,-191.2266 1594.0962,-190 1787.4879,-165.9603 1837.3908,-175.3659 2031.0962,-154 2046.6078,-152.2891 2063.2864,-150.146 2078.9113,-148.0041"/>
<polygon fill="#191970" stroke="#191970" points="1562.9253,-190.9165 1553.6113,-195.9661 1564.0414,-197.8269 1562.9253,-190.9165"/>
</g>
<!-- Node14 -->
<g id="node12" class="node">
<title>Node14</title>
<g id="a_node12"><a xlink:href="IntegrationConstraint_8h.html" target="_top" xlink:title="src/Constraints/Integration\lConstraint.h">
<polygon fill="none" stroke="#000000" points="1693.0962,-123.5 1693.0962,-153.5 1825.0962,-153.5 1825.0962,-123.5 1693.0962,-123.5"/>
<text text-anchor="start" x="1701.0962" y="-141.5" font-family="Helvetica,sans-Serif" font-size="10.00" fill="#000000">src/Constraints/Integration</text>
<text text-anchor="middle" x="1759.0962" y="-130.5" font-family="Helvetica,sans-Serif" font-size="10.00" fill="#000000">Constraint.h</text>
</a>
</g>
</g>
<!-- Node6&#45;&gt;Node14 -->
<g id="edge12" class="edge">
<title>Node6&#45;&gt;Node14</title>
<path fill="none" stroke="#191970" d="M1547.7114,-193.3945C1590.7436,-182.2195 1654.8064,-165.583 1701.1219,-153.5553"/>
<polygon fill="#191970" stroke="#191970" points="1546.5865,-190.0705 1537.7873,-195.9717 1548.346,-196.8457 1546.5865,-190.0705"/>
</g>
<!-- Node16 -->
<g id="node14" class="node">
<title>Node16</title>
<g id="a_node14"><a xlink:href="NodesConstraint_8cpp.html" target="_top" xlink:title="src/Constraints/NodesConstraint.cpp">
<polygon fill="none" stroke="#000000" points="1843.5962,-129 1843.5962,-148 2022.5962,-148 2022.5962,-129 1843.5962,-129"/>
<text text-anchor="middle" x="1933.0962" y="-136" font-family="Helvetica,sans-Serif" font-size="10.00" fill="#000000">src/Constraints/NodesConstraint.cpp</text>
</a>
</g>
</g>
<!-- Node6&#45;&gt;Node16 -->
<g id="edge15" class="edge">
<title>Node6&#45;&gt;Node16</title>
<path fill="none" stroke="#191970" d="M1567.6047,-194.2803C1576.5075,-192.818 1585.5213,-191.3576 1594.0962,-190 1700.6293,-173.1334 1727.4814,-170.342 1834.0962,-154 1846.5633,-152.089 1859.9092,-150.0173 1872.6361,-148.0291"/>
<polygon fill="#191970" stroke="#191970" points="1566.9263,-190.8449 1557.6298,-195.9268 1568.0663,-197.7514 1566.9263,-190.8449"/>
</g>
<!-- Node17 -->
<g id="node15" class="node">
<title>Node17</title>
<g id="a_node15"><a xlink:href="QuaternionConstraint_8h.html" target="_top" xlink:title="src/Constraints/Quaternion\lConstraint.h">
<polygon fill="none" stroke="#000000" points="1171.0962,-123.5 1171.0962,-153.5 1305.0962,-153.5 1305.0962,-123.5 1171.0962,-123.5"/>
<text text-anchor="start" x="1179.0962" y="-141.5" font-family="Helvetica,sans-Serif" font-size="10.00" fill="#000000">src/Constraints/Quaternion</text>
<text text-anchor="middle" x="1238.0962" y="-130.5" font-family="Helvetica,sans-Serif" font-size="10.00" fill="#000000">Constraint.h</text>
</a>
</g>
</g>
<!-- Node6&#45;&gt;Node17 -->
<g id="edge16" class="edge">
<title>Node6&#45;&gt;Node17</title>
<path fill="none" stroke="#191970" d="M1453.855,-193.4652C1409.987,-182.2897 1344.5067,-165.6084 1297.194,-153.5553"/>
<polygon fill="#191970" stroke="#191970" points="1453.1394,-196.8946 1463.694,-195.9717 1454.8676,-190.1113 1453.1394,-196.8946"/>
</g>
<!-- Node19 -->
<g id="node17" class="node">
<title>Node19</title>
<g id="a_node17"><a xlink:href="TerrainConstraint_8h.html" target="_top" xlink:title="src/Constraints/TerrainConstraint.h">
<polygon fill="none" stroke="#000000" points="1323.0962,-129 1323.0962,-148 1493.0962,-148 1493.0962,-129 1323.0962,-129"/>
<text text-anchor="middle" x="1408.0962" y="-136" font-family="Helvetica,sans-Serif" font-size="10.00" fill="#000000">src/Constraints/TerrainConstraint.h</text>
</a>
</g>
</g>
<!-- Node6&#45;&gt;Node19 -->
<g id="edge19" class="edge">
<title>Node6&#45;&gt;Node19</title>
<path fill="none" stroke="#191970" d="M1479.5954,-190.0102C1461.6295,-177.067 1436.5785,-159.0195 1421.3961,-148.0817"/>
<polygon fill="#191970" stroke="#191970" points="1477.612,-192.8949 1487.7715,-195.9005 1481.7037,-187.2153 1477.612,-192.8949"/>
</g>
<!-- Node21 -->
<g id="node19" class="node">
<title>Node21</title>
<g id="a_node19"><a xlink:href="TerrainFlatConstraint_8h.html" target="_top" xlink:title="src/Constraints/TerrainFlat\lConstraint.h">
<polygon fill="none" stroke="#000000" points="1019.5962,-123.5 1019.5962,-153.5 1152.5962,-153.5 1152.5962,-123.5 1019.5962,-123.5"/>
<text text-anchor="start" x="1027.5962" y="-141.5" font-family="Helvetica,sans-Serif" font-size="10.00" fill="#000000">src/Constraints/TerrainFlat</text>
<text text-anchor="middle" x="1086.0962" y="-130.5" font-family="Helvetica,sans-Serif" font-size="10.00" fill="#000000">Constraint.h</text>
</a>
</g>
</g>
<!-- Node6&#45;&gt;Node21 -->
<g id="edge22" class="edge">
<title>Node6&#45;&gt;Node21</title>
<path fill="none" stroke="#191970" d="M1421.5513,-194.5715C1352.7333,-184.8409 1250.6386,-169.7442 1162.0962,-154 1159.0468,-153.4578 1155.9319,-152.8879 1152.7879,-152.2996"/>
<polygon fill="#191970" stroke="#191970" points="1421.0672,-198.0378 1431.4578,-195.9677 1422.0441,-191.1063 1421.0672,-198.0378"/>
</g>
<!-- Node8 -->
<g id="node6" class="node">
<title>Node8</title>
<g id="a_node6"><a xlink:href="DynamicsConstraint_8cpp.html" target="_top" xlink:title="src/Constraints/Dynamics\lConstraint.cpp">
<polygon fill="none" stroke="#000000" points="480.5962,-56.5 480.5962,-86.5 611.5962,-86.5 611.5962,-56.5 480.5962,-56.5"/>
<text text-anchor="start" x="488.5962" y="-74.5" font-family="Helvetica,sans-Serif" font-size="10.00" fill="#000000">src/Constraints/Dynamics</text>
<text text-anchor="middle" x="546.0962" y="-63.5" font-family="Helvetica,sans-Serif" font-size="10.00" fill="#000000">Constraint.cpp</text>
</a>
</g>
</g>
<!-- Node7&#45;&gt;Node8 -->
<g id="edge5" class="edge">
<title>Node7&#45;&gt;Node8</title>
<path fill="none" stroke="#191970" d="M860.3668,-122.9316C753.2228,-104.1682 724.1725,-105.3677 621.0962,-87 618.0855,-86.4635 615.0105,-85.8983 611.9068,-85.3139"/>
<polygon fill="#191970" stroke="#191970" points="859.8287,-126.3907 870.2855,-124.6861 861.0481,-119.4977 859.8287,-126.3907"/>
</g>
<!-- Node9 -->
<g id="node7" class="node">
<title>Node9</title>
<g id="a_node7"><a xlink:href="NlpFormulation_8cpp.html" target="_top" xlink:title="src/Problem/NlpFormulation.cpp">
<polygon fill="none" stroke="#000000" points="1698.5962,-62 1698.5962,-81 1855.5962,-81 1855.5962,-62 1698.5962,-62"/>
<text text-anchor="middle" x="1777.0962" y="-69" font-family="Helvetica,sans-Serif" font-size="10.00" fill="#000000">src/Problem/NlpFormulation.cpp</text>
</a>
</g>
</g>
<!-- Node7&#45;&gt;Node9 -->
<g id="edge6" class="edge">
<title>Node7&#45;&gt;Node9</title>
<path fill="none" stroke="#191970" d="M1012.0647,-122.869C1311.5629,-84.7379 1392.2164,-120.8891 1689.0962,-87 1702.1971,-85.5045 1716.2997,-83.2933 1729.2946,-81.0066"/>
<polygon fill="#191970" stroke="#191970" points="1011.2439,-119.4458 1001.7742,-124.1972 1012.14,-126.3882 1011.2439,-119.4458"/>
</g>
<!-- Node10&#45;&gt;Node9 -->
<g id="edge9" class="edge">
<title>Node10&#45;&gt;Node9</title>
<path fill="none" stroke="#191970" d="M1629.0284,-125.416C1664.7937,-112.3928 1718.8325,-92.7156 1750.7824,-81.0817"/>
<polygon fill="#191970" stroke="#191970" points="1627.6578,-122.1902 1619.4589,-128.9005 1630.0529,-128.7677 1627.6578,-122.1902"/>
</g>
<!-- Node11 -->
<g id="node9" class="node">
<title>Node11</title>
<g id="a_node9"><a xlink:href="ForceConstraint_8cpp.html" target="_top" xlink:title="src/Constraints/ForceConstraint.cpp">
<polygon fill="none" stroke="#000000" points="1505.5962,-62 1505.5962,-81 1680.5962,-81 1680.5962,-62 1505.5962,-62"/>
<text text-anchor="middle" x="1593.0962" y="-69" font-family="Helvetica,sans-Serif" font-size="10.00" fill="#000000">src/Constraints/ForceConstraint.cpp</text>
</a>
</g>
</g>
<!-- Node10&#45;&gt;Node11 -->
<g id="edge8" class="edge">
<title>Node10&#45;&gt;Node11</title>
<path fill="none" stroke="#191970" d="M1593.0962,-118.6079C1593.0962,-106.214 1593.0962,-90.8263 1593.0962,-81.0817"/>
<polygon fill="#191970" stroke="#191970" points="1589.5963,-118.9005 1593.0962,-128.9005 1596.5963,-118.9006 1589.5963,-118.9005"/>
</g>
<!-- Node13 -->
<g id="node11" class="node">
<title>Node13</title>
<g id="a_node11"><a xlink:href="ForceFlatConstraint_8cpp.html" target="_top" xlink:title="src/Constraints/ForceFlat\lConstraint.cpp">
<polygon fill="none" stroke="#000000" points="2079.0962,-56.5 2079.0962,-86.5 2207.0962,-86.5 2207.0962,-56.5 2079.0962,-56.5"/>
<text text-anchor="start" x="2087.0962" y="-74.5" font-family="Helvetica,sans-Serif" font-size="10.00" fill="#000000">src/Constraints/ForceFlat</text>
<text text-anchor="middle" x="2143.0962" y="-63.5" font-family="Helvetica,sans-Serif" font-size="10.00" fill="#000000">Constraint.cpp</text>
</a>
</g>
</g>
<!-- Node12&#45;&gt;Node13 -->
<g id="edge11" class="edge">
<title>Node12&#45;&gt;Node13</title>
<path fill="none" stroke="#191970" d="M2143.0962,-113.0249C2143.0962,-104.128 2143.0962,-94.4287 2143.0962,-86.6432"/>
<polygon fill="#191970" stroke="#191970" points="2139.5963,-113.2966 2143.0962,-123.2967 2146.5963,-113.2967 2139.5963,-113.2966"/>
</g>
<!-- Node14&#45;&gt;Node9 -->
<g id="edge14" class="edge">
<title>Node14&#45;&gt;Node9</title>
<path fill="none" stroke="#191970" d="M1765.8217,-113.4663C1768.8577,-102.1655 1772.2633,-89.4891 1774.5292,-81.055"/>
<polygon fill="#191970" stroke="#191970" points="1762.3952,-112.731 1763.1807,-123.2967 1769.1554,-114.5472 1762.3952,-112.731"/>
</g>
<!-- Node15 -->
<g id="node13" class="node">
<title>Node15</title>
<g id="a_node13"><a xlink:href="IntegrationConstraint_8cpp.html" target="_top" xlink:title="src/Constraints/Integration\lConstraint.cpp">
<polygon fill="none" stroke="#000000" points="1874.0962,-56.5 1874.0962,-86.5 2006.0962,-86.5 2006.0962,-56.5 1874.0962,-56.5"/>
<text text-anchor="start" x="1882.0962" y="-74.5" font-family="Helvetica,sans-Serif" font-size="10.00" fill="#000000">src/Constraints/Integration</text>
<text text-anchor="middle" x="1940.0962" y="-63.5" font-family="Helvetica,sans-Serif" font-size="10.00" fill="#000000">Constraint.cpp</text>
</a>
</g>
</g>
<!-- Node14&#45;&gt;Node15 -->
<g id="edge13" class="edge">
<title>Node14&#45;&gt;Node15</title>
<path fill="none" stroke="#191970" d="M1809.4385,-119.865C1837.7709,-109.3773 1872.69,-96.4515 1899.2991,-86.6017"/>
<polygon fill="#191970" stroke="#191970" points="1807.8792,-116.71 1799.7161,-123.4639 1810.3093,-123.2747 1807.8792,-116.71"/>
</g>
<!-- Node17&#45;&gt;Node9 -->
<g id="edge18" class="edge">
<title>Node17&#45;&gt;Node9</title>
<path fill="none" stroke="#191970" d="M1315.2427,-122.9301C1481.4335,-98.6648 1526.4277,-109.0992 1689.0962,-87 1701.3936,-85.3293 1714.5989,-83.1892 1726.9437,-81.0361"/>
<polygon fill="#191970" stroke="#191970" points="1314.5444,-119.4952 1305.1648,-124.422 1315.5696,-126.4197 1314.5444,-119.4952"/>
</g>
<!-- Node18 -->
<g id="node16" class="node">
<title>Node18</title>
<g id="a_node16"><a xlink:href="QuaternionConstraint_8cpp.html" target="_top" xlink:title="src/Constraints/Quaternion\lConstraint.cpp">
<polygon fill="none" stroke="#000000" points="1155.0962,-56.5 1155.0962,-86.5 1289.0962,-86.5 1289.0962,-56.5 1155.0962,-56.5"/>
<text text-anchor="start" x="1163.0962" y="-74.5" font-family="Helvetica,sans-Serif" font-size="10.00" fill="#000000">src/Constraints/Quaternion</text>
<text text-anchor="middle" x="1222.0962" y="-63.5" font-family="Helvetica,sans-Serif" font-size="10.00" fill="#000000">Constraint.cpp</text>
</a>
</g>
</g>
<!-- Node17&#45;&gt;Node18 -->
<g id="edge17" class="edge">
<title>Node17&#45;&gt;Node18</title>
<path fill="none" stroke="#191970" d="M1232.0825,-113.3179C1229.9389,-104.3414 1227.5921,-94.5143 1225.7125,-86.6432"/>
<polygon fill="#191970" stroke="#191970" points="1228.7384,-114.3831 1234.4655,-123.2967 1235.547,-112.7572 1228.7384,-114.3831"/>
</g>
<!-- Node19&#45;&gt;Node9 -->
<g id="edge21" class="edge">
<title>Node19&#45;&gt;Node9</title>
<path fill="none" stroke="#191970" d="M1470.7775,-127.1188C1542.1806,-114.154 1657.5948,-93.1981 1724.502,-81.0496"/>
<polygon fill="#191970" stroke="#191970" points="1469.7868,-123.7414 1460.573,-128.9717 1471.0374,-130.6288 1469.7868,-123.7414"/>
</g>
<!-- Node20 -->
<g id="node18" class="node">
<title>Node20</title>
<g id="a_node18"><a xlink:href="TerrainConstraint_8cpp.html" target="_top" xlink:title="src/Constraints/TerrainConstraint.cpp">
<polygon fill="none" stroke="#000000" points="1307.0962,-62 1307.0962,-81 1487.0962,-81 1487.0962,-62 1307.0962,-62"/>
<text text-anchor="middle" x="1397.0962" y="-69" font-family="Helvetica,sans-Serif" font-size="10.00" fill="#000000">src/Constraints/TerrainConstraint.cpp</text>
</a>
</g>
</g>
<!-- Node19&#45;&gt;Node20 -->
<g id="edge20" class="edge">
<title>Node19&#45;&gt;Node20</title>
<path fill="none" stroke="#191970" d="M1404.8924,-118.9863C1402.8471,-106.5286 1400.2855,-90.9258 1398.6693,-81.0817"/>
<polygon fill="#191970" stroke="#191970" points="1401.4462,-119.5997 1406.5201,-128.9005 1408.3537,-118.4656 1401.4462,-119.5997"/>
</g>
<!-- Node22 -->
<g id="node20" class="node">
<title>Node22</title>
<g id="a_node20"><a xlink:href="TerrainFlatConstraint_8cpp.html" target="_top" xlink:title="src/Constraints/TerrainFlat\lConstraint.cpp">
<polygon fill="none" stroke="#000000" points="1003.5962,-56.5 1003.5962,-86.5 1136.5962,-86.5 1136.5962,-56.5 1003.5962,-56.5"/>
<text text-anchor="start" x="1011.5962" y="-74.5" font-family="Helvetica,sans-Serif" font-size="10.00" fill="#000000">src/Constraints/TerrainFlat</text>
<text text-anchor="middle" x="1070.0962" y="-63.5" font-family="Helvetica,sans-Serif" font-size="10.00" fill="#000000">Constraint.cpp</text>
</a>
</g>
</g>
<!-- Node21&#45;&gt;Node22 -->
<g id="edge23" class="edge">
<title>Node21&#45;&gt;Node22</title>
<path fill="none" stroke="#191970" d="M1080.0825,-113.3179C1077.9389,-104.3414 1075.5921,-94.5143 1073.7125,-86.6432"/>
<polygon fill="#191970" stroke="#191970" points="1076.7384,-114.3831 1082.4655,-123.2967 1083.547,-112.7572 1076.7384,-114.3831"/>
</g>
<!-- Node23&#45;&gt;Node7 -->
<g id="edge25" class="edge">
<title>Node23&#45;&gt;Node7</title>
<path fill="none" stroke="#191970" d="M1055.2653,-191.7289C1030.3578,-180.6035 995.3536,-164.9683 969.727,-153.5218"/>
<polygon fill="#191970" stroke="#191970" points="1054.0468,-195.0179 1064.6048,-195.9005 1056.9017,-188.6265 1054.0468,-195.0179"/>
</g>
<!-- Node23&#45;&gt;Node10 -->
<g id="edge31" class="edge">
<title>Node23&#45;&gt;Node10</title>
<path fill="none" stroke="#191970" d="M1160.4888,-197.3247C1243.8259,-187.926 1382.8691,-171.5247 1502.0962,-154 1514.3051,-152.2055 1527.4023,-150.0882 1539.7489,-148.0046"/>
<polygon fill="#191970" stroke="#191970" points="1159.9036,-193.8684 1150.3573,-198.4638 1160.6857,-200.8245 1159.9036,-193.8684"/>
</g>
<!-- Node23&#45;&gt;Node14 -->
<g id="edge32" class="edge">
<title>Node23&#45;&gt;Node14</title>
<path fill="none" stroke="#191970" d="M1160.3977,-201.9228C1273.7862,-195.8282 1496.6133,-181.349 1684.0962,-154 1686.9907,-153.5778 1689.9416,-153.1136 1692.9178,-152.6179"/>
<polygon fill="#191970" stroke="#191970" points="1159.903,-198.444 1150.1026,-202.4692 1160.2741,-205.4342 1159.903,-198.444"/>
</g>
<!-- Node23&#45;&gt;Node17 -->
<g id="edge33" class="edge">
<title>Node23&#45;&gt;Node17</title>
<path fill="none" stroke="#191970" d="M1117.3382,-191.7289C1142.5777,-180.6035 1178.0486,-164.9683 1204.017,-153.5218"/>
<polygon fill="#191970" stroke="#191970" points="1115.6128,-188.6644 1107.8741,-195.9005 1118.4363,-195.0697 1115.6128,-188.6644"/>
</g>
<!-- Node23&#45;&gt;Node19 -->
<g id="edge34" class="edge">
<title>Node23&#45;&gt;Node19</title>
<path fill="none" stroke="#191970" d="M1141.9472,-193.8788C1204.3388,-180.8967 1304.1748,-160.1234 1362.201,-148.0496"/>
<polygon fill="#191970" stroke="#191970" points="1140.9663,-190.5079 1131.889,-195.9717 1142.3923,-197.3611 1140.9663,-190.5079"/>
</g>
<!-- Node23&#45;&gt;Node21 -->
<g id="edge35" class="edge">
<title>Node23&#45;&gt;Node21</title>
<path fill="none" stroke="#191970" d="M1086.0962,-185.7758C1086.0962,-175.4641 1086.0962,-163.0437 1086.0962,-153.5218"/>
<polygon fill="#191970" stroke="#191970" points="1082.5963,-185.9005 1086.0962,-195.9005 1089.5963,-185.9006 1082.5963,-185.9005"/>
</g>
<!-- Node23&#45;&gt;Node24 -->
<g id="edge26" class="edge">
<title>Node23&#45;&gt;Node24</title>
<path fill="none" stroke="#191970" d="M1011.6266,-203.3241C868.9051,-198.5851 547.1317,-185.1529 278.0962,-154 264.7416,-152.4536 250.3758,-150.2806 237.0583,-148.0499"/>
<polygon fill="#191970" stroke="#191970" points="1011.8922,-206.8346 1022.0014,-203.6637 1012.1212,-199.8383 1011.8922,-206.8346"/>
</g>
<!-- Node23&#45;&gt;Node28 -->
<g id="edge36" class="edge">
<title>Node23&#45;&gt;Node28</title>
<path fill="none" stroke="#191970" d="M1160.4202,-201.575C1225.6742,-198.2119 1323.1631,-193.3886 1408.0962,-190 1913.2808,-169.8448 2042.4627,-208.5656 2545.0962,-154 2557.7749,-152.6236 2571.422,-150.3926 2583.915,-148.0468"/>
<polygon fill="#191970" stroke="#191970" points="1160.0369,-198.09 1150.231,-202.1017 1160.3984,-205.0807 1160.0369,-198.09"/>
</g>
<!-- Node23&#45;&gt;Node35 -->
<g id="edge44" class="edge">
<title>Node23&#45;&gt;Node35</title>
<path fill="none" stroke="#191970" d="M1011.8295,-200.7345C908.5711,-193.5609 715.9534,-178.1945 553.0962,-154 542.1708,-152.3769 530.4504,-150.2292 519.5319,-148.0513"/>
<polygon fill="#191970" stroke="#191970" points="1011.6264,-204.2287 1021.8432,-201.4239 1012.1072,-197.2452 1011.6264,-204.2287"/>
</g>
<!-- Node37 -->
<g id="node35" class="node">
<title>Node37</title>
<g id="a_node35"><a xlink:href="Robot_8h.html" target="_top" xlink:title="src/Robots/Robot.h">
<polygon fill="none" stroke="#000000" points="287.0962,-129 287.0962,-148 389.0962,-148 389.0962,-129 287.0962,-129"/>
<text text-anchor="middle" x="338.0962" y="-136" font-family="Helvetica,sans-Serif" font-size="10.00" fill="#000000">src/Robots/Robot.h</text>
</a>
</g>
</g>
<!-- Node23&#45;&gt;Node37 -->
<g id="edge47" class="edge">
<title>Node23&#45;&gt;Node37</title>
<path fill="none" stroke="#191970" d="M1011.7388,-204.2629C884.9999,-201.1911 619.3648,-190.5626 398.0962,-154 389.0737,-152.5091 379.428,-150.2995 370.5677,-148.0127"/>
<polygon fill="#191970" stroke="#191970" points="1012.0153,-207.7702 1022.0943,-204.5045 1012.1786,-200.7721 1012.0153,-207.7702"/>
</g>
<!-- Node38 -->
<g id="node36" class="node">
<title>Node38</title>
<g id="a_node36"><a xlink:href="RobotModel_8cpp.html" target="_top" xlink:title="src/Robots/RobotModel.cpp">
<polygon fill="none" stroke="#000000" points="562.5962,-129 562.5962,-148 701.5962,-148 701.5962,-129 562.5962,-129"/>
<text text-anchor="middle" x="632.0962" y="-136" font-family="Helvetica,sans-Serif" font-size="10.00" fill="#000000">src/Robots/RobotModel.cpp</text>
</a>
</g>
</g>
<!-- Node23&#45;&gt;Node38 -->
<g id="edge50" class="edge">
<title>Node23&#45;&gt;Node38</title>
<path fill="none" stroke="#191970" d="M1011.9675,-196.5913C936.1833,-187.1854 815.162,-171.3402 711.0962,-154 700.4804,-152.2311 689.1036,-150.1241 678.384,-148.0423"/>
<polygon fill="#191970" stroke="#191970" points="1011.542,-200.0652 1021.8959,-197.8188 1012.401,-193.1181 1011.542,-200.0652"/>
</g>
<!-- Node39 -->
<g id="node37" class="node">
<title>Node39</title>
<g id="a_node37"><a xlink:href="HeightMap_8cpp.html" target="_top" xlink:title="src/Terrain/HeightMap.cpp">
<polygon fill="none" stroke="#000000" points="720.0962,-129 720.0962,-148 852.0962,-148 852.0962,-129 720.0962,-129"/>
<text text-anchor="middle" x="786.0962" y="-136" font-family="Helvetica,sans-Serif" font-size="10.00" fill="#000000">src/Terrain/HeightMap.cpp</text>
</a>
</g>
</g>
<!-- Node23&#45;&gt;Node39 -->
<g id="edge51" class="edge">
<title>Node23&#45;&gt;Node39</title>
<path fill="none" stroke="#191970" d="M1033.355,-193.7211C975.269,-180.7486 882.977,-160.1367 829.0988,-148.1039"/>
<polygon fill="#191970" stroke="#191970" points="1032.9096,-197.2078 1043.4321,-195.9717 1034.4354,-190.3761 1032.9096,-197.2078"/>
</g>
<!-- Node24&#45;&gt;Node8 -->
<g id="edge27" class="edge">
<title>Node24&#45;&gt;Node8</title>
<path fill="none" stroke="#191970" d="M251.1677,-127.219C308.9896,-117.0811 395.7733,-101.5865 471.0962,-87 474.0985,-86.4186 477.1667,-85.8165 480.2648,-85.2023"/>
<polygon fill="#191970" stroke="#191970" points="250.3213,-123.8139 241.0746,-128.9858 251.5283,-130.709 250.3213,-123.8139"/>
</g>
<!-- Node25 -->
<g id="node23" class="node">
<title>Node25</title>
<g id="a_node23"><a xlink:href="MuJoCoRobotModel_8cpp.html" target="_top" xlink:title="src/Robots/MuJoCoRobotModel.cpp">
<polygon fill="none" stroke="#000000" points="15.0962,-62 15.0962,-81 191.0962,-81 191.0962,-62 15.0962,-62"/>
<text text-anchor="middle" x="103.0962" y="-69" font-family="Helvetica,sans-Serif" font-size="10.00" fill="#000000">src/Robots/MuJoCoRobotModel.cpp</text>
</a>
</g>
</g>
<!-- Node24&#45;&gt;Node25 -->
<g id="edge28" class="edge">
<title>Node24&#45;&gt;Node25</title>
<path fill="none" stroke="#191970" d="M166.0265,-122.2992C150.0632,-109.4131 128.2696,-91.8207 114.966,-81.0817"/>
<polygon fill="#191970" stroke="#191970" points="164.2247,-125.3427 174.2043,-128.9005 168.6215,-119.8959 164.2247,-125.3427"/>
</g>
<!-- Node26 -->
<g id="node24" class="node">
<title>Node26</title>
<g id="a_node24"><a xlink:href="Robot_8cpp.html" target="_top" xlink:title="src/Robots/Robot.cpp">
<polygon fill="none" stroke="#000000" points="349.5962,-62 349.5962,-81 462.5962,-81 462.5962,-62 349.5962,-62"/>
<text text-anchor="middle" x="406.0962" y="-69" font-family="Helvetica,sans-Serif" font-size="10.00" fill="#000000">src/Robots/Robot.cpp</text>
</a>
</g>
</g>
<!-- Node24&#45;&gt;Node26 -->
<g id="edge29" class="edge">
<title>Node24&#45;&gt;Node26</title>
<path fill="none" stroke="#191970" d="M227.4248,-125.9136C270.1604,-112.8986 335.9433,-92.8647 374.634,-81.0817"/>
<polygon fill="#191970" stroke="#191970" points="226.1633,-122.6389 217.6168,-128.9005 228.2027,-129.3353 226.1633,-122.6389"/>
</g>
<!-- Node27 -->
<g id="node25" class="node">
<title>Node27</title>
<g id="a_node25"><a xlink:href="test__quaternion_8cpp.html" target="_top" xlink:title="test/test_quaternion.cpp">
<polygon fill="none" stroke="#000000" points="209.0962,-62 209.0962,-81 331.0962,-81 331.0962,-62 209.0962,-62"/>
<text text-anchor="middle" x="270.0962" y="-69" font-family="Helvetica,sans-Serif" font-size="10.00" fill="#000000">test/test_quaternion.cpp</text>
</a>
</g>
</g>
<!-- Node24&#45;&gt;Node27 -->
<g id="edge30" class="edge">
<title>Node24&#45;&gt;Node27</title>
<path fill="none" stroke="#191970" d="M205.9604,-122.6559C222.1542,-109.7395 244.4948,-91.9201 258.0834,-81.0817"/>
<polygon fill="#191970" stroke="#191970" points="203.7666,-119.9287 198.1313,-128.9005 208.1316,-125.4011 203.7666,-119.9287"/>
</g>
<!-- Node28&#45;&gt;Node9 -->
<g id="edge43" class="edge">
<title>Node28&#45;&gt;Node9</title>
<path fill="none" stroke="#191970" d="M2573.0796,-127.1749C2563.7718,-125.5611 2554.1821,-124.0841 2545.0962,-123 2244.5823,-87.1434 2165.7902,-121.3126 1865.0962,-87 1851.9952,-85.505 1837.8925,-83.294 1824.8977,-81.0073"/>
<polygon fill="#191970" stroke="#191970" points="2572.5695,-130.6393 2583.0316,-128.9676 2573.8105,-123.7501 2572.5695,-130.6393"/>
</g>
<!-- Node29 -->
<g id="node27" class="node">
<title>Node29</title>
<g id="a_node27"><a xlink:href="MPC_8h.html" target="_top" xlink:title="src/Control/MPC.h">
<polygon fill="none" stroke="#000000" points="2496.0962,-62 2496.0962,-81 2594.0962,-81 2594.0962,-62 2496.0962,-62"/>
<text text-anchor="middle" x="2545.0962" y="-69" font-family="Helvetica,sans-Serif" font-size="10.00" fill="#000000">src/Control/MPC.h</text>
</a>
</g>
</g>
<!-- Node28&#45;&gt;Node29 -->
<g id="edge37" class="edge">
<title>Node28&#45;&gt;Node29</title>
<path fill="none" stroke="#191970" d="M2608.0265,-122.2992C2592.0632,-109.4131 2570.2696,-91.8207 2556.966,-81.0817"/>
<polygon fill="#191970" stroke="#191970" points="2606.2247,-125.3427 2616.2043,-128.9005 2610.6215,-119.8959 2606.2247,-125.3427"/>
</g>
<!-- Node28&#45;&gt;Node31 -->
<g id="edge39" class="edge">
<title>Node28&#45;&gt;Node31</title>
<path fill="none" stroke="#191970" d="M2641.2688,-120.8486C2650.7683,-108.1194 2663.2283,-91.4229 2670.9457,-81.0817"/>
<polygon fill="#191970" stroke="#191970" points="2638.4358,-118.7929 2635.26,-128.9005 2644.0459,-122.9795 2638.4358,-118.7929"/>
</g>
<!-- Node29&#45;&gt;Node30 -->
<g id="edge38" class="edge">
<title>Node29&#45;&gt;Node30</title>
<path fill="none" stroke="#191970" d="M2485.8956,-64.1831C2460.1798,-61.2379 2429.6865,-58.058 2402.0962,-56 1992.2448,-25.4282 1496.6214,-14.024 1333.8028,-10.9418"/>
<polygon fill="#191970" stroke="#191970" points="2485.529,-67.6639 2495.8659,-65.3404 2486.3361,-60.7106 2485.529,-67.6639"/>
</g>
<!-- Node32 -->
<g id="node30" class="node">
<title>Node32</title>
<g id="a_node30"><a xlink:href="functions_8cpp.html" target="_top" xlink:title="src/functions.cpp">
<polygon fill="none" stroke="#000000" points="2632.0962,-.5 2632.0962,-19.5 2724.0962,-19.5 2724.0962,-.5 2632.0962,-.5"/>
<text text-anchor="middle" x="2678.0962" y="-7.5" font-family="Helvetica,sans-Serif" font-size="10.00" fill="#000000">src/functions.cpp</text>
</a>
</g>
</g>
<!-- Node31&#45;&gt;Node32 -->
<g id="edge40" class="edge">
<title>Node31&#45;&gt;Node32</title>
<path fill="none" stroke="#191970" d="M2678.0962,-51.7462C2678.0962,-41.0519 2678.0962,-28.314 2678.0962,-19.7449"/>
<polygon fill="#191970" stroke="#191970" points="2674.5963,-51.8906 2678.0962,-61.8906 2681.5963,-51.8907 2674.5963,-51.8906"/>
</g>
<!-- Node33 -->
<g id="node31" class="node">
<title>Node33</title>
<g id="a_node31"><a xlink:href="main_8cpp.html" target="_top" xlink:title="src/main.cpp">
<polygon fill="none" stroke="#000000" points="2742.5962,-.5 2742.5962,-19.5 2815.5962,-19.5 2815.5962,-.5 2742.5962,-.5"/>
<text text-anchor="middle" x="2779.0962" y="-7.5" font-family="Helvetica,sans-Serif" font-size="10.00" fill="#000000">src/main.cpp</text>
</a>
</g>
</g>
<!-- Node31&#45;&gt;Node33 -->
<g id="edge41" class="edge">
<title>Node31&#45;&gt;Node33</title>
<path fill="none" stroke="#191970" d="M2702.5636,-56.6015C2721.5015,-45.07 2747.1621,-29.445 2763.4257,-19.5419"/>
<polygon fill="#191970" stroke="#191970" points="2700.5983,-53.7004 2693.8774,-61.8906 2704.2389,-59.6792 2700.5983,-53.7004"/>
</g>
<!-- Node34 -->
<g id="node32" class="node">
<title>Node34</title>
<g id="a_node32"><a xlink:href="simulate_8cpp.html" target="_top" xlink:title="src/simulate.cpp">
<polygon fill="none" stroke="#000000" points="2524.5962,-.5 2524.5962,-19.5 2613.5962,-19.5 2613.5962,-.5 2524.5962,-.5"/>
<text text-anchor="middle" x="2569.0962" y="-7.5" font-family="Helvetica,sans-Serif" font-size="10.00" fill="#000000">src/simulate.cpp</text>
</a>
</g>
</g>
<!-- Node31&#45;&gt;Node34 -->
<g id="edge42" class="edge">
<title>Node31&#45;&gt;Node34</title>
<path fill="none" stroke="#191970" d="M2652.2464,-56.915C2631.7571,-45.3546 2603.7193,-29.535 2586.0078,-19.5419"/>
<polygon fill="#191970" stroke="#191970" points="2650.6357,-60.0249 2661.0649,-61.8906 2654.0755,-53.9283 2650.6357,-60.0249"/>
</g>
<!-- Node35&#45;&gt;Node9 -->
<g id="edge46" class="edge">
<title>Node35&#45;&gt;Node9</title>
<path fill="none" stroke="#191970" d="M527.0447,-127.0014C535.6992,-125.4057 544.6258,-123.9798 553.0962,-123 1054.8926,-64.9554 1186.6317,-138.9446 1689.0962,-87 1702.5209,-85.6122 1716.9845,-83.3775 1730.2303,-81.0318"/>
<polygon fill="#191970" stroke="#191970" points="526.206,-123.5987 517.0538,-128.936 527.5368,-130.4711 526.206,-123.5987"/>
</g>
<!-- Node36 -->
<g id="node34" class="node">
<title>Node36</title>
<g id="a_node34"><a xlink:href="FootLiftReward_8cpp.html" target="_top" xlink:title="src/Costs/FootLiftReward.cpp">
<polygon fill="none" stroke="#000000" points="630.0962,-62 630.0962,-81 778.0962,-81 778.0962,-62 630.0962,-62"/>
<text text-anchor="middle" x="704.0962" y="-69" font-family="Helvetica,sans-Serif" font-size="10.00" fill="#000000">src/Costs/FootLiftReward.cpp</text>
</a>
</g>
</g>
<!-- Node35&#45;&gt;Node36 -->
<g id="edge45" class="edge">
<title>Node35&#45;&gt;Node36</title>
<path fill="none" stroke="#191970" d="M518.3683,-126.0779C562.6414,-113.0678 631.2231,-92.9145 671.4899,-81.0817"/>
<polygon fill="#191970" stroke="#191970" points="517.3705,-122.7231 508.763,-128.9005 519.3442,-129.4391 517.3705,-122.7231"/>
</g>
<!-- Node37&#45;&gt;Node26 -->
<g id="edge48" class="edge">
<title>Node37&#45;&gt;Node26</title>
<path fill="none" stroke="#191970" d="M355.2702,-121.5785C368.2761,-108.7639 385.6741,-91.6218 396.3715,-81.0817"/>
<polygon fill="#191970" stroke="#191970" points="352.5057,-119.3889 347.8389,-128.9005 357.4187,-124.3752 352.5057,-119.3889"/>
</g>
<!-- Node37&#45;&gt;Node27 -->
<g id="edge49" class="edge">
<title>Node37&#45;&gt;Node27</title>
<path fill="none" stroke="#191970" d="M320.9222,-121.5785C307.9162,-108.7639 290.5183,-91.6218 279.8208,-81.0817"/>
<polygon fill="#191970" stroke="#191970" points="318.7737,-124.3752 328.3534,-128.9005 323.6866,-119.3889 318.7737,-124.3752"/>
</g>
<!-- Node41&#45;&gt;Node9 -->
<g id="edge60" class="edge">
<title>Node41&#45;&gt;Node9</title>
<path fill="none" stroke="#191970" d="M2458.1759,-256.945C2344.85,-238.3925 2310.9119,-253.8182 2205.0962,-221 2141.1195,-201.158 2126.6282,-189.9284 2070.0962,-154 2051.4088,-142.1234 2051.1685,-132.3475 2031.0962,-123 2013.1747,-114.6542 1900.1464,-93.4949 1831.044,-81.0491"/>
<polygon fill="#191970" stroke="#191970" points="2457.8472,-260.439 2468.2908,-258.6558 2459.0146,-253.5371 2457.8472,-260.439"/>
</g>
<!-- Node42 -->
<g id="node40" class="node">
<title>Node42</title>
<g id="a_node40"><a xlink:href="SymmetryConstraint_8cpp.html" target="_top" xlink:title="src/Constraints/Symmetry\lConstraint.cpp">
<polygon fill="none" stroke="#000000" points="2468.5962,-190.5 2468.5962,-220.5 2599.5962,-220.5 2599.5962,-190.5 2468.5962,-190.5"/>
<text text-anchor="start" x="2476.5962" y="-208.5" font-family="Helvetica,sans-Serif" font-size="10.00" fill="#000000">src/Constraints/Symmetry</text>
<text text-anchor="middle" x="2534.0962" y="-197.5" font-family="Helvetica,sans-Serif" font-size="10.00" fill="#000000">Constraint.cpp</text>
</a>
</g>
</g>
<!-- Node41&#45;&gt;Node42 -->
<g id="edge59" class="edge">
<title>Node41&#45;&gt;Node42</title>
<path fill="none" stroke="#191970" d="M2534.0962,-247.0249C2534.0962,-238.128 2534.0962,-228.4287 2534.0962,-220.6432"/>
<polygon fill="#191970" stroke="#191970" points="2530.5963,-247.2966 2534.0962,-257.2967 2537.5963,-247.2967 2530.5963,-247.2966"/>
</g>
<!-- Node43&#45;&gt;Node9 -->
<g id="edge67" class="edge">
<title>Node43&#45;&gt;Node9</title>
<path fill="none" stroke="#191970" d="M2264.8468,-186.3851C2256.3515,-166.867 2240.285,-137.4446 2216.0962,-123 2148.7766,-82.7995 1942.7569,-97.8077 1865.0962,-87 1852.9579,-85.3108 1839.931,-83.188 1827.7198,-81.0602"/>
<polygon fill="#191970" stroke="#191970" points="2261.6734,-187.872 2268.6967,-195.8045 2268.1531,-185.2236 2261.6734,-187.872"/>
</g>
<!-- Node44 -->
<g id="node42" class="node">
<title>Node44</title>
<g id="a_node42"><a xlink:href="NodeCost_8cpp.html" target="_top" xlink:title="src/Costs/NodeCost.cpp">
<polygon fill="none" stroke="#000000" points="2411.5962,-129 2411.5962,-148 2536.5962,-148 2536.5962,-129 2411.5962,-129"/>
<text text-anchor="middle" x="2474.0962" y="-136" font-family="Helvetica,sans-Serif" font-size="10.00" fill="#000000">src/Costs/NodeCost.cpp</text>
</a>
</g>
</g>
<!-- Node43&#45;&gt;Node44 -->
<g id="edge63" class="edge">
<title>Node43&#45;&gt;Node44</title>
<path fill="none" stroke="#191970" d="M2310.5412,-192.7484C2349.7917,-179.7297 2409.833,-159.815 2445.2082,-148.0817"/>
<polygon fill="#191970" stroke="#191970" points="2309.4275,-189.4303 2301.0379,-195.9005 2311.6313,-196.0743 2309.4275,-189.4303"/>
</g>
<!-- Node45 -->
<g id="node43" class="node">
<title>Node45</title>
<g id="a_node43"><a xlink:href="NodeDerivativeCost_8h.html" target="_top" xlink:title="src/Costs/NodeDerivative\lCost.h">
<polygon fill="none" stroke="#000000" points="2263.0962,-123.5 2263.0962,-153.5 2393.0962,-153.5 2393.0962,-123.5 2263.0962,-123.5"/>
<text text-anchor="start" x="2271.0962" y="-141.5" font-family="Helvetica,sans-Serif" font-size="10.00" fill="#000000">src/Costs/NodeDerivative</text>
<text text-anchor="middle" x="2328.0962" y="-130.5" font-family="Helvetica,sans-Serif" font-size="10.00" fill="#000000">Cost.h</text>
</a>
</g>
</g>
<!-- Node43&#45;&gt;Node45 -->
<g id="edge64" class="edge">
<title>Node43&#45;&gt;Node45</title>
<path fill="none" stroke="#191970" d="M2286.6877,-188.0423C2295.6412,-177.33 2306.9894,-163.7528 2315.5407,-153.5218"/>
<polygon fill="#191970" stroke="#191970" points="2283.8473,-185.9831 2280.1196,-195.9005 2289.2182,-190.4723 2283.8473,-185.9831"/>
</g>
<!-- Node45&#45;&gt;Node9 -->
<g id="edge66" class="edge">
<title>Node45&#45;&gt;Node9</title>
<path fill="none" stroke="#191970" d="M2252.9775,-123.5769C2251.6747,-123.3782 2250.38,-123.1857 2249.0962,-123 2079.4457,-98.4678 2034.9765,-109.8861 1865.0962,-87 1852.7969,-85.3431 1839.591,-83.208 1827.2461,-81.0555"/>
<polygon fill="#191970" stroke="#191970" points="2252.6574,-127.0705 2263.0874,-125.2089 2253.773,-120.16 2252.6574,-127.0705"/>
</g>
<!-- Node46 -->
<g id="node44" class="node">
<title>Node46</title>
<g id="a_node44"><a xlink:href="NodeDerivativeCost_8cpp.html" target="_top" xlink:title="src/Costs/NodeDerivative\lCost.cpp">
<polygon fill="none" stroke="#000000" points="2263.0962,-56.5 2263.0962,-86.5 2393.0962,-86.5 2393.0962,-56.5 2263.0962,-56.5"/>
<text text-anchor="start" x="2271.0962" y="-74.5" font-family="Helvetica,sans-Serif" font-size="10.00" fill="#000000">src/Costs/NodeDerivative</text>
<text text-anchor="middle" x="2328.0962" y="-63.5" font-family="Helvetica,sans-Serif" font-size="10.00" fill="#000000">Cost.cpp</text>
</a>
</g>
</g>
<!-- Node45&#45;&gt;Node46 -->
<g id="edge65" class="edge">
<title>Node45&#45;&gt;Node46</title>
<path fill="none" stroke="#191970" d="M2328.0962,-113.0249C2328.0962,-104.128 2328.0962,-94.4287 2328.0962,-86.6432"/>
<polygon fill="#191970" stroke="#191970" points="2324.5963,-113.2966 2328.0962,-123.2967 2331.5963,-113.2967 2324.5963,-113.2966"/>
</g>
</g>
</svg>
        <g id="navigator" transform="translate(0 0)" fill="#404254">
                <rect fill="#f2f5e9" fill-opacity="0.5" stroke="#606060" stroke-width=".5" x="0" y="0" width="60" height="60"/>
                <use id="zoomplus" xlink:href="#zoomPlus" x="17" y="9" onmousedown="handleZoom(evt,'in')"/>
                <use id="zoomminus" xlink:href="#zoomMin" x="42" y="9" onmousedown="handleZoom(evt,'out')"/>
                <use id="reset" xlink:href="#resetDef" x="30" y="36" onmousedown="handleReset()"/>
                <g id="arrowUp" xlink:href="#dirArrow" transform="translate(30 24)" onmousedown="handlePan(0,-1)">
                  <use xlink:href="#rim" fill="#404040">
                        <set attributeName="fill" to="#808080" begin="arrowUp.mouseover" end="arrowUp.mouseout"/>
                  </use>
                  <path fill="none" stroke="white" stroke-width="1.5" d="M0,-3.0v7 M-2.5,-0.5L0,-3.0L2.5,-0.5"/>
                </g>
                <g id="arrowRight" xlink:href="#dirArrow" transform="rotate(90) translate(36 -43)" onmousedown="handlePan(1,0)">
                  <use xlink:href="#rim" fill="#404040">
                        <set attributeName="fill" to="#808080" begin="arrowRight.mouseover" end="arrowRight.mouseout"/>
                  </use>
                  <path fill="none" stroke="white" stroke-width="1.5" d="M0,-3.0v7 M-2.5,-0.5L0,-3.0L2.5,-0.5"/>
                </g>
                <g id="arrowDown" xlink:href="#dirArrow" transform="rotate(180) translate(-30 -48)" onmousedown="handlePan(0,1)">
                  <use xlink:href="#rim" fill="#404040">
                        <set attributeName="fill" to="#808080" begin="arrowDown.mouseover" end="arrowDown.mouseout"/>
                  </use>
                  <path fill="none" stroke="white" stroke-width="1.5" d="M0,-3.0v7 M-2.5,-0.5L0,-3.0L2.5,-0.5"/>
                </g>
                <g id="arrowLeft" xlink:href="#dirArrow" transform="rotate(270) translate(-36 17)" onmousedown="handlePan(-1,0)">
                  <use xlink:href="#rim" fill="#404040">
                        <set attributeName="fill" to="#808080" begin="arrowLeft.mouseover" end="arrowLeft.mouseout"/>
                  </use>
                  <path fill="none" stroke="white" stroke-width="1.5" d="M0,-3.0v7 M-2.5,-0.5L0,-3.0L2.5,-0.5"/>
                </g>
        </g>
        <svg viewBox="0 0 15 15" width="100%" height="30px" preserveAspectRatio="xMaxYMin meet">
         <g id="arrow_out" transform="scale(0.3 0.3)">
          <a xlink:href="NodeTimes_8h__dep__incl_org.svg" target="_base">
           <rect id="button" ry="5" rx="5" y="6" x="6" height="38" width="38"
                fill="#f2f5e9" fill-opacity="0.5" stroke="#606060" stroke-width="1.0"/>
           <path id="arrow"
             d="M 11.500037,31.436501 C 11.940474,20.09759 22.043105,11.32322 32.158766,21.979434 L 37.068811,17.246167 C 37.068811,17.246167 37.088388,32 37.088388,32 L 22.160133,31.978069 C 22.160133,31.978069 26.997745,27.140456 26.997745,27.140456 C 18.528582,18.264221 13.291696,25.230495 11.500037,31.436501 z"
             style="fill:#404040;"/>
          </a>
         </g>
        </svg>
</svg>
