<?xml version="1.0" encoding="UTF-8" standalone="no"?>
<!DOCTYPE svg PUBLIC "-//W3C//DTD SVG 1.1//EN"
 "http://www.w3.org/Graphics/SVG/1.1/DTD/svg11.dtd">
<!-- Generated by graphviz version 2.40.1 (20161225.0304)
 -->
<!-- Title: src/Variables/NodesVariables.cpp Pages: 1 -->
<svg width="313pt" height="196pt"
 viewBox="0.00 0.00 313.00 196.00" xmlns="http://www.w3.org/2000/svg" xmlns:xlink="http://www.w3.org/1999/xlink">
<g id="graph0" class="graph" transform="scale(1 1) rotate(0) translate(4 192)">
<title>src/Variables/NodesVariables.cpp</title>
<!-- Node0 -->
<g id="node1" class="node">
<title>Node0</title>
<polygon fill="#bfbfbf" stroke="#000000" points="36.5,-168.5 36.5,-187.5 200.5,-187.5 200.5,-168.5 36.5,-168.5"/>
<text text-anchor="middle" x="118.5" y="-175.5" font-family="Helvetica,sans-Serif" font-size="10.00" fill="#000000">src/Variables/NodesVariables.cpp</text>
</g>
<!-- Node1 -->
<g id="node2" class="node">
<title>Node1</title>
<polygon fill="none" stroke="#bfbfbf" points="45.5,-112.5 45.5,-131.5 99.5,-131.5 99.5,-112.5 45.5,-112.5"/>
<text text-anchor="middle" x="72.5" y="-119.5" font-family="Helvetica,sans-Serif" font-size="10.00" fill="#000000">iostream</text>
</g>
<!-- Node0&#45;&gt;Node1 -->
<g id="edge1" class="edge">
<title>Node0&#45;&gt;Node1</title>
<path fill="none" stroke="#191970" d="M110.4874,-168.2455C104.0232,-160.3761 94.7615,-149.101 87.0017,-139.6542"/>
<polygon fill="#191970" stroke="#191970" points="89.4727,-137.1484 80.4208,-131.6427 84.0636,-141.5916 89.4727,-137.1484"/>
</g>
<!-- Node2 -->
<g id="node3" class="node">
<title>Node2</title>
<g id="a_node3"><a xlink:href="NodesVariables_8h.html" target="_top" xlink:title="NodesVariables.h">
<polygon fill="none" stroke="#000000" points="117.5,-112.5 117.5,-131.5 211.5,-131.5 211.5,-112.5 117.5,-112.5"/>
<text text-anchor="middle" x="164.5" y="-119.5" font-family="Helvetica,sans-Serif" font-size="10.00" fill="#000000">NodesVariables.h</text>
</a>
</g>
</g>
<!-- Node0&#45;&gt;Node2 -->
<g id="edge2" class="edge">
<title>Node0&#45;&gt;Node2</title>
<path fill="none" stroke="#191970" d="M126.5126,-168.2455C132.9768,-160.3761 142.2385,-149.101 149.9983,-139.6542"/>
<polygon fill="#191970" stroke="#191970" points="152.9364,-141.5916 156.5792,-131.6427 147.5273,-137.1484 152.9364,-141.5916"/>
</g>
<!-- Node3 -->
<g id="node4" class="node">
<title>Node3</title>
<polygon fill="none" stroke="#bfbfbf" points="0,-56.5 0,-75.5 99,-75.5 99,-56.5 0,-56.5"/>
<text text-anchor="middle" x="49.5" y="-63.5" font-family="Helvetica,sans-Serif" font-size="10.00" fill="#000000">ifopt/variable_set.h</text>
</g>
<!-- Node2&#45;&gt;Node3 -->
<g id="edge3" class="edge">
<title>Node2&#45;&gt;Node3</title>
<path fill="none" stroke="#191970" d="M144.7308,-112.3733C126.3531,-103.4241 98.7688,-89.9917 78.0107,-79.8835"/>
<polygon fill="#191970" stroke="#191970" points="79.5343,-76.7325 69.0112,-75.5011 76.4696,-83.026 79.5343,-76.7325"/>
</g>
<!-- Node4 -->
<g id="node5" class="node">
<title>Node4</title>
<g id="a_node5"><a xlink:href="NodeTimes_8h.html" target="_top" xlink:title="NodeTimes.h">
<polygon fill="none" stroke="#000000" points="230,-56.5 230,-75.5 305,-75.5 305,-56.5 230,-56.5"/>
<text text-anchor="middle" x="267.5" y="-63.5" font-family="Helvetica,sans-Serif" font-size="10.00" fill="#000000">NodeTimes.h</text>
</a>
</g>
</g>
<!-- Node2&#45;&gt;Node4 -->
<g id="edge4" class="edge">
<title>Node2&#45;&gt;Node4</title>
<path fill="none" stroke="#191970" d="M182.4412,-112.2455C198.54,-103.4928 222.3879,-90.527 240.7391,-80.5496"/>
<polygon fill="#191970" stroke="#191970" points="242.6507,-83.4942 249.7644,-75.6427 239.3071,-77.3444 242.6507,-83.4942"/>
</g>
<!-- Node7 -->
<g id="node8" class="node">
<title>Node7</title>
<g id="a_node8"><a xlink:href="PhaseDurations_8h.html" target="_top" xlink:title="PhaseDurations.h">
<polygon fill="none" stroke="#000000" points="117,-56.5 117,-75.5 212,-75.5 212,-56.5 117,-56.5"/>
<text text-anchor="middle" x="164.5" y="-63.5" font-family="Helvetica,sans-Serif" font-size="10.00" fill="#000000">PhaseDurations.h</text>
</a>
</g>
</g>
<!-- Node2&#45;&gt;Node7 -->
<g id="edge7" class="edge">
<title>Node2&#45;&gt;Node7</title>
<path fill="none" stroke="#191970" d="M164.5,-112.2455C164.5,-104.9382 164.5,-94.6944 164.5,-85.7046"/>
<polygon fill="#191970" stroke="#191970" points="168.0001,-85.6426 164.5,-75.6427 161.0001,-85.6427 168.0001,-85.6426"/>
</g>
<!-- Node5 -->
<g id="node6" class="node">
<title>Node5</title>
<polygon fill="none" stroke="#bfbfbf" points="151.5,-.5 151.5,-19.5 195.5,-19.5 195.5,-.5 151.5,-.5"/>
<text text-anchor="middle" x="173.5" y="-7.5" font-family="Helvetica,sans-Serif" font-size="10.00" fill="#000000">vector</text>
</g>
<!-- Node4&#45;&gt;Node5 -->
<g id="edge5" class="edge">
<title>Node4&#45;&gt;Node5</title>
<path fill="none" stroke="#191970" d="M251.1264,-56.2455C236.5692,-47.5731 215.069,-34.7645 198.3848,-24.825"/>
<polygon fill="#191970" stroke="#191970" points="200.0683,-21.7539 189.6859,-19.6427 196.4856,-27.7676 200.0683,-21.7539"/>
</g>
<!-- Node6 -->
<g id="node7" class="node">
<title>Node6</title>
<polygon fill="none" stroke="#bfbfbf" points="231.5,-.5 231.5,-19.5 283.5,-19.5 283.5,-.5 231.5,-.5"/>
<text text-anchor="middle" x="257.5" y="-7.5" font-family="Helvetica,sans-Serif" font-size="10.00" fill="#000000">memory</text>
</g>
<!-- Node4&#45;&gt;Node6 -->
<g id="edge6" class="edge">
<title>Node4&#45;&gt;Node6</title>
<path fill="none" stroke="#191970" d="M265.7581,-56.2455C264.4533,-48.9382 262.624,-38.6944 261.0187,-29.7046"/>
<polygon fill="#191970" stroke="#191970" points="264.4254,-28.8717 259.2219,-19.6427 257.5344,-30.1022 264.4254,-28.8717"/>
</g>
<!-- Node7&#45;&gt;Node5 -->
<g id="edge9" class="edge">
<title>Node7&#45;&gt;Node5</title>
<path fill="none" stroke="#191970" d="M166.0677,-56.2455C167.2421,-48.9382 168.8884,-38.6944 170.3332,-29.7046"/>
<polygon fill="#191970" stroke="#191970" points="173.8191,-30.0714 171.9503,-19.6427 166.9078,-28.9606 173.8191,-30.0714"/>
</g>
<!-- Node7&#45;&gt;Node6 -->
<g id="edge8" class="edge">
<title>Node7&#45;&gt;Node6</title>
<path fill="none" stroke="#191970" d="M180.6994,-56.2455C195.1018,-47.5731 216.3732,-34.7645 232.8799,-24.825"/>
<polygon fill="#191970" stroke="#191970" points="234.725,-27.7996 241.4863,-19.6427 231.114,-21.8028 234.725,-27.7996"/>
</g>
</g>
</svg>
