<?xml version="1.0" encoding="UTF-8" standalone="no"?>
<!DOCTYPE svg PUBLIC "-//W3C//DTD SVG 1.1//EN"
 "http://www.w3.org/Graphics/SVG/1.1/DTD/svg11.dtd">
<!-- Generated by graphviz version 2.40.1 (20161225.0304)
 -->
<!-- Title: src/Constraints/QuaternionConstraint.h Pages: 1 -->
<svg width="318pt" height="106pt"
 viewBox="0.00 0.00 317.50 106.00" xmlns="http://www.w3.org/2000/svg" xmlns:xlink="http://www.w3.org/1999/xlink">
<g id="graph0" class="graph" transform="scale(1 1) rotate(0) translate(4 102)">
<title>src/Constraints/QuaternionConstraint.h</title>
<!-- Node11 -->
<g id="node1" class="node">
<title>Node11</title>
<polygon fill="#bfbfbf" stroke="#000000" points="82,-67.5 82,-97.5 216,-97.5 216,-67.5 82,-67.5"/>
<text text-anchor="start" x="90" y="-85.5" font-family="Helvetica,sans-Serif" font-size="10.00" fill="#000000">src/Constraints/Quaternion</text>
<text text-anchor="middle" x="149" y="-74.5" font-family="Helvetica,sans-Serif" font-size="10.00" fill="#000000">Constraint.h</text>
</g>
<!-- Node12 -->
<g id="node2" class="node">
<title>Node12</title>
<g id="a_node2"><a xlink:href="QuaternionConstraint_8cpp.html" target="_top" xlink:title="src/Constraints/Quaternion\lConstraint.cpp">
<polygon fill="none" stroke="#000000" points="0,-.5 0,-30.5 134,-30.5 134,-.5 0,-.5"/>
<text text-anchor="start" x="8" y="-18.5" font-family="Helvetica,sans-Serif" font-size="10.00" fill="#000000">src/Constraints/Quaternion</text>
<text text-anchor="middle" x="67" y="-7.5" font-family="Helvetica,sans-Serif" font-size="10.00" fill="#000000">Constraint.cpp</text>
</a>
</g>
</g>
<!-- Node11&#45;&gt;Node12 -->
<g id="edge1" class="edge">
<title>Node11&#45;&gt;Node12</title>
<path fill="none" stroke="#191970" d="M122.4183,-60.7808C110.3722,-50.9383 96.4233,-39.541 85.5334,-30.6432"/>
<polygon fill="#191970" stroke="#191970" points="120.4346,-63.6797 130.3929,-67.2967 124.8637,-58.2591 120.4346,-63.6797"/>
</g>
<!-- Node13 -->
<g id="node3" class="node">
<title>Node13</title>
<g id="a_node3"><a xlink:href="NlpFormulation_8cpp.html" target="_top" xlink:title="src/Problem/NlpFormulation.cpp">
<polygon fill="none" stroke="#000000" points="152.5,-6 152.5,-25 309.5,-25 309.5,-6 152.5,-6"/>
<text text-anchor="middle" x="231" y="-13" font-family="Helvetica,sans-Serif" font-size="10.00" fill="#000000">src/Problem/NlpFormulation.cpp</text>
</a>
</g>
</g>
<!-- Node11&#45;&gt;Node13 -->
<g id="edge2" class="edge">
<title>Node11&#45;&gt;Node13</title>
<path fill="none" stroke="#191970" d="M175.4643,-60.8767C190.2489,-48.7967 207.9301,-34.3498 219.3059,-25.055"/>
<polygon fill="#191970" stroke="#191970" points="173.1363,-58.2591 167.6071,-67.2967 177.5654,-63.6797 173.1363,-58.2591"/>
</g>
</g>
</svg>
