<?xml version="1.0" encoding="UTF-8" standalone="no"?>
<!DOCTYPE svg PUBLIC "-//W3C//DTD SVG 1.1//EN"
 "http://www.w3.org/Graphics/SVG/1.1/DTD/svg11.dtd">
<!-- Generated by graphviz version 2.40.1 (20161225.0304)
 -->
<!-- Title: src/Robots/RobotModel.cpp Pages: 1 -->
<svg width="364pt" height="308pt"
 viewBox="0.00 0.00 364.00 308.00" xmlns="http://www.w3.org/2000/svg" xmlns:xlink="http://www.w3.org/1999/xlink">
<g id="graph0" class="graph" transform="scale(1 1) rotate(0) translate(4 304)">
<title>src/Robots/RobotModel.cpp</title>
<!-- Node0 -->
<g id="node1" class="node">
<title>Node0</title>
<polygon fill="#bfbfbf" stroke="#000000" points="0,-280.5 0,-299.5 139,-299.5 139,-280.5 0,-280.5"/>
<text text-anchor="middle" x="69.5" y="-287.5" font-family="Helvetica,sans-Serif" font-size="10.00" fill="#000000">src/Robots/RobotModel.cpp</text>
</g>
<!-- Node1 -->
<g id="node2" class="node">
<title>Node1</title>
<g id="a_node2"><a xlink:href="RobotModel_8h.html" target="_top" xlink:title="RobotModel.h">
<polygon fill="none" stroke="#000000" points="31,-224.5 31,-243.5 108,-243.5 108,-224.5 31,-224.5"/>
<text text-anchor="middle" x="69.5" y="-231.5" font-family="Helvetica,sans-Serif" font-size="10.00" fill="#000000">RobotModel.h</text>
</a>
</g>
</g>
<!-- Node0&#45;&gt;Node1 -->
<g id="edge1" class="edge">
<title>Node0&#45;&gt;Node1</title>
<path fill="none" stroke="#191970" d="M69.5,-280.2455C69.5,-272.9382 69.5,-262.6944 69.5,-253.7046"/>
<polygon fill="#191970" stroke="#191970" points="73.0001,-253.6426 69.5,-243.6427 66.0001,-253.6427 73.0001,-253.6426"/>
</g>
<!-- Node2 -->
<g id="node3" class="node">
<title>Node2</title>
<polygon fill="none" stroke="#bfbfbf" points="72.5,-.5 72.5,-19.5 124.5,-19.5 124.5,-.5 72.5,-.5"/>
<text text-anchor="middle" x="98.5" y="-7.5" font-family="Helvetica,sans-Serif" font-size="10.00" fill="#000000">memory</text>
</g>
<!-- Node1&#45;&gt;Node2 -->
<g id="edge2" class="edge">
<title>Node1&#45;&gt;Node2</title>
<path fill="none" stroke="#191970" d="M64.1639,-224.1686C49.8091,-196.3002 13.3034,-114.9884 41.5,-56 47.6448,-43.1449 59.3299,-32.7306 70.5285,-25.0832"/>
<polygon fill="#191970" stroke="#191970" points="72.7041,-27.8488 79.29,-19.5495 68.9661,-21.9304 72.7041,-27.8488"/>
</g>
<!-- Node3 -->
<g id="node4" class="node">
<title>Node3</title>
<g id="a_node4"><a xlink:href="NodesHolder_8h.html" target="_top" xlink:title="../Variables/NodesHolder.h">
<polygon fill="none" stroke="#000000" points="78.5,-168.5 78.5,-187.5 212.5,-187.5 212.5,-168.5 78.5,-168.5"/>
<text text-anchor="middle" x="145.5" y="-175.5" font-family="Helvetica,sans-Serif" font-size="10.00" fill="#000000">../Variables/NodesHolder.h</text>
</a>
</g>
</g>
<!-- Node1&#45;&gt;Node3 -->
<g id="edge3" class="edge">
<title>Node1&#45;&gt;Node3</title>
<path fill="none" stroke="#191970" d="M82.7382,-224.2455C94.181,-215.814 110.9296,-203.4729 124.2475,-193.6598"/>
<polygon fill="#191970" stroke="#191970" points="126.4391,-196.3924 132.4135,-187.6427 122.2867,-190.757 126.4391,-196.3924"/>
</g>
<!-- Node4 -->
<g id="node5" class="node">
<title>Node4</title>
<g id="a_node5"><a xlink:href="NodesVariables_8h.html" target="_top" xlink:title="NodesVariables.h">
<polygon fill="none" stroke="#000000" points="156.5,-112.5 156.5,-131.5 250.5,-131.5 250.5,-112.5 156.5,-112.5"/>
<text text-anchor="middle" x="203.5" y="-119.5" font-family="Helvetica,sans-Serif" font-size="10.00" fill="#000000">NodesVariables.h</text>
</a>
</g>
</g>
<!-- Node3&#45;&gt;Node4 -->
<g id="edge4" class="edge">
<title>Node3&#45;&gt;Node4</title>
<path fill="none" stroke="#191970" d="M155.6028,-168.2455C164.0028,-160.1352 176.1494,-148.4075 186.1084,-138.7919"/>
<polygon fill="#191970" stroke="#191970" points="188.75,-141.1066 193.5129,-131.6427 183.8878,-136.0707 188.75,-141.1066"/>
</g>
<!-- Node6 -->
<g id="node7" class="node">
<title>Node6</title>
<g id="a_node7"><a xlink:href="NodeTimes_8h.html" target="_top" xlink:title="NodeTimes.h">
<polygon fill="none" stroke="#000000" points="281,-56.5 281,-75.5 356,-75.5 356,-56.5 281,-56.5"/>
<text text-anchor="middle" x="318.5" y="-63.5" font-family="Helvetica,sans-Serif" font-size="10.00" fill="#000000">NodeTimes.h</text>
</a>
</g>
</g>
<!-- Node3&#45;&gt;Node6 -->
<g id="edge12" class="edge">
<title>Node3&#45;&gt;Node6</title>
<path fill="none" stroke="#191970" d="M180.4732,-168.4814C204.1564,-160.9752 235.4007,-148.9309 259.5,-132 278.246,-118.8301 295.1649,-98.6203 306.0288,-84.034"/>
<polygon fill="#191970" stroke="#191970" points="308.9622,-85.9501 311.9728,-75.792 303.2846,-81.8555 308.9622,-85.9501"/>
</g>
<!-- Node8 -->
<g id="node9" class="node">
<title>Node8</title>
<g id="a_node9"><a xlink:href="PhaseDurations_8h.html" target="_top" xlink:title="PhaseDurations.h">
<polygon fill="none" stroke="#000000" points="51,-56.5 51,-75.5 146,-75.5 146,-56.5 51,-56.5"/>
<text text-anchor="middle" x="98.5" y="-63.5" font-family="Helvetica,sans-Serif" font-size="10.00" fill="#000000">PhaseDurations.h</text>
</a>
</g>
</g>
<!-- Node3&#45;&gt;Node8 -->
<g id="edge13" class="edge">
<title>Node3&#45;&gt;Node8</title>
<path fill="none" stroke="#191970" d="M141.4928,-168.4509C133.7578,-150.0186 116.6392,-109.2254 106.4913,-85.043"/>
<polygon fill="#191970" stroke="#191970" points="109.594,-83.3915 102.4971,-75.5249 103.1393,-86.1002 109.594,-83.3915"/>
</g>
<!-- Node5 -->
<g id="node6" class="node">
<title>Node5</title>
<polygon fill="none" stroke="#bfbfbf" points="164,-56.5 164,-75.5 263,-75.5 263,-56.5 164,-56.5"/>
<text text-anchor="middle" x="213.5" y="-63.5" font-family="Helvetica,sans-Serif" font-size="10.00" fill="#000000">ifopt/variable_set.h</text>
</g>
<!-- Node4&#45;&gt;Node5 -->
<g id="edge5" class="edge">
<title>Node4&#45;&gt;Node5</title>
<path fill="none" stroke="#191970" d="M205.2419,-112.2455C206.5467,-104.9382 208.376,-94.6944 209.9813,-85.7046"/>
<polygon fill="#191970" stroke="#191970" points="213.4656,-86.1022 211.7781,-75.6427 206.5746,-84.8717 213.4656,-86.1022"/>
</g>
<!-- Node4&#45;&gt;Node6 -->
<g id="edge6" class="edge">
<title>Node4&#45;&gt;Node6</title>
<path fill="none" stroke="#191970" d="M223.2692,-112.3733C241.6469,-103.4241 269.2312,-89.9917 289.9893,-79.8835"/>
<polygon fill="#191970" stroke="#191970" points="291.5304,-83.026 298.9888,-75.5011 288.4657,-76.7325 291.5304,-83.026"/>
</g>
<!-- Node4&#45;&gt;Node8 -->
<g id="edge9" class="edge">
<title>Node4&#45;&gt;Node8</title>
<path fill="none" stroke="#191970" d="M185.2104,-112.2455C168.7238,-103.4527 144.2648,-90.4079 125.5235,-80.4125"/>
<polygon fill="#191970" stroke="#191970" points="127.0506,-77.2604 116.58,-75.6427 123.7565,-83.4368 127.0506,-77.2604"/>
</g>
<!-- Node6&#45;&gt;Node2 -->
<g id="edge8" class="edge">
<title>Node6&#45;&gt;Node2</title>
<path fill="none" stroke="#191970" d="M280.6807,-56.3733C239.7688,-45.9593 175.0069,-29.4745 134.727,-19.2214"/>
<polygon fill="#191970" stroke="#191970" points="135.3508,-15.7687 124.7965,-16.6936 133.624,-22.5524 135.3508,-15.7687"/>
</g>
<!-- Node7 -->
<g id="node8" class="node">
<title>Node7</title>
<polygon fill="none" stroke="#bfbfbf" points="219.5,-.5 219.5,-19.5 263.5,-19.5 263.5,-.5 219.5,-.5"/>
<text text-anchor="middle" x="241.5" y="-7.5" font-family="Helvetica,sans-Serif" font-size="10.00" fill="#000000">vector</text>
</g>
<!-- Node6&#45;&gt;Node7 -->
<g id="edge7" class="edge">
<title>Node6&#45;&gt;Node7</title>
<path fill="none" stroke="#191970" d="M305.0876,-56.2455C293.4943,-47.814 276.5252,-35.4729 263.0322,-25.6598"/>
<polygon fill="#191970" stroke="#191970" points="264.9047,-22.6938 254.7587,-19.6427 260.7874,-28.355 264.9047,-22.6938"/>
</g>
<!-- Node8&#45;&gt;Node2 -->
<g id="edge10" class="edge">
<title>Node8&#45;&gt;Node2</title>
<path fill="none" stroke="#191970" d="M98.5,-56.2455C98.5,-48.9382 98.5,-38.6944 98.5,-29.7046"/>
<polygon fill="#191970" stroke="#191970" points="102.0001,-29.6426 98.5,-19.6427 95.0001,-29.6427 102.0001,-29.6426"/>
</g>
<!-- Node8&#45;&gt;Node7 -->
<g id="edge11" class="edge">
<title>Node8&#45;&gt;Node7</title>
<path fill="none" stroke="#191970" d="M123.0826,-56.3733C147.016,-47.0007 183.5066,-32.7107 209.652,-22.472"/>
<polygon fill="#191970" stroke="#191970" points="211.083,-25.6704 219.1182,-18.7649 208.5304,-19.1524 211.083,-25.6704"/>
</g>
</g>
</svg>
