<?xml version="1.0" encoding="UTF-8" standalone="no"?>
<!DOCTYPE svg PUBLIC "-//W3C//DTD SVG 1.1//EN"
 "http://www.w3.org/Graphics/SVG/1.1/DTD/svg11.dtd">
<!-- Generated by graphviz version 2.40.1 (20161225.0304)
 -->
<!-- Title: src/Robots/RobotModel.h Pages: 1 -->
<svg width="359pt" height="252pt"
 viewBox="0.00 0.00 358.50 252.00" xmlns="http://www.w3.org/2000/svg" xmlns:xlink="http://www.w3.org/1999/xlink">
<g id="graph0" class="graph" transform="scale(1 1) rotate(0) translate(4 248)">
<title>src/Robots/RobotModel.h</title>
<!-- Node0 -->
<g id="node1" class="node">
<title>Node0</title>
<polygon fill="#bfbfbf" stroke="#000000" points="0,-224.5 0,-243.5 128,-243.5 128,-224.5 0,-224.5"/>
<text text-anchor="middle" x="64" y="-231.5" font-family="Helvetica,sans-Serif" font-size="10.00" fill="#000000">src/Robots/RobotModel.h</text>
</g>
<!-- Node1 -->
<g id="node2" class="node">
<title>Node1</title>
<polygon fill="none" stroke="#bfbfbf" points="67,-.5 67,-19.5 119,-19.5 119,-.5 67,-.5"/>
<text text-anchor="middle" x="93" y="-7.5" font-family="Helvetica,sans-Serif" font-size="10.00" fill="#000000">memory</text>
</g>
<!-- Node0&#45;&gt;Node1 -->
<g id="edge1" class="edge">
<title>Node0&#45;&gt;Node1</title>
<path fill="none" stroke="#191970" d="M58.6639,-224.1686C44.3091,-196.3002 7.8034,-114.9884 36,-56 42.1448,-43.1449 53.8299,-32.7306 65.0285,-25.0832"/>
<polygon fill="#191970" stroke="#191970" points="67.2041,-27.8488 73.79,-19.5495 63.4661,-21.9304 67.2041,-27.8488"/>
</g>
<!-- Node2 -->
<g id="node3" class="node">
<title>Node2</title>
<g id="a_node3"><a xlink:href="NodesHolder_8h.html" target="_top" xlink:title="../Variables/NodesHolder.h">
<polygon fill="none" stroke="#000000" points="73,-168.5 73,-187.5 207,-187.5 207,-168.5 73,-168.5"/>
<text text-anchor="middle" x="140" y="-175.5" font-family="Helvetica,sans-Serif" font-size="10.00" fill="#000000">../Variables/NodesHolder.h</text>
</a>
</g>
</g>
<!-- Node0&#45;&gt;Node2 -->
<g id="edge2" class="edge">
<title>Node0&#45;&gt;Node2</title>
<path fill="none" stroke="#191970" d="M77.2382,-224.2455C88.681,-215.814 105.4296,-203.4729 118.7475,-193.6598"/>
<polygon fill="#191970" stroke="#191970" points="120.9391,-196.3924 126.9135,-187.6427 116.7867,-190.757 120.9391,-196.3924"/>
</g>
<!-- Node3 -->
<g id="node4" class="node">
<title>Node3</title>
<g id="a_node4"><a xlink:href="NodesVariables_8h.html" target="_top" xlink:title="NodesVariables.h">
<polygon fill="none" stroke="#000000" points="151,-112.5 151,-131.5 245,-131.5 245,-112.5 151,-112.5"/>
<text text-anchor="middle" x="198" y="-119.5" font-family="Helvetica,sans-Serif" font-size="10.00" fill="#000000">NodesVariables.h</text>
</a>
</g>
</g>
<!-- Node2&#45;&gt;Node3 -->
<g id="edge3" class="edge">
<title>Node2&#45;&gt;Node3</title>
<path fill="none" stroke="#191970" d="M150.1028,-168.2455C158.5028,-160.1352 170.6494,-148.4075 180.6084,-138.7919"/>
<polygon fill="#191970" stroke="#191970" points="183.25,-141.1066 188.0129,-131.6427 178.3878,-136.0707 183.25,-141.1066"/>
</g>
<!-- Node5 -->
<g id="node6" class="node">
<title>Node5</title>
<g id="a_node6"><a xlink:href="NodeTimes_8h.html" target="_top" xlink:title="NodeTimes.h">
<polygon fill="none" stroke="#000000" points="275.5,-56.5 275.5,-75.5 350.5,-75.5 350.5,-56.5 275.5,-56.5"/>
<text text-anchor="middle" x="313" y="-63.5" font-family="Helvetica,sans-Serif" font-size="10.00" fill="#000000">NodeTimes.h</text>
</a>
</g>
</g>
<!-- Node2&#45;&gt;Node5 -->
<g id="edge11" class="edge">
<title>Node2&#45;&gt;Node5</title>
<path fill="none" stroke="#191970" d="M174.9732,-168.4814C198.6564,-160.9752 229.9007,-148.9309 254,-132 272.746,-118.8301 289.6649,-98.6203 300.5288,-84.034"/>
<polygon fill="#191970" stroke="#191970" points="303.4622,-85.9501 306.4728,-75.792 297.7846,-81.8555 303.4622,-85.9501"/>
</g>
<!-- Node7 -->
<g id="node8" class="node">
<title>Node7</title>
<g id="a_node8"><a xlink:href="PhaseDurations_8h.html" target="_top" xlink:title="PhaseDurations.h">
<polygon fill="none" stroke="#000000" points="45.5,-56.5 45.5,-75.5 140.5,-75.5 140.5,-56.5 45.5,-56.5"/>
<text text-anchor="middle" x="93" y="-63.5" font-family="Helvetica,sans-Serif" font-size="10.00" fill="#000000">PhaseDurations.h</text>
</a>
</g>
</g>
<!-- Node2&#45;&gt;Node7 -->
<g id="edge12" class="edge">
<title>Node2&#45;&gt;Node7</title>
<path fill="none" stroke="#191970" d="M135.9928,-168.4509C128.2578,-150.0186 111.1392,-109.2254 100.9913,-85.043"/>
<polygon fill="#191970" stroke="#191970" points="104.094,-83.3915 96.9971,-75.5249 97.6393,-86.1002 104.094,-83.3915"/>
</g>
<!-- Node4 -->
<g id="node5" class="node">
<title>Node4</title>
<polygon fill="none" stroke="#bfbfbf" points="158.5,-56.5 158.5,-75.5 257.5,-75.5 257.5,-56.5 158.5,-56.5"/>
<text text-anchor="middle" x="208" y="-63.5" font-family="Helvetica,sans-Serif" font-size="10.00" fill="#000000">ifopt/variable_set.h</text>
</g>
<!-- Node3&#45;&gt;Node4 -->
<g id="edge4" class="edge">
<title>Node3&#45;&gt;Node4</title>
<path fill="none" stroke="#191970" d="M199.7419,-112.2455C201.0467,-104.9382 202.876,-94.6944 204.4813,-85.7046"/>
<polygon fill="#191970" stroke="#191970" points="207.9656,-86.1022 206.2781,-75.6427 201.0746,-84.8717 207.9656,-86.1022"/>
</g>
<!-- Node3&#45;&gt;Node5 -->
<g id="edge5" class="edge">
<title>Node3&#45;&gt;Node5</title>
<path fill="none" stroke="#191970" d="M217.7692,-112.3733C236.1469,-103.4241 263.7312,-89.9917 284.4893,-79.8835"/>
<polygon fill="#191970" stroke="#191970" points="286.0304,-83.026 293.4888,-75.5011 282.9657,-76.7325 286.0304,-83.026"/>
</g>
<!-- Node3&#45;&gt;Node7 -->
<g id="edge8" class="edge">
<title>Node3&#45;&gt;Node7</title>
<path fill="none" stroke="#191970" d="M179.7104,-112.2455C163.2238,-103.4527 138.7648,-90.4079 120.0235,-80.4125"/>
<polygon fill="#191970" stroke="#191970" points="121.5506,-77.2604 111.08,-75.6427 118.2565,-83.4368 121.5506,-77.2604"/>
</g>
<!-- Node5&#45;&gt;Node1 -->
<g id="edge7" class="edge">
<title>Node5&#45;&gt;Node1</title>
<path fill="none" stroke="#191970" d="M275.1807,-56.3733C234.2688,-45.9593 169.5069,-29.4745 129.227,-19.2214"/>
<polygon fill="#191970" stroke="#191970" points="129.8508,-15.7687 119.2965,-16.6936 128.124,-22.5524 129.8508,-15.7687"/>
</g>
<!-- Node6 -->
<g id="node7" class="node">
<title>Node6</title>
<polygon fill="none" stroke="#bfbfbf" points="214,-.5 214,-19.5 258,-19.5 258,-.5 214,-.5"/>
<text text-anchor="middle" x="236" y="-7.5" font-family="Helvetica,sans-Serif" font-size="10.00" fill="#000000">vector</text>
</g>
<!-- Node5&#45;&gt;Node6 -->
<g id="edge6" class="edge">
<title>Node5&#45;&gt;Node6</title>
<path fill="none" stroke="#191970" d="M299.5876,-56.2455C287.9943,-47.814 271.0252,-35.4729 257.5322,-25.6598"/>
<polygon fill="#191970" stroke="#191970" points="259.4047,-22.6938 249.2587,-19.6427 255.2874,-28.355 259.4047,-22.6938"/>
</g>
<!-- Node7&#45;&gt;Node1 -->
<g id="edge9" class="edge">
<title>Node7&#45;&gt;Node1</title>
<path fill="none" stroke="#191970" d="M93,-56.2455C93,-48.9382 93,-38.6944 93,-29.7046"/>
<polygon fill="#191970" stroke="#191970" points="96.5001,-29.6426 93,-19.6427 89.5001,-29.6427 96.5001,-29.6426"/>
</g>
<!-- Node7&#45;&gt;Node6 -->
<g id="edge10" class="edge">
<title>Node7&#45;&gt;Node6</title>
<path fill="none" stroke="#191970" d="M117.5826,-56.3733C141.516,-47.0007 178.0066,-32.7107 204.152,-22.472"/>
<polygon fill="#191970" stroke="#191970" points="205.583,-25.6704 213.6182,-18.7649 203.0304,-19.1524 205.583,-25.6704"/>
</g>
</g>
</svg>
