<?xml version="1.0" encoding="UTF-8" standalone="no"?>
<!DOCTYPE svg PUBLIC "-//W3C//DTD SVG 1.1//EN"
 "http://www.w3.org/Graphics/SVG/1.1/DTD/svg11.dtd">
<!-- Generated by graphviz version 2.40.1 (20161225.0304)
 -->
<!-- Title: gambol::NodesHolder Pages: 1 -->
<svg width="587pt" height="226pt"
 viewBox="0.00 0.00 586.50 226.00" xmlns="http://www.w3.org/2000/svg" xmlns:xlink="http://www.w3.org/1999/xlink">
<g id="graph0" class="graph" transform="scale(1 1) rotate(0) translate(4 222)">
<title>gambol::NodesHolder</title>
<!-- Node1 -->
<g id="node1" class="node">
<title>Node1</title>
<polygon fill="#bfbfbf" stroke="#000000" points="245,-.5 245,-79.5 356,-79.5 356,-.5 245,-.5"/>
<text text-anchor="middle" x="300.5" y="-67.5" font-family="Helvetica,sans-Serif" font-size="10.00" fill="#000000">gambol::NodesHolder</text>
<polyline fill="none" stroke="#000000" points="245,-60.5 356,-60.5 "/>
<text text-anchor="middle" x="300.5" y="-48.5" font-family="Helvetica,sans-Serif" font-size="10.00" fill="#000000"> </text>
<polyline fill="none" stroke="#000000" points="245,-41.5 356,-41.5 "/>
<text text-anchor="start" x="253" y="-29.5" font-family="Helvetica,sans-Serif" font-size="10.00" fill="#000000">+ NodesHolder()</text>
<text text-anchor="start" x="253" y="-18.5" font-family="Helvetica,sans-Serif" font-size="10.00" fill="#000000">+ NodesHolder()</text>
<text text-anchor="start" x="253" y="-7.5" font-family="Helvetica,sans-Serif" font-size="10.00" fill="#000000">+ ~NodesHolder()</text>
</g>
<!-- Node2 -->
<g id="node2" class="node">
<title>Node2</title>
<polygon fill="none" stroke="#bfbfbf" points="0,-155 0,-212 131,-212 131,-155 0,-155"/>
<text text-anchor="middle" x="65.5" y="-200" font-family="Helvetica,sans-Serif" font-size="10.00" fill="#000000">shared_ptr&lt; NodeTimes &gt;</text>
<polyline fill="none" stroke="#bfbfbf" points="0,-193 131,-193 "/>
<text text-anchor="middle" x="65.5" y="-181" font-family="Helvetica,sans-Serif" font-size="10.00" fill="#000000"> </text>
<polyline fill="none" stroke="#bfbfbf" points="0,-174 131,-174 "/>
<text text-anchor="middle" x="65.5" y="-162" font-family="Helvetica,sans-Serif" font-size="10.00" fill="#000000"> </text>
</g>
<!-- Node2&#45;&gt;Node1 -->
<g id="edge1" class="edge">
<title>Node2&#45;&gt;Node1</title>
<path fill="none" stroke="#404040" d="M101.9801,-154.9727C125.0158,-137.55 155.756,-115.3607 184.5,-98 200.0813,-88.5893 217.39,-79.3381 233.7811,-71.0842"/>
<polygon fill="none" stroke="#404040" points="234.2013,-70.8757 237.7968,-64.6249 244.9497,-65.5396 241.3541,-71.7905 234.2013,-70.8757"/>
<text text-anchor="middle" x="217" y="-112" font-family="Helvetica,sans-Serif" font-size="10.00" fill="#000000"> +node_times_</text>
</g>
<!-- Node3 -->
<g id="node3" class="node">
<title>Node3</title>
<polygon fill="none" stroke="#bfbfbf" points="149,-155 149,-212 298,-212 298,-155 149,-155"/>
<text text-anchor="middle" x="223.5" y="-200" font-family="Helvetica,sans-Serif" font-size="10.00" fill="#000000">shared_ptr&lt; NodesVariables &gt;</text>
<polyline fill="none" stroke="#bfbfbf" points="149,-193 298,-193 "/>
<text text-anchor="middle" x="223.5" y="-181" font-family="Helvetica,sans-Serif" font-size="10.00" fill="#000000"> </text>
<polyline fill="none" stroke="#bfbfbf" points="149,-174 298,-174 "/>
<text text-anchor="middle" x="223.5" y="-162" font-family="Helvetica,sans-Serif" font-size="10.00" fill="#000000"> </text>
</g>
<!-- Node3&#45;&gt;Node1 -->
<g id="edge2" class="edge">
<title>Node3&#45;&gt;Node1</title>
<path fill="none" stroke="#404040" d="M238.897,-154.8055C248.8088,-136.3336 261.9625,-111.8199 273.5695,-90.1886"/>
<polygon fill="none" stroke="#404040" points="273.6232,-90.0886 272.9355,-82.9103 279.297,-79.5146 279.9847,-86.6929 273.6232,-90.0886"/>
<text text-anchor="middle" x="295" y="-123" font-family="Helvetica,sans-Serif" font-size="10.00" fill="#000000"> +torques_</text>
<text text-anchor="middle" x="295" y="-112" font-family="Helvetica,sans-Serif" font-size="10.00" fill="#000000">+joint_vel_</text>
<text text-anchor="middle" x="295" y="-101" font-family="Helvetica,sans-Serif" font-size="10.00" fill="#000000">+joint_pos_</text>
</g>
<!-- Node4 -->
<g id="node4" class="node">
<title>Node4</title>
<polygon fill="none" stroke="#bfbfbf" points="316.5,-149.5 316.5,-217.5 438.5,-217.5 438.5,-149.5 316.5,-149.5"/>
<text text-anchor="start" x="324.5" y="-205.5" font-family="Helvetica,sans-Serif" font-size="10.00" fill="#000000">vector&lt; NodesVariables</text>
<text text-anchor="middle" x="377.5" y="-194.5" font-family="Helvetica,sans-Serif" font-size="10.00" fill="#000000">::Ptr &gt;</text>
<polyline fill="none" stroke="#bfbfbf" points="316.5,-187.5 438.5,-187.5 "/>
<text text-anchor="middle" x="377.5" y="-175.5" font-family="Helvetica,sans-Serif" font-size="10.00" fill="#000000"> </text>
<polyline fill="none" stroke="#bfbfbf" points="316.5,-168.5 438.5,-168.5 "/>
<text text-anchor="middle" x="377.5" y="-156.5" font-family="Helvetica,sans-Serif" font-size="10.00" fill="#000000"> </text>
</g>
<!-- Node4&#45;&gt;Node1 -->
<g id="edge3" class="edge">
<title>Node4&#45;&gt;Node1</title>
<path fill="none" stroke="#404040" d="M359.2521,-149.4925C349.7586,-131.8001 337.9684,-109.8274 327.4469,-90.2192"/>
<polygon fill="none" stroke="#404040" points="327.4286,-90.1851 321.0671,-86.7894 321.7548,-79.6112 328.1164,-83.0069 327.4286,-90.1851"/>
<text text-anchor="middle" x="376.5" y="-112" font-family="Helvetica,sans-Serif" font-size="10.00" fill="#000000"> +ee_forces_</text>
</g>
<!-- Node5 -->
<g id="node5" class="node">
<title>Node5</title>
<polygon fill="none" stroke="#bfbfbf" points="456.5,-149.5 456.5,-217.5 578.5,-217.5 578.5,-149.5 456.5,-149.5"/>
<text text-anchor="start" x="464.5" y="-205.5" font-family="Helvetica,sans-Serif" font-size="10.00" fill="#000000">vector&lt; PhaseDurations</text>
<text text-anchor="middle" x="517.5" y="-194.5" font-family="Helvetica,sans-Serif" font-size="10.00" fill="#000000">::Ptr &gt;</text>
<polyline fill="none" stroke="#bfbfbf" points="456.5,-187.5 578.5,-187.5 "/>
<text text-anchor="middle" x="517.5" y="-175.5" font-family="Helvetica,sans-Serif" font-size="10.00" fill="#000000"> </text>
<polyline fill="none" stroke="#bfbfbf" points="456.5,-168.5 578.5,-168.5 "/>
<text text-anchor="middle" x="517.5" y="-156.5" font-family="Helvetica,sans-Serif" font-size="10.00" fill="#000000"> </text>
</g>
<!-- Node5&#45;&gt;Node1 -->
<g id="edge4" class="edge">
<title>Node5&#45;&gt;Node1</title>
<path fill="none" stroke="#404040" d="M478.0234,-149.4263C458.1157,-132.9855 433.2147,-113.5141 409.5,-98 396.1346,-89.2564 381.3159,-80.6893 367.0221,-72.9366"/>
<polygon fill="none" stroke="#404040" points="366.8142,-72.8257 359.6376,-73.5308 356.2266,-67.1774 363.4031,-66.4724 366.8142,-72.8257"/>
<text text-anchor="middle" x="494.5" y="-112" font-family="Helvetica,sans-Serif" font-size="10.00" fill="#000000"> +phase_durations_</text>
</g>
</g>
</svg>
