<?xml version="1.0" encoding="UTF-8" standalone="no"?>
<!DOCTYPE svg PUBLIC "-//W3C//DTD SVG 1.1//EN"
 "http://www.w3.org/Graphics/SVG/1.1/DTD/svg11.dtd">
<!-- Generated by graphviz version 2.40.1 (20161225.0304)
 -->
<!-- Title: src/Constraints/TerrainFlatConstraint.h Pages: 1 -->
<svg width="331pt" height="319pt"
 viewBox="0.00 0.00 331.06 319.00" xmlns="http://www.w3.org/2000/svg" xmlns:xlink="http://www.w3.org/1999/xlink">
<g id="graph0" class="graph" transform="scale(1 1) rotate(0) translate(4 315)">
<title>src/Constraints/TerrainFlatConstraint.h</title>
<!-- Node0 -->
<g id="node1" class="node">
<title>Node0</title>
<polygon fill="#bfbfbf" stroke="#000000" points="128,-280.5 128,-310.5 261,-310.5 261,-280.5 128,-280.5"/>
<text text-anchor="start" x="136" y="-298.5" font-family="Helvetica,sans-Serif" font-size="10.00" fill="#000000">src/Constraints/TerrainFlat</text>
<text text-anchor="middle" x="194.5" y="-287.5" font-family="Helvetica,sans-Serif" font-size="10.00" fill="#000000">Constraint.h</text>
</g>
<!-- Node1 -->
<g id="node2" class="node">
<title>Node1</title>
<g id="a_node2"><a xlink:href="NodesConstraint_8h.html" target="_top" xlink:title="NodesConstraint.h">
<polygon fill="none" stroke="#000000" points="81.5,-224.5 81.5,-243.5 179.5,-243.5 179.5,-224.5 81.5,-224.5"/>
<text text-anchor="middle" x="130.5" y="-231.5" font-family="Helvetica,sans-Serif" font-size="10.00" fill="#000000">NodesConstraint.h</text>
</a>
</g>
</g>
<!-- Node0&#45;&gt;Node1 -->
<g id="edge1" class="edge">
<title>Node0&#45;&gt;Node1</title>
<path fill="none" stroke="#191970" d="M178.6798,-280.2977C169.4258,-271.4052 157.7219,-260.1586 148.167,-250.9769"/>
<polygon fill="#191970" stroke="#191970" points="150.3828,-248.2521 140.7472,-243.8469 145.5326,-253.2995 150.3828,-248.2521"/>
</g>
<!-- Node10 -->
<g id="node11" class="node">
<title>Node10</title>
<g id="a_node11"><a xlink:href="RobotModel_8h.html" target="_top" xlink:title="../Robots/RobotModel.h">
<polygon fill="none" stroke="#000000" points="198,-224.5 198,-243.5 319,-243.5 319,-224.5 198,-224.5"/>
<text text-anchor="middle" x="258.5" y="-231.5" font-family="Helvetica,sans-Serif" font-size="10.00" fill="#000000">../Robots/RobotModel.h</text>
</a>
</g>
</g>
<!-- Node0&#45;&gt;Node10 -->
<g id="edge14" class="edge">
<title>Node0&#45;&gt;Node10</title>
<path fill="none" stroke="#191970" d="M210.3202,-280.2977C219.5742,-271.4052 231.2781,-260.1586 240.833,-250.9769"/>
<polygon fill="#191970" stroke="#191970" points="243.4674,-253.2995 248.2528,-243.8469 238.6172,-248.2521 243.4674,-253.2995"/>
</g>
<!-- Node2 -->
<g id="node3" class="node">
<title>Node2</title>
<polygon fill="none" stroke="#bfbfbf" points="1.5,-168.5 1.5,-187.5 109.5,-187.5 109.5,-168.5 1.5,-168.5"/>
<text text-anchor="middle" x="55.5" y="-175.5" font-family="Helvetica,sans-Serif" font-size="10.00" fill="#000000">ifopt/constraint_set.h</text>
</g>
<!-- Node1&#45;&gt;Node2 -->
<g id="edge2" class="edge">
<title>Node1&#45;&gt;Node2</title>
<path fill="none" stroke="#191970" d="M117.436,-224.2455C106.1438,-215.814 89.6155,-203.4729 76.4729,-193.6598"/>
<polygon fill="#191970" stroke="#191970" points="78.5211,-190.8211 68.4143,-187.6427 74.3331,-196.4301 78.5211,-190.8211"/>
</g>
<!-- Node3 -->
<g id="node4" class="node">
<title>Node3</title>
<g id="a_node4"><a xlink:href="NodesHolder_8h.html" target="_top" xlink:title="../Variables/NodesHolder.h">
<polygon fill="none" stroke="#000000" points="127.5,-168.5 127.5,-187.5 261.5,-187.5 261.5,-168.5 127.5,-168.5"/>
<text text-anchor="middle" x="194.5" y="-175.5" font-family="Helvetica,sans-Serif" font-size="10.00" fill="#000000">../Variables/NodesHolder.h</text>
</a>
</g>
</g>
<!-- Node1&#45;&gt;Node3 -->
<g id="edge3" class="edge">
<title>Node1&#45;&gt;Node3</title>
<path fill="none" stroke="#191970" d="M141.6479,-224.2455C151.0087,-216.0549 164.5858,-204.1749 175.6349,-194.5069"/>
<polygon fill="#191970" stroke="#191970" points="178.2588,-196.8618 183.4798,-187.6427 173.6492,-191.5937 178.2588,-196.8618"/>
</g>
<!-- Node4 -->
<g id="node5" class="node">
<title>Node4</title>
<g id="a_node5"><a xlink:href="NodesVariables_8h.html" target="_top" xlink:title="NodesVariables.h">
<polygon fill="none" stroke="#000000" points="105.5,-112.5 105.5,-131.5 199.5,-131.5 199.5,-112.5 105.5,-112.5"/>
<text text-anchor="middle" x="152.5" y="-119.5" font-family="Helvetica,sans-Serif" font-size="10.00" fill="#000000">NodesVariables.h</text>
</a>
</g>
</g>
<!-- Node3&#45;&gt;Node4 -->
<g id="edge4" class="edge">
<title>Node3&#45;&gt;Node4</title>
<path fill="none" stroke="#191970" d="M187.1842,-168.2455C181.2821,-160.3761 172.8258,-149.101 165.7406,-139.6542"/>
<polygon fill="#191970" stroke="#191970" points="168.5321,-137.5427 159.732,-131.6427 162.932,-141.7427 168.5321,-137.5427"/>
</g>
<!-- Node6 -->
<g id="node7" class="node">
<title>Node6</title>
<g id="a_node7"><a xlink:href="NodeTimes_8h.html" target="_top" xlink:title="NodeTimes.h">
<polygon fill="none" stroke="#000000" points="0,-56.5 0,-75.5 75,-75.5 75,-56.5 0,-56.5"/>
<text text-anchor="middle" x="37.5" y="-63.5" font-family="Helvetica,sans-Serif" font-size="10.00" fill="#000000">NodeTimes.h</text>
</a>
</g>
</g>
<!-- Node3&#45;&gt;Node6 -->
<g id="edge12" class="edge">
<title>Node3&#45;&gt;Node6</title>
<path fill="none" stroke="#191970" d="M166.6738,-168.4076C146.1087,-160.5249 118.0562,-148.0528 96.5,-132 78.1255,-118.3166 61.1454,-98.1912 50.1656,-83.7652"/>
<polygon fill="#191970" stroke="#191970" points="52.9069,-81.5857 44.1458,-75.628 47.2795,-85.7489 52.9069,-81.5857"/>
</g>
<!-- Node9 -->
<g id="node10" class="node">
<title>Node9</title>
<g id="a_node10"><a xlink:href="PhaseDurations_8h.html" target="_top" xlink:title="PhaseDurations.h">
<polygon fill="none" stroke="#000000" points="210,-56.5 210,-75.5 305,-75.5 305,-56.5 210,-56.5"/>
<text text-anchor="middle" x="257.5" y="-63.5" font-family="Helvetica,sans-Serif" font-size="10.00" fill="#000000">PhaseDurations.h</text>
</a>
</g>
</g>
<!-- Node3&#45;&gt;Node9 -->
<g id="edge13" class="edge">
<title>Node3&#45;&gt;Node9</title>
<path fill="none" stroke="#191970" d="M199.8713,-168.4509C210.3325,-149.8533 233.5983,-108.4919 247.152,-84.3964"/>
<polygon fill="#191970" stroke="#191970" points="250.2901,-85.9566 252.1423,-75.5249 244.1891,-82.5247 250.2901,-85.9566"/>
</g>
<!-- Node5 -->
<g id="node6" class="node">
<title>Node5</title>
<polygon fill="none" stroke="#bfbfbf" points="93,-56.5 93,-75.5 192,-75.5 192,-56.5 93,-56.5"/>
<text text-anchor="middle" x="142.5" y="-63.5" font-family="Helvetica,sans-Serif" font-size="10.00" fill="#000000">ifopt/variable_set.h</text>
</g>
<!-- Node4&#45;&gt;Node5 -->
<g id="edge5" class="edge">
<title>Node4&#45;&gt;Node5</title>
<path fill="none" stroke="#191970" d="M150.7581,-112.2455C149.4533,-104.9382 147.624,-94.6944 146.0187,-85.7046"/>
<polygon fill="#191970" stroke="#191970" points="149.4254,-84.8717 144.2219,-75.6427 142.5344,-86.1022 149.4254,-84.8717"/>
</g>
<!-- Node4&#45;&gt;Node6 -->
<g id="edge6" class="edge">
<title>Node4&#45;&gt;Node6</title>
<path fill="none" stroke="#191970" d="M132.7308,-112.3733C114.3531,-103.4241 86.7688,-89.9917 66.0107,-79.8835"/>
<polygon fill="#191970" stroke="#191970" points="67.5343,-76.7325 57.0112,-75.5011 64.4696,-83.026 67.5343,-76.7325"/>
</g>
<!-- Node4&#45;&gt;Node9 -->
<g id="edge9" class="edge">
<title>Node4&#45;&gt;Node9</title>
<path fill="none" stroke="#191970" d="M170.7896,-112.2455C187.2762,-103.4527 211.7352,-90.4079 230.4765,-80.4125"/>
<polygon fill="#191970" stroke="#191970" points="232.2435,-83.4368 239.42,-75.6427 228.9494,-77.2604 232.2435,-83.4368"/>
</g>
<!-- Node7 -->
<g id="node8" class="node">
<title>Node7</title>
<polygon fill="none" stroke="#bfbfbf" points="92.5,-.5 92.5,-19.5 136.5,-19.5 136.5,-.5 92.5,-.5"/>
<text text-anchor="middle" x="114.5" y="-7.5" font-family="Helvetica,sans-Serif" font-size="10.00" fill="#000000">vector</text>
</g>
<!-- Node6&#45;&gt;Node7 -->
<g id="edge7" class="edge">
<title>Node6&#45;&gt;Node7</title>
<path fill="none" stroke="#191970" d="M50.9124,-56.2455C62.5057,-47.814 79.4748,-35.4729 92.9678,-25.6598"/>
<polygon fill="#191970" stroke="#191970" points="95.2126,-28.355 101.2413,-19.6427 91.0953,-22.6938 95.2126,-28.355"/>
</g>
<!-- Node8 -->
<g id="node9" class="node">
<title>Node8</title>
<polygon fill="none" stroke="#bfbfbf" points="231.5,-.5 231.5,-19.5 283.5,-19.5 283.5,-.5 231.5,-.5"/>
<text text-anchor="middle" x="257.5" y="-7.5" font-family="Helvetica,sans-Serif" font-size="10.00" fill="#000000">memory</text>
</g>
<!-- Node6&#45;&gt;Node8 -->
<g id="edge8" class="edge">
<title>Node6&#45;&gt;Node8</title>
<path fill="none" stroke="#191970" d="M75.3193,-56.3733C116.2312,-45.9593 180.9931,-29.4745 221.273,-19.2214"/>
<polygon fill="#191970" stroke="#191970" points="222.376,-22.5524 231.2035,-16.6936 220.6492,-15.7687 222.376,-22.5524"/>
</g>
<!-- Node9&#45;&gt;Node7 -->
<g id="edge11" class="edge">
<title>Node9&#45;&gt;Node7</title>
<path fill="none" stroke="#191970" d="M232.9174,-56.3733C208.984,-47.0007 172.4934,-32.7107 146.348,-22.472"/>
<polygon fill="#191970" stroke="#191970" points="147.4696,-19.1524 136.8818,-18.7649 144.917,-25.6704 147.4696,-19.1524"/>
</g>
<!-- Node9&#45;&gt;Node8 -->
<g id="edge10" class="edge">
<title>Node9&#45;&gt;Node8</title>
<path fill="none" stroke="#191970" d="M257.5,-56.2455C257.5,-48.9382 257.5,-38.6944 257.5,-29.7046"/>
<polygon fill="#191970" stroke="#191970" points="261.0001,-29.6426 257.5,-19.6427 254.0001,-29.6427 261.0001,-29.6426"/>
</g>
<!-- Node10&#45;&gt;Node3 -->
<g id="edge16" class="edge">
<title>Node10&#45;&gt;Node3</title>
<path fill="none" stroke="#191970" d="M247.3521,-224.2455C237.9913,-216.0549 224.4142,-204.1749 213.3651,-194.5069"/>
<polygon fill="#191970" stroke="#191970" points="215.3508,-191.5937 205.5202,-187.6427 210.7412,-196.8618 215.3508,-191.5937"/>
</g>
<!-- Node10&#45;&gt;Node8 -->
<g id="edge15" class="edge">
<title>Node10&#45;&gt;Node8</title>
<path fill="none" stroke="#191970" d="M266.4223,-224.3809C287.8968,-197.071 343.7,-117.0876 314.5,-56 308.3552,-43.1449 296.6701,-32.7306 285.4715,-25.0832"/>
<polygon fill="#191970" stroke="#191970" points="287.0339,-21.9304 276.71,-19.5495 283.2959,-27.8488 287.0339,-21.9304"/>
</g>
</g>
</svg>
